[
    [
        "BardM0_GenericBlue",
        [
            [
                [
                    0,
                    0
                ],
                [
                    128,
                    160,
                    128
                ]
            ],
            [
                [
                    1,
                    0
                ],
                [
                    24,
                    48,
                    120
                ]
            ],
            [
                [
                    2,
                    0
                ],
                [
                    64,
                    152,
                    248
                ]
            ],
            [
                [
                    3,
                    0
                ],
                [
                    48,
                    80,
                    232
                ]
            ],
            [
                [
                    4,
                    0
                ],
                [
                    40,
                    40,
                    40
                ]
            ],
            [
                [
                    5,
                    0
                ],
                [
                    112,
                    72,
                    48
                ]
            ],
            [
                [
                    6,
                    0
                ],
                [
                    136,
                    112,
                    16
                ]
            ],
            [
                [
                    7,
                    0
                ],
                [
                    160,
                    136,
                    8
                ]
            ],
            [
                [
                    0,
                    1
                ],
                [
                    168,
                    232,
                    248
                ]
            ],
            [
                [
                    1,
                    1
                ],
                [
                    112,
                    176,
                    208
                ]
            ],
            [
                [
                    2,
                    1
                ],
                [
                    200,
                    176,
                    32
                ]
            ],
            [
                [
                    3,
                    1
                ],
                [
                    248,
                    248,
                    248
                ]
            ],
            [
                [
                    4,
                    1
                ],
                [
                    248,
                    248,
                    208
                ]
            ],
            [
                [
                    5,
                    1
                ],
                [
                    248,
                    192,
                    144
                ]
            ],
            [
                [
                    6,
                    1
                ],
                [
                    248,
                    224,
                    56
                ]
            ],
            [
                [
                    7,
                    1
                ],
                [
                    168,
                    144,
                    48
                ]
            ]
        ]
    ]
]