[
    [
        "Berserker0_Brandon",
        [
            [
                [
                    0,
                    0
                ],
                [
                    128,
                    160,
                    128
                ]
            ],
            [
                [
                    1,
                    0
                ],
                [
                    112,
                    72,
                    48
                ]
            ],
            [
                [
                    2,
                    0
                ],
                [
                    232,
                    192,
                    136
                ]
            ],
            [
                [
                    3,
                    0
                ],
                [
                    248,
                    248,
                    208
                ]
            ],
            [
                [
                    4,
                    0
                ],
                [
                    40,
                    40,
                    40
                ]
            ],
            [
                [
                    5,
                    0
                ],
                [
                    200,
                    136,
                    88
                ]
            ],
            [
                [
                    6,
                    0
                ],
                [
                    121,
                    27,
                    22
                ]
            ],
            [
                [
                    7,
                    0
                ],
                [
                    142,
                    45,
                    39
                ]
            ],
            [
                [
                    0,
                    1
                ],
                [
                    64,
                    64,
                    72
                ]
            ],
            [
                [
                    1,
                    1
                ],
                [
                    48,
                    48,
                    56
                ]
            ],
            [
                [
                    2,
                    1
                ],
                [
                    186,
                    52,
                    0
                ]
            ],
            [
                [
                    3,
                    1
                ],
                [
                    248,
                    248,
                    8
                ]
            ],
            [
                [
                    4,
                    1
                ],
                [
                    80,
                    80,
                    88
                ]
            ],
            [
                [
                    5,
                    1
                ],
                [
                    248,
                    248,
                    248
                ]
            ]
        ]
    ]
]