[
    [
        "BerserkerF5_GenericBlue",
        [
            [
                [
                    0,
                    0
                ],
                [
                    128,
                    160,
                    128
                ]
            ],
            [
                [
                    1,
                    0
                ],
                [
                    40,
                    40,
                    40
                ]
            ],
            [
                [
                    2,
                    0
                ],
                [
                    104,
                    136,
                    168
                ]
            ],
            [
                [
                    3,
                    0
                ],
                [
                    192,
                    224,
                    232
                ]
            ],
            [
                [
                    4,
                    0
                ],
                [
                    152,
                    184,
                    216
                ]
            ],
            [
                [
                    5,
                    0
                ],
                [
                    248,
                    248,
                    248
                ]
            ],
            [
                [
                    6,
                    0
                ],
                [
                    112,
                    72,
                    48
                ]
            ],
            [
                [
                    7,
                    0
                ],
                [
                    200,
                    136,
                    88
                ]
            ],
            [
                [
                    0,
                    1
                ],
                [
                    232,
                    192,
                    136
                ]
            ],
            [
                [
                    1,
                    1
                ],
                [
                    248,
                    248,
                    208
                ]
            ],
            [
                [
                    2,
                    1
                ],
                [
                    40,
                    88,
                    160
                ]
            ],
            [
                [
                    3,
                    1
                ],
                [
                    72,
                    160,
                    200
                ]
            ],
            [
                [
                    4,
                    1
                ],
                [
                    248,
                    248,
                    8
                ]
            ],
            [
                [
                    5,
                    1
                ],
                [
                    104,
                    208,
                    248
                ]
            ],
            [
                [
                    6,
                    1
                ],
                [
                    56,
                    56,
                    56
                ]
            ],
            [
                [
                    7,
                    1
                ],
                [
                    104,
                    104,
                    104
                ]
            ]
        ]
    ]
]