[
    [
        "Bertsquad_SwordBert",
        [
            [
                [
                    0,
                    0
                ],
                [
                    128,
                    160,
                    128
                ]
            ],
            [
                [
                    1,
                    0
                ],
                [
                    40,
                    40,
                    40
                ]
            ],
            [
                [
                    2,
                    0
                ],
                [
                    192,
                    224,
                    232
                ]
            ],
            [
                [
                    3,
                    0
                ],
                [
                    248,
                    248,
                    248
                ]
            ],
            [
                [
                    4,
                    0
                ],
                [
                    115,
                    115,
                    106
                ]
            ],
            [
                [
                    5,
                    0
                ],
                [
                    192,
                    128,
                    80
                ]
            ],
            [
                [
                    6,
                    0
                ],
                [
                    189,
                    172,
                    180
                ]
            ],
            [
                [
                    7,
                    0
                ],
                [
                    248,
                    192,
                    144
                ]
            ],
            [
                [
                    0,
                    1
                ],
                [
                    177,
                    190,
                    194
                ]
            ],
            [
                [
                    1,
                    1
                ],
                [
                    116,
                    113,
                    140
                ]
            ],
            [
                [
                    2,
                    1
                ],
                [
                    205,
                    90,
                    115
                ]
            ],
            [
                [
                    3,
                    1
                ],
                [
                    240,
                    248,
                    248
                ]
            ],
            [
                [
                    4,
                    1
                ],
                [
                    74,
                    74,
                    74
                ]
            ],
            [
                [
                    5,
                    1
                ],
                [
                    131,
                    57,
                    74
                ]
            ],
            [
                [
                    6,
                    1
                ],
                [
                    238,
                    123,
                    148
                ]
            ],
            [
                [
                    7,
                    1
                ],
                [
                    248,
                    248,
                    208
                ]
            ]
        ]
    ]
]