[
    [
        "Cormorant T1 Palette",
        [
            [
                [
                    0,
                    0
                ],
                [
                    128,
                    160,
                    128
                ]
            ],
            [
                [
                    1,
                    0
                ],
                [
                    40,
                    40,
                    40
                ]
            ],
            [
                [
                    2,
                    0
                ],
                [
                    80,
                    72,
                    64
                ]
            ],
            [
                [
                    3,
                    0
                ],
                [
                    136,
                    32,
                    16
                ]
            ],
            [
                [
                    4,
                    0
                ],
                [
                    168,
                    168,
                    160
                ]
            ],
            [
                [
                    5,
                    0
                ],
                [
                    104,
                    16,
                    0
                ]
            ],
            [
                [
                    6,
                    0
                ],
                [
                    248,
                    248,
                    248
                ]
            ],
            [
                [
                    7,
                    0
                ],
                [
                    112,
                    112,
                    104
                ]
            ],
            [
                [
                    0,
                    1
                ],
                [
                    184,
                    56,
                    48
                ]
            ],
            [
                [
                    1,
                    1
                ],
                [
                    192,
                    128,
                    0
                ]
            ],
            [
                [
                    2,
                    1
                ],
                [
                    120,
                    64,
                    0
                ]
            ],
            [
                [
                    3,
                    1
                ],
                [
                    144,
                    56,
                    24
                ]
            ],
            [
                [
                    4,
                    1
                ],
                [
                    176,
                    88,
                    56
                ]
            ],
            [
                [
                    5,
                    1
                ],
                [
                    112,
                    32,
                    16
                ]
            ],
            [
                [
                    6,
                    1
                ],
                [
                    248,
                    184,
                    120
                ]
            ],
            [
                [
                    7,
                    1
                ],
                [
                    248,
                    240,
                    0
                ]
            ]
        ]
    ]
]