[
    [
        "Dragon_Transforming",
        [
            [
                [
                    0,
                    0
                ],
                [
                    128,
                    160,
                    128
                ]
            ],
            [
                [
                    1,
                    0
                ],
                [
                    40,
                    40,
                    40
                ]
            ],
            [
                [
                    2,
                    0
                ],
                [
                    96,
                    80,
                    8
                ]
            ],
            [
                [
                    3,
                    0
                ],
                [
                    160,
                    120,
                    16
                ]
            ],
            [
                [
                    4,
                    0
                ],
                [
                    200,
                    168,
                    40
                ]
            ],
            [
                [
                    5,
                    0
                ],
                [
                    56,
                    152,
                    64
                ]
            ],
            [
                [
                    6,
                    0
                ],
                [
                    80,
                    208,
                    80
                ]
            ],
            [
                [
                    7,
                    0
                ],
                [
                    232,
                    208,
                    64
                ]
            ],
            [
                [
                    0,
                    1
                ],
                [
                    216,
                    240,
                    160
                ]
            ],
            [
                [
                    1,
                    1
                ],
                [
                    88,
                    16,
                    128
                ]
            ],
            [
                [
                    2,
                    1
                ],
                [
                    216,
                    96,
                    216
                ]
            ],
            [
                [
                    3,
                    1
                ],
                [
                    144,
                    40,
                    152
                ]
            ],
            [
                [
                    4,
                    1
                ],
                [
                    112,
                    72,
                    72
                ]
            ],
            [
                [
                    5,
                    1
                ],
                [
                    248,
                    192,
                    144
                ]
            ],
            [
                [
                    6,
                    1
                ],
                [
                    248,
                    248,
                    176
                ]
            ],
            [
                [
                    7,
                    1
                ],
                [
                    248,
                    248,
                    248
                ]
            ]
        ]
    ]
]