[
    [
        "Ennis Palette",
        [
            [
                [
                    0,
                    0
                ],
                [
                    128,
                    160,
                    128
                ]
            ],
            [
                [
                    1,
                    0
                ],
                [
                    102,
                    140,
                    179
                ]
            ],
            [
                [
                    2,
                    0
                ],
                [
                    181,
                    214,
                    247
                ]
            ],
            [
                [
                    3,
                    0
                ],
                [
                    248,
                    248,
                    248
                ]
            ],
            [
                [
                    4,
                    0
                ],
                [
                    40,
                    56,
                    96
                ]
            ],
            [
                [
                    5,
                    0
                ],
                [
                    165,
                    99,
                    0
                ]
            ],
            [
                [
                    6,
                    0
                ],
                [
                    40,
                    40,
                    40
                ]
            ],
            [
                [
                    7,
                    0
                ],
                [
                    255,
                    255,
                    49
                ]
            ],
            [
                [
                    0,
                    1
                ],
                [
                    79,
                    62,
                    51
                ]
            ],
            [
                [
                    1,
                    1
                ],
                [
                    48,
                    80,
                    136
                ]
            ],
            [
                [
                    2,
                    1
                ],
                [
                    247,
                    165,
                    49
                ]
            ],
            [
                [
                    3,
                    1
                ],
                [
                    255,
                    198,
                    148
                ]
            ],
            [
                [
                    4,
                    1
                ],
                [
                    192,
                    128,
                    64
                ]
            ],
            [
                [
                    5,
                    1
                ],
                [
                    94,
                    27,
                    19
                ]
            ],
            [
                [
                    6,
                    1
                ],
                [
                    99,
                    130,
                    206
                ]
            ],
            [
                [
                    7,
                    1
                ],
                [
                    255,
                    255,
                    214
                ]
            ]
        ]
    ]
]