[
    [
        "FalcoKnightF0_GenericRed",
        [
            [
                [
                    0,
                    0
                ],
                [
                    128,
                    160,
                    128
                ]
            ],
            [
                [
                    1,
                    0
                ],
                [
                    40,
                    40,
                    40
                ]
            ],
            [
                [
                    2,
                    0
                ],
                [
                    176,
                    248,
                    248
                ]
            ],
            [
                [
                    3,
                    0
                ],
                [
                    248,
                    248,
                    248
                ]
            ],
            [
                [
                    4,
                    0
                ],
                [
                    112,
                    216,
                    248
                ]
            ],
            [
                [
                    5,
                    0
                ],
                [
                    240,
                    168,
                    88
                ]
            ],
            [
                [
                    6,
                    0
                ],
                [
                    128,
                    88,
                    64
                ]
            ],
            [
                [
                    7,
                    0
                ],
                [
                    248,
                    240,
                    168
                ]
            ],
            [
                [
                    0,
                    1
                ],
                [
                    248,
                    56,
                    16
                ]
            ],
            [
                [
                    1,
                    1
                ],
                [
                    144,
                    0,
                    0
                ]
            ],
            [
                [
                    2,
                    1
                ],
                [
                    112,
                    168,
                    248
                ]
            ],
            [
                [
                    3,
                    1
                ],
                [
                    168,
                    144,
                    40
                ]
            ],
            [
                [
                    4,
                    1
                ],
                [
                    240,
                    224,
                    48
                ]
            ],
            [
                [
                    5,
                    1
                ],
                [
                    40,
                    88,
                    216
                ]
            ],
            [
                [
                    6,
                    1
                ],
                [
                    128,
                    208,
                    248
                ]
            ],
            [
                [
                    7,
                    1
                ],
                [
                    248,
                    160,
                    72
                ]
            ]
        ]
    ]
]