[
    [
        "LightClover_Image (1)",
        [
            [
                [
                    0,
                    0
                ],
                [
                    0,
                    0,
                    0
                ]
            ],
            [
                [
                    1,
                    0
                ],
                [
                    32,
                    16,
                    0
                ]
            ],
            [
                [
                    2,
                    0
                ],
                [
                    176,
                    128,
                    0
                ]
            ],
            [
                [
                    3,
                    0
                ],
                [
                    104,
                    72,
                    0
                ]
            ],
            [
                [
                    4,
                    0
                ],
                [
                    248,
                    184,
                    0
                ]
            ],
            [
                [
                    5,
                    0
                ],
                [
                    248,
                    248,
                    248
                ]
            ]
        ]
    ]
]