[
    [
        "MercRepaletteM0_GenericBlue",
        [
            [
                [
                    0,
                    0
                ],
                [
                    128,
                    160,
                    128
                ]
            ],
            [
                [
                    1,
                    0
                ],
                [
                    40,
                    40,
                    40
                ]
            ],
            [
                [
                    2,
                    0
                ],
                [
                    192,
                    224,
                    232
                ]
            ],
            [
                [
                    3,
                    0
                ],
                [
                    96,
                    128,
                    160
                ]
            ],
            [
                [
                    4,
                    0
                ],
                [
                    176,
                    112,
                    64
                ]
            ],
            [
                [
                    5,
                    0
                ],
                [
                    248,
                    192,
                    144
                ]
            ],
            [
                [
                    6,
                    0
                ],
                [
                    112,
                    80,
                    48
                ]
            ],
            [
                [
                    7,
                    0
                ],
                [
                    152,
                    184,
                    216
                ]
            ],
            [
                [
                    0,
                    1
                ],
                [
                    248,
                    248,
                    248
                ]
            ],
            [
                [
                    1,
                    1
                ],
                [
                    40,
                    64,
                    192
                ]
            ],
            [
                [
                    2,
                    1
                ],
                [
                    88,
                    136,
                    248
                ]
            ],
            [
                [
                    3,
                    1
                ],
                [
                    88,
                    120,
                    8
                ]
            ],
            [
                [
                    4,
                    1
                ],
                [
                    248,
                    240,
                    184
                ]
            ],
            [
                [
                    5,
                    1
                ],
                [
                    96,
                    208,
                    96
                ]
            ],
            [
                [
                    6,
                    1
                ],
                [
                    16,
                    72,
                    0
                ]
            ],
            [
                [
                    7,
                    1
                ],
                [
                    144,
                    200,
                    224
                ]
            ]
        ]
    ]
]