[
    [
        "New Palette (5)",
        [
            [
                [
                    0,
                    0
                ],
                [
                    128,
                    160,
                    128
                ]
            ],
            [
                [
                    1,
                    0
                ],
                [
                    40,
                    40,
                    40
                ]
            ],
            [
                [
                    2,
                    0
                ],
                [
                    192,
                    224,
                    232
                ]
            ],
            [
                [
                    3,
                    0
                ],
                [
                    248,
                    248,
                    248
                ]
            ],
            [
                [
                    4,
                    0
                ],
                [
                    248,
                    192,
                    144
                ]
            ],
            [
                [
                    5,
                    0
                ],
                [
                    248,
                    248,
                    208
                ]
            ],
            [
                [
                    6,
                    0
                ],
                [
                    16,
                    88,
                    168
                ]
            ],
            [
                [
                    7,
                    0
                ],
                [
                    72,
                    160,
                    240
                ]
            ],
            [
                [
                    0,
                    1
                ],
                [
                    0,
                    136,
                    152
                ]
            ],
            [
                [
                    1,
                    1
                ],
                [
                    152,
                    232,
                    248
                ]
            ],
            [
                [
                    2,
                    1
                ],
                [
                    40,
                    64,
                    120
                ]
            ],
            [
                [
                    3,
                    1
                ],
                [
                    80,
                    112,
                    184
                ]
            ],
            [
                [
                    4,
                    1
                ],
                [
                    32,
                    96,
                    88
                ]
            ],
            [
                [
                    5,
                    1
                ],
                [
                    192,
                    128,
                    80
                ]
            ],
            [
                [
                    6,
                    1
                ],
                [
                    128,
                    176,
                    216
                ]
            ],
            [
                [
                    7,
                    1
                ],
                [
                    72,
                    176,
                    176
                ]
            ]
        ]
    ]
]