[
    [
        "New Palette (7)",
        [
            [
                [
                    0,
                    0
                ],
                [
                    128,
                    160,
                    128
                ]
            ],
            [
                [
                    1,
                    0
                ],
                [
                    176,
                    120,
                    88
                ]
            ],
            [
                [
                    2,
                    0
                ],
                [
                    248,
                    192,
                    144
                ]
            ],
            [
                [
                    3,
                    0
                ],
                [
                    248,
                    232,
                    184
                ]
            ],
            [
                [
                    4,
                    0
                ],
                [
                    40,
                    72,
                    144
                ]
            ],
            [
                [
                    5,
                    0
                ],
                [
                    80,
                    120,
                    208
                ]
            ],
            [
                [
                    6,
                    0
                ],
                [
                    144,
                    184,
                    240
                ]
            ],
            [
                [
                    7,
                    0
                ],
                [
                    104,
                    64,
                    64
                ]
            ],
            [
                [
                    0,
                    1
                ],
                [
                    40,
                    40,
                    40
                ]
            ],
            [
                [
                    1,
                    1
                ],
                [
                    176,
                    192,
                    200
                ]
            ],
            [
                [
                    2,
                    1
                ],
                [
                    248,
                    248,
                    248
                ]
            ],
            [
                [
                    3,
                    1
                ],
                [
                    232,
                    192,
                    248
                ]
            ],
            [
                [
                    4,
                    1
                ],
                [
                    152,
                    120,
                    192
                ]
            ],
            [
                [
                    5,
                    1
                ],
                [
                    168,
                    152,
                    160
                ]
            ],
            [
                [
                    6,
                    1
                ],
                [
                    128,
                    112,
                    120
                ]
            ],
            [
                [
                    7,
                    1
                ],
                [
                    96,
                    128,
                    136
                ]
            ]
        ]
    ]
]