[
    [
        "NuramonGreatKnightM0_GenericRed",
        [
            [
                [
                    0,
                    0
                ],
                [
                    128,
                    160,
                    128
                ]
            ],
            [
                [
                    1,
                    0
                ],
                [
                    120,
                    152,
                    184
                ]
            ],
            [
                [
                    2,
                    0
                ],
                [
                    248,
                    248,
                    248
                ]
            ],
            [
                [
                    3,
                    0
                ],
                [
                    176,
                    208,
                    240
                ]
            ],
            [
                [
                    4,
                    0
                ],
                [
                    40,
                    40,
                    40
                ]
            ],
            [
                [
                    5,
                    0
                ],
                [
                    168,
                    112,
                    64
                ]
            ],
            [
                [
                    6,
                    0
                ],
                [
                    80,
                    64,
                    48
                ]
            ],
            [
                [
                    7,
                    0
                ],
                [
                    136,
                    96,
                    64
                ]
            ],
            [
                [
                    0,
                    1
                ],
                [
                    208,
                    168,
                    96
                ]
            ],
            [
                [
                    1,
                    1
                ],
                [
                    248,
                    160,
                    72
                ]
            ],
            [
                [
                    2,
                    1
                ],
                [
                    248,
                    56,
                    16
                ]
            ],
            [
                [
                    3,
                    1
                ],
                [
                    240,
                    232,
                    160
                ]
            ],
            [
                [
                    4,
                    1
                ],
                [
                    144,
                    0,
                    0
                ]
            ],
            [
                [
                    5,
                    1
                ],
                [
                    83,
                    88,
                    100
                ]
            ],
            [
                [
                    6,
                    1
                ],
                [
                    122,
                    120,
                    130
                ]
            ],
            [
                [
                    7,
                    1
                ],
                [
                    112,
                    72,
                    56
                ]
            ]
        ]
    ]
]