[
    [
        "PaladinM0_GenericRed",
        [
            [
                [
                    0,
                    0
                ],
                [
                    128,
                    160,
                    128
                ]
            ],
            [
                [
                    1,
                    0
                ],
                [
                    40,
                    40,
                    40
                ]
            ],
            [
                [
                    2,
                    0
                ],
                [
                    160,
                    152,
                    136
                ]
            ],
            [
                [
                    3,
                    0
                ],
                [
                    72,
                    64,
                    56
                ]
            ],
            [
                [
                    4,
                    0
                ],
                [
                    120,
                    104,
                    88
                ]
            ],
            [
                [
                    5,
                    0
                ],
                [
                    166,
                    62,
                    47
                ]
            ],
            [
                [
                    6,
                    0
                ],
                [
                    232,
                    113,
                    96
                ]
            ],
            [
                [
                    7,
                    0
                ],
                [
                    115,
                    43,
                    32
                ]
            ],
            [
                [
                    0,
                    1
                ],
                [
                    104,
                    26,
                    61
                ]
            ],
            [
                [
                    1,
                    1
                ],
                [
                    74,
                    40,
                    37
                ]
            ],
            [
                [
                    2,
                    1
                ],
                [
                    106,
                    66,
                    65
                ]
            ],
            [
                [
                    3,
                    1
                ],
                [
                    160,
                    120,
                    96
                ]
            ],
            [
                [
                    4,
                    1
                ],
                [
                    240,
                    184,
                    120
                ]
            ],
            [
                [
                    5,
                    1
                ],
                [
                    174,
                    89,
                    72
                ]
            ],
            [
                [
                    6,
                    1
                ],
                [
                    248,
                    248,
                    176
                ]
            ],
            [
                [
                    7,
                    1
                ],
                [
                    248,
                    248,
                    248
                ]
            ]
        ]
    ]
]