[
    [
        "PegasusKnightF0_Cistia",
        [
            [
                [
                    0,
                    0
                ],
                [
                    128,
                    160,
                    128
                ]
            ],
            [
                [
                    1,
                    0
                ],
                [
                    40,
                    40,
                    40
                ]
            ],
            [
                [
                    2,
                    0
                ],
                [
                    168,
                    216,
                    232
                ]
            ],
            [
                [
                    3,
                    0
                ],
                [
                    248,
                    248,
                    248
                ]
            ],
            [
                [
                    4,
                    0
                ],
                [
                    88,
                    128,
                    168
                ]
            ],
            [
                [
                    5,
                    0
                ],
                [
                    40,
                    88,
                    216
                ]
            ],
            [
                [
                    6,
                    0
                ],
                [
                    88,
                    152,
                    248
                ]
            ],
            [
                [
                    7,
                    0
                ],
                [
                    128,
                    88,
                    64
                ]
            ],
            [
                [
                    0,
                    1
                ],
                [
                    200,
                    128,
                    80
                ]
            ],
            [
                [
                    1,
                    1
                ],
                [
                    192,
                    192,
                    240
                ]
            ],
            [
                [
                    2,
                    1
                ],
                [
                    248,
                    168,
                    88
                ]
            ],
            [
                [
                    3,
                    1
                ],
                [
                    144,
                    144,
                    192
                ]
            ],
            [
                [
                    4,
                    1
                ],
                [
                    248,
                    248,
                    208
                ]
            ],
            [
                [
                    5,
                    1
                ],
                [
                    248,
                    232,
                    248
                ]
            ],
            [
                [
                    6,
                    1
                ],
                [
                    192,
                    160,
                    64
                ]
            ],
            [
                [
                    7,
                    1
                ],
                [
                    247,
                    232,
                    99
                ]
            ]
        ]
    ]
]