[
    [
        "Promoted_BertSquad_AxeBert",
        [
            [
                [
                    0,
                    0
                ],
                [
                    128,
                    160,
                    128
                ]
            ],
            [
                [
                    1,
                    0
                ],
                [
                    40,
                    40,
                    40
                ]
            ],
            [
                [
                    2,
                    0
                ],
                [
                    248,
                    248,
                    248
                ]
            ],
            [
                [
                    3,
                    0
                ],
                [
                    65,
                    148,
                    230
                ]
            ],
            [
                [
                    4,
                    0
                ],
                [
                    128,
                    144,
                    184
                ]
            ],
            [
                [
                    5,
                    0
                ],
                [
                    72,
                    88,
                    120
                ]
            ],
            [
                [
                    6,
                    0
                ],
                [
                    192,
                    224,
                    232
                ]
            ],
            [
                [
                    7,
                    0
                ],
                [
                    57,
                    97,
                    171
                ]
            ],
            [
                [
                    0,
                    1
                ],
                [
                    48,
                    53,
                    127
                ]
            ],
            [
                [
                    1,
                    1
                ],
                [
                    152,
                    184,
                    216
                ]
            ],
            [
                [
                    2,
                    1
                ],
                [
                    248,
                    192,
                    144
                ]
            ],
            [
                [
                    3,
                    1
                ],
                [
                    160,
                    120,
                    96
                ]
            ],
            [
                [
                    4,
                    1
                ],
                [
                    248,
                    248,
                    176
                ]
            ],
            [
                [
                    5,
                    1
                ],
                [
                    128,
                    32,
                    24
                ]
            ],
            [
                [
                    6,
                    1
                ],
                [
                    208,
                    56,
                    8
                ]
            ]
        ]
    ]
]