[
    [
        "PupilF5_GenericBlue",
        [
            [
                [
                    0,
                    0
                ],
                [
                    128,
                    160,
                    128
                ]
            ],
            [
                [
                    1,
                    0
                ],
                [
                    104,
                    104,
                    24
                ]
            ],
            [
                [
                    2,
                    0
                ],
                [
                    40,
                    40,
                    40
                ]
            ],
            [
                [
                    3,
                    0
                ],
                [
                    192,
                    192,
                    40
                ]
            ],
            [
                [
                    4,
                    0
                ],
                [
                    248,
                    248,
                    80
                ]
            ],
            [
                [
                    5,
                    0
                ],
                [
                    248,
                    192,
                    144
                ]
            ],
            [
                [
                    6,
                    0
                ],
                [
                    112,
                    72,
                    48
                ]
            ],
            [
                [
                    7,
                    0
                ],
                [
                    192,
                    128,
                    80
                ]
            ],
            [
                [
                    0,
                    1
                ],
                [
                    88,
                    24,
                    0
                ]
            ],
            [
                [
                    1,
                    1
                ],
                [
                    0,
                    112,
                    208
                ]
            ],
            [
                [
                    2,
                    1
                ],
                [
                    224,
                    152,
                    176
                ]
            ],
            [
                [
                    3,
                    1
                ],
                [
                    248,
                    248,
                    208
                ]
            ],
            [
                [
                    4,
                    1
                ],
                [
                    248,
                    192,
                    232
                ]
            ],
            [
                [
                    5,
                    1
                ],
                [
                    136,
                    64,
                    0
                ]
            ],
            [
                [
                    6,
                    1
                ],
                [
                    168,
                    112,
                    8
                ]
            ],
            [
                [
                    7,
                    1
                ],
                [
                    248,
                    248,
                    248
                ]
            ]
        ]
    ]
]