[
    [
        "Ranger0_GenericRed",
        [
            [
                [
                    0,
                    0
                ],
                [
                    128,
                    160,
                    128
                ]
            ],
            [
                [
                    1,
                    0
                ],
                [
                    40,
                    40,
                    40
                ]
            ],
            [
                [
                    2,
                    0
                ],
                [
                    104,
                    72,
                    32
                ]
            ],
            [
                [
                    3,
                    0
                ],
                [
                    160,
                    120,
                    56
                ]
            ],
            [
                [
                    4,
                    0
                ],
                [
                    79,
                    40,
                    40
                ]
            ],
            [
                [
                    5,
                    0
                ],
                [
                    150,
                    64,
                    64
                ]
            ],
            [
                [
                    6,
                    0
                ],
                [
                    224,
                    184,
                    64
                ]
            ],
            [
                [
                    7,
                    0
                ],
                [
                    174,
                    89,
                    72
                ]
            ],
            [
                [
                    0,
                    1
                ],
                [
                    232,
                    168,
                    88
                ]
            ],
            [
                [
                    1,
                    1
                ],
                [
                    248,
                    248,
                    144
                ]
            ],
            [
                [
                    2,
                    1
                ],
                [
                    106,
                    66,
                    65
                ]
            ],
            [
                [
                    3,
                    1
                ],
                [
                    80,
                    64,
                    56
                ]
            ],
            [
                [
                    4,
                    1
                ],
                [
                    136,
                    112,
                    104
                ]
            ],
            [
                [
                    5,
                    1
                ],
                [
                    232,
                    152,
                    152
                ]
            ],
            [
                [
                    6,
                    1
                ],
                [
                    200,
                    72,
                    72
                ]
            ],
            [
                [
                    7,
                    1
                ],
                [
                    248,
                    248,
                    248
                ]
            ]
        ]
    ]
]