[
    [
        "Ranger0_GenericBlue",
        [
            [
                [
                    0,
                    0
                ],
                [
                    128,
                    160,
                    128
                ]
            ],
            [
                [
                    1,
                    0
                ],
                [
                    40,
                    40,
                    40
                ]
            ],
            [
                [
                    2,
                    0
                ],
                [
                    104,
                    72,
                    32
                ]
            ],
            [
                [
                    3,
                    0
                ],
                [
                    160,
                    120,
                    56
                ]
            ],
            [
                [
                    4,
                    0
                ],
                [
                    32,
                    32,
                    168
                ]
            ],
            [
                [
                    5,
                    0
                ],
                [
                    64,
                    104,
                    240
                ]
            ],
            [
                [
                    6,
                    0
                ],
                [
                    224,
                    184,
                    64
                ]
            ],
            [
                [
                    7,
                    0
                ],
                [
                    128,
                    152,
                    248
                ]
            ],
            [
                [
                    0,
                    1
                ],
                [
                    232,
                    168,
                    88
                ]
            ],
            [
                [
                    1,
                    1
                ],
                [
                    248,
                    248,
                    144
                ]
            ],
            [
                [
                    2,
                    1
                ],
                [
                    80,
                    104,
                    192
                ]
            ],
            [
                [
                    3,
                    1
                ],
                [
                    136,
                    168,
                    56
                ]
            ],
            [
                [
                    4,
                    1
                ],
                [
                    176,
                    248,
                    72
                ]
            ],
            [
                [
                    5,
                    1
                ],
                [
                    128,
                    248,
                    248
                ]
            ],
            [
                [
                    6,
                    1
                ],
                [
                    120,
                    192,
                    248
                ]
            ],
            [
                [
                    7,
                    1
                ],
                [
                    248,
                    248,
                    248
                ]
            ]
        ]
    ]
]