[
    [
        "Revenant0_GenericBlue",
        [
            [
                [
                    0,
                    0
                ],
                [
                    128,
                    160,
                    128
                ]
            ],
            [
                [
                    1,
                    0
                ],
                [
                    56,
                    56,
                    96
                ]
            ],
            [
                [
                    2,
                    0
                ],
                [
                    144,
                    144,
                    168
                ]
            ],
            [
                [
                    3,
                    0
                ],
                [
                    208,
                    200,
                    216
                ]
            ],
            [
                [
                    4,
                    0
                ],
                [
                    224,
                    136,
                    152
                ]
            ],
            [
                [
                    5,
                    0
                ],
                [
                    184,
                    88,
                    80
                ]
            ],
            [
                [
                    6,
                    0
                ],
                [
                    40,
                    40,
                    40
                ]
            ],
            [
                [
                    7,
                    0
                ],
                [
                    96,
                    96,
                    128
                ]
            ],
            [
                [
                    0,
                    1
                ],
                [
                    88,
                    56,
                    8
                ]
            ],
            [
                [
                    1,
                    1
                ],
                [
                    248,
                    248,
                    248
                ]
            ],
            [
                [
                    2,
                    1
                ],
                [
                    64,
                    88,
                    184
                ]
            ],
            [
                [
                    3,
                    1
                ],
                [
                    136,
                    88,
                    16
                ]
            ],
            [
                [
                    4,
                    1
                ],
                [
                    104,
                    152,
                    248
                ]
            ],
            [
                [
                    5,
                    1
                ],
                [
                    104,
                    232,
                    248
                ]
            ],
            [
                [
                    6,
                    1
                ],
                [
                    248,
                    248,
                    16
                ]
            ],
            [
                [
                    7,
                    1
                ],
                [
                    248,
                    0,
                    248
                ]
            ]
        ]
    ]
]