[
    [
        "SalvageCavalierM0_Shoebill",
        [
            [
                [
                    0,
                    0
                ],
                [
                    128,
                    160,
                    128
                ]
            ],
            [
                [
                    1,
                    0
                ],
                [
                    40,
                    40,
                    40
                ]
            ],
            [
                [
                    2,
                    0
                ],
                [
                    115,
                    100,
                    49
                ]
            ],
            [
                [
                    3,
                    0
                ],
                [
                    156,
                    139,
                    82
                ]
            ],
            [
                [
                    4,
                    0
                ],
                [
                    248,
                    248,
                    248
                ]
            ],
            [
                [
                    5,
                    0
                ],
                [
                    160,
                    152,
                    136
                ]
            ],
            [
                [
                    6,
                    0
                ],
                [
                    120,
                    104,
                    88
                ]
            ],
            [
                [
                    7,
                    0
                ],
                [
                    72,
                    64,
                    56
                ]
            ],
            [
                [
                    0,
                    1
                ],
                [
                    107,
                    74,
                    115
                ]
            ],
            [
                [
                    1,
                    1
                ],
                [
                    72,
                    48,
                    88
                ]
            ],
            [
                [
                    2,
                    1
                ],
                [
                    160,
                    120,
                    96
                ]
            ],
            [
                [
                    3,
                    1
                ],
                [
                    240,
                    184,
                    120
                ]
            ],
            [
                [
                    4,
                    1
                ],
                [
                    248,
                    248,
                    176
                ]
            ],
            [
                [
                    5,
                    1
                ],
                [
                    74,
                    66,
                    41
                ]
            ],
            [
                [
                    6,
                    1
                ],
                [
                    16,
                    200,
                    176
                ]
            ],
            [
                [
                    7,
                    1
                ],
                [
                    27,
                    109,
                    121
                ]
            ],
            [
                [
                    0,
                    2
                ],
                [
                    160,
                    152,
                    136
                ]
            ],
            [
                [
                    0,
                    3
                ],
                [
                    120,
                    104,
                    88
                ]
            ],
            [
                [
                    0,
                    4
                ],
                [
                    72,
                    64,
                    56
                ]
            ]
        ]
    ]
]