[
    [
        "SalvageCavalierF0_GenericBlue",
        [
            [
                [
                    0,
                    0
                ],
                [
                    128,
                    160,
                    128
                ]
            ],
            [
                [
                    1,
                    0
                ],
                [
                    40,
                    40,
                    40
                ]
            ],
            [
                [
                    2,
                    0
                ],
                [
                    192,
                    160,
                    128
                ]
            ],
            [
                [
                    3,
                    0
                ],
                [
                    128,
                    104,
                    72
                ]
            ],
            [
                [
                    4,
                    0
                ],
                [
                    80,
                    64,
                    48
                ]
            ],
            [
                [
                    5,
                    0
                ],
                [
                    160,
                    72,
                    160
                ]
            ],
            [
                [
                    6,
                    0
                ],
                [
                    80,
                    48,
                    88
                ]
            ],
            [
                [
                    7,
                    0
                ],
                [
                    160,
                    120,
                    96
                ]
            ],
            [
                [
                    0,
                    1
                ],
                [
                    240,
                    184,
                    120
                ]
            ],
            [
                [
                    1,
                    1
                ],
                [
                    248,
                    248,
                    248
                ]
            ],
            [
                [
                    2,
                    1
                ],
                [
                    168,
                    200,
                    208
                ]
            ],
            [
                [
                    3,
                    1
                ],
                [
                    248,
                    248,
                    176
                ]
            ],
            [
                [
                    4,
                    1
                ],
                [
                    48,
                    80,
                    128
                ]
            ],
            [
                [
                    5,
                    1
                ],
                [
                    88,
                    136,
                    176
                ]
            ],
            [
                [
                    6,
                    1
                ],
                [
                    80,
                    80,
                    80
                ]
            ],
            [
                [
                    7,
                    1
                ],
                [
                    128,
                    128,
                    128
                ]
            ]
        ]
    ]
]