[
    [
        "ShineFlash_Image (1)",
        [
            [
                [
                    0,
                    0
                ],
                [
                    248,
                    248,
                    216
                ]
            ],
            [
                [
                    1,
                    0
                ],
                [
                    248,
                    248,
                    136
                ]
            ],
            [
                [
                    2,
                    0
                ],
                [
                    136,
                    88,
                    32
                ]
            ],
            [
                [
                    3,
                    0
                ],
                [
                    0,
                    0,
                    0
                ]
            ],
            [
                [
                    4,
                    0
                ],
                [
                    56,
                    40,
                    24
                ]
            ],
            [
                [
                    5,
                    0
                ],
                [
                    192,
                    120,
                    40
                ]
            ],
            [
                [
                    6,
                    0
                ],
                [
                    248,
                    176,
                    80
                ]
            ],
            [
                [
                    7,
                    0
                ],
                [
                    248,
                    152,
                    48
                ]
            ],
            [
                [
                    0,
                    1
                ],
                [
                    168,
                    104,
                    40
                ]
            ],
            [
                [
                    1,
                    1
                ],
                [
                    248,
                    208,
                    104
                ]
            ],
            [
                [
                    2,
                    1
                ],
                [
                    24,
                    24,
                    24
                ]
            ],
            [
                [
                    3,
                    1
                ],
                [
                    112,
                    72,
                    32
                ]
            ],
            [
                [
                    4,
                    1
                ],
                [
                    224,
                    136,
                    40
                ]
            ],
            [
                [
                    5,
                    1
                ],
                [
                    80,
                    56,
                    24
                ]
            ],
            [
                [
                    6,
                    1
                ],
                [
                    8,
                    8,
                    8
                ]
            ]
        ]
    ]
]