[
    [
        "Troubadour0_Farl",
        [
            [
                [
                    0,
                    0
                ],
                [
                    128,
                    160,
                    128
                ]
            ],
            [
                [
                    1,
                    0
                ],
                [
                    40,
                    40,
                    40
                ]
            ],
            [
                [
                    2,
                    0
                ],
                [
                    128,
                    96,
                    56
                ]
            ],
            [
                [
                    3,
                    0
                ],
                [
                    88,
                    64,
                    32
                ]
            ],
            [
                [
                    4,
                    0
                ],
                [
                    176,
                    144,
                    64
                ]
            ],
            [
                [
                    5,
                    0
                ],
                [
                    128,
                    80,
                    56
                ]
            ],
            [
                [
                    6,
                    0
                ],
                [
                    120,
                    176,
                    248
                ]
            ],
            [
                [
                    7,
                    0
                ],
                [
                    64,
                    104,
                    240
                ]
            ],
            [
                [
                    0,
                    1
                ],
                [
                    248,
                    248,
                    248
                ]
            ],
            [
                [
                    1,
                    1
                ],
                [
                    248,
                    248,
                    208
                ]
            ],
            [
                [
                    2,
                    1
                ],
                [
                    240,
                    184,
                    120
                ]
            ],
            [
                [
                    3,
                    1
                ],
                [
                    160,
                    88,
                    200
                ]
            ],
            [
                [
                    4,
                    1
                ],
                [
                    40,
                    40,
                    176
                ]
            ],
            [
                [
                    5,
                    1
                ],
                [
                    104,
                    48,
                    144
                ]
            ],
            [
                [
                    6,
                    1
                ],
                [
                    184,
                    120,
                    24
                ]
            ],
            [
                [
                    7,
                    1
                ],
                [
                    224,
                    248,
                    24
                ]
            ]
        ]
    ]
]