[
    {
        "name": "1a. Reinforcement Manager",
        "trigger": "turn_change",
        "level_nid": "10",
        "condition": "True",
        "commands": [
            [
                "comment",
                [
                    "# Every two turns spawn small pressure groups"
                ]
            ],
            [
                "if",
                [
                    "game.turncount % 4 == 2 and not game.get_unit(\"Zackary_Ch10\").dead"
                ]
            ],
            [
                "center_cursor",
                [
                    "2,46"
                ]
            ],
            [
                "wait",
                [
                    "500"
                ]
            ],
            [
                "spawn_group",
                [
                    "crown_pressure",
                    "west",
                    "starting",
                    "FLAG(create)"
                ]
            ],
            [
                "wait",
                [
                    "500"
                ]
            ],
            [
                "center_cursor",
                [
                    "32,30"
                ]
            ],
            [
                "wait",
                [
                    "250"
                ]
            ],
            [
                "spawn_group",
                [
                    "crown_pressure_2",
                    "east",
                    "starting",
                    "FLAG(create)"
                ]
            ],
            [
                "wait",
                [
                    "500"
                ]
            ],
            [
                "elif",
                [
                    "game.turncount % 4 == 0 not game.get_unit(\"Ysbryd_Ch10\").dead"
                ]
            ],
            [
                "center_cursor",
                [
                    "4,3"
                ]
            ],
            [
                "wait",
                [
                    "500"
                ]
            ],
            [
                "spawn_group",
                [
                    "mage_knights",
                    "north",
                    "mage_knights",
                    "FLAG(create)"
                ]
            ],
            [
                "wait",
                [
                    "500"
                ]
            ],
            [
                "end",
                []
            ],
            [
                "comment",
                [
                    "# Every 3 turns, spawn the mage knight squad close to the village"
                ]
            ],
            [
                "if",
                [
                    "game.turncount % 3 == 0 and not game.get_unit(\"Ysbryd_Ch10\").dead"
                ]
            ],
            [
                "center_cursor",
                [
                    "1,19"
                ]
            ],
            [
                "wait",
                [
                    "500"
                ]
            ],
            [
                "spawn_group",
                [
                    "cult_cavs",
                    "west",
                    "cult_cavs",
                    "FLAG(create)"
                ]
            ],
            [
                "wait",
                [
                    "500"
                ]
            ],
            [
                "end",
                []
            ],
            [
                "comment",
                [
                    "# On turns 4, 7, and 10, spawn tarvos group"
                ]
            ],
            [
                "if",
                [
                    "game.turncount in [4, 7, 9] and game.level_vars['fomorians_seized'] != True"
                ]
            ],
            [
                "center_cursor",
                [
                    "28,7"
                ]
            ],
            [
                "wait",
                [
                    "500"
                ]
            ],
            [
                "add_group",
                [
                    "tarvos_chargers",
                    "starting",
                    "warp",
                    "closest",
                    "FLAG(create)"
                ]
            ],
            [
                "wait",
                [
                    "500"
                ]
            ],
            [
                "end",
                []
            ],
            [
                "comment",
                [
                    "# On turn 3 and 5, spawn wyvern reinforcements"
                ]
            ],
            [
                "if",
                [
                    "game.turncount in [3, 5] and not game.get_unit(\"Zackary_Ch10\").dead"
                ]
            ],
            [
                "center_cursor",
                [
                    "33,35"
                ]
            ],
            [
                "wait",
                [
                    "500"
                ]
            ],
            [
                "spawn_group",
                [
                    "wyvern_reinforcements",
                    "east",
                    "wyvern_reinforcements",
                    "FLAG(create)"
                ]
            ],
            [
                "wait",
                [
                    "500"
                ]
            ],
            [
                "end",
                []
            ],
            [
                "change_objective_simple",
                [
                    "{e:\"Defend Faviyn \" + str(game.turncount) + \"/12\"}"
                ]
            ]
        ],
        "only_once": false,
        "priority": 5
    }
]