[
    {
        "name": "2c. Zackary Ennis Convo",
        "trigger": "combat_start",
        "level_nid": "10",
        "condition": "check_pair(\"Ennis\", \"Zackary_Ch10\")",
        "commands": [
            [
                "multi_add_portrait",
                [
                    "Ennis",
                    "Right",
                    "Prince Zackary (Zackary_Ch10)",
                    "Left"
                ]
            ],
            [
                "speak",
                [
                    "Ennis",
                    "\u2028Why are you doing this?{w}\u2028What does the crown have\u2028to gain from the Tuathans?"
                ]
            ],
            [
                "speak",
                [
                    "Prince Zackary (Zackary_Ch10)",
                    "\u2028Oh please, I should be the\u2028one asking you that question.{w}\u2028I <red>know</> you're hiding the sword.{w}\u2028Where is it?"
                ]
            ],
            [
                "speak",
                [
                    "Ennis",
                    "\u2028What sword?"
                ]
            ],
            [
                "speak",
                [
                    "Prince Zackary (Zackary_Ch10)",
                    "\u2028It doesn't matter. We'll have\u2028our hands on it soon enough.{w}"
                ]
            ],
            [
                "multi_remove_portrait",
                [
                    "Ennis",
                    "Prince Zackary (Zackary_Ch10)"
                ]
            ]
        ],
        "only_once": false,
        "priority": 20
    }
]