[
    {
        "name": "2a. Commander Squads advance",
        "trigger": "turn_change",
        "level_nid": "10",
        "condition": "True",
        "commands": [
            [
                "if",
                [
                    "game.turncount == 8"
                ]
            ],
            [
                "for",
                [
                    "generic_boi",
                    "[u.nid for u in game.get_enemy_units() if u.ai_group.startswith(\"BottomRight\")]"
                ]
            ],
            [
                "change_ai",
                [
                    "{generic_boi}",
                    "PursueGreenies"
                ]
            ],
            [
                "endf",
                []
            ],
            [
                "elif",
                [
                    "game.turncount == 6"
                ]
            ],
            [
                "for",
                [
                    "generic_boi",
                    "[u.nid for u in game.get_enemy_units() if u.ai_group.startswith(\"BottomLeft\")]"
                ]
            ],
            [
                "change_ai",
                [
                    "{generic_boi}",
                    "PursueGreenies"
                ]
            ],
            [
                "endf",
                []
            ],
            [
                "end",
                []
            ]
        ],
        "only_once": false,
        "priority": 20
    }
]