[
    {
        "name": "2b. Zackary Convo",
        "trigger": "combat_start",
        "level_nid": "10",
        "condition": "check_default(\"Zackary_Ch10\", [\"Ennis\"])",
        "commands": [
            [
                "add_portrait",
                [
                    "Prince Zackary (Zackary_Ch10)",
                    "Left"
                ]
            ],
            [
                "speak",
                [
                    "Prince Zackary (Zackary_Ch10)",
                    "\u2028This Lady Connachta truly\u2028is something special.{w}\u2028But I can't let her get\u2028in the way of my mission."
                ]
            ],
            [
                "remove_portrait",
                [
                    "Prince Zackary (Zackary_Ch10)"
                ]
            ]
        ],
        "only_once": true,
        "priority": 20
    }
]