[
    {
        "name": "4a. Zackary Death",
        "trigger": "unit_death",
        "level_nid": "10",
        "condition": "unit.nid == \"Zackary_Ch10\"",
        "commands": [
            [
                "add_portrait",
                [
                    "Prince Zackary (Zackary_Ch10)",
                    "Right"
                ]
            ],
            [
                "speak",
                [
                    "Prince Zackary (Zackary_Ch10)",
                    "\u2028Must you always ruin my plans?{w}\u2028Soon, we'll be able to slay any\u2028power who dares oppose the crown.{w}\u2028The Tuathans can't keep their\u2028power hidden forever!{w}"
                ]
            ],
            [
                "expression",
                [
                    "Prince Zackary (Zackary_Ch10)",
                    "CloseEyes"
                ]
            ],
            [
                "speak",
                [
                    "Prince Zackary (Zackary_Ch10)",
                    "\u2028Urgh... I need to retreat.{w}\u2028I can't keep fighting."
                ]
            ],
            [
                "remove_portrait",
                [
                    "Prince Zackary (Zackary_Ch10)"
                ]
            ]
        ],
        "only_once": false,
        "priority": 20
    }
]