[
    {
        "name": "6. Outro",
        "trigger": "level_end",
        "level_nid": "10",
        "condition": "True",
        "commands": [
            [
                "change_background",
                [
                    "PlainsLake"
                ]
            ],
            [
                "music_clear",
                [
                    "2000"
                ]
            ],
            [
                "remove_all_units",
                []
            ],
            [
                "multi_add_portrait",
                [
                    "Faviyn",
                    "FarLeft",
                    "Ennis",
                    "MidLeft",
                    "Cormorant",
                    "Right"
                ]
            ],
            [
                "speak",
                [
                    "Ennis",
                    "\u2028They're retreating."
                ]
            ],
            [
                "expression",
                [
                    "Ennis",
                    "CloseEyes"
                ]
            ],
            [
                "speak",
                [
                    "Ennis",
                    "\u2028For now, at least."
                ]
            ],
            [
                "if",
                [
                    "not game.get_unit(\"Striga\").dead and not game.get_unit(\"Luan\").dead"
                ]
            ],
            [
                "speak",
                [
                    "Faviyn",
                    "\u2028Thank the stars we're \u2028still here.{w}\u2028We are in your debt."
                ]
            ],
            [
                "else",
                []
            ],
            [
                "expression",
                [
                    "Faviyn",
                    "NoSmile,HalfCloseEyes"
                ]
            ],
            [
                "speak",
                [
                    "Faviyn",
                    "\u2028I...{w}\u2028I have lost my own\u2028flesh and blood.{w}\u2028Today is no victory,{w}\u2028though our village\u2028may yet survive."
                ]
            ],
            [
                "expression",
                [
                    "Faviyn",
                    "NoSmile,CloseEyes"
                ]
            ],
            [
                "speak",
                [
                    "Faviyn",
                    "{eval:(\"Striga... \" if game.get_unit(\"Striga\").dead else \"\") + (\"Luan...\" if game.get_unit(\"Luan\").dead else \"\")}"
                ]
            ],
            [
                "expression",
                [
                    "Faviyn",
                    "NormalBlink"
                ]
            ],
            [
                "end",
                []
            ],
            [
                "speak",
                [
                    "Faviyn",
                    "\u2028What in the world were\u2028those mages doing?{w}\u2028That priestess seemed...\u2028dedicated."
                ]
            ],
            [
                "speak",
                [
                    "Cormorant",
                    "\u2028You mean absolutely \u2028demented.{w} \u2028She has the craziest \u2028eyes I've ever seen.{w}\u2028This isn't the first\u2028time we've run into her."
                ]
            ],
            [
                "speak",
                [
                    "Ennis",
                    "\u2028They intend to build\u2028a God.{w} They need\u2028the Heart to do it.{w}\u2028It's what they've been\u2028calling this ring."
                ]
            ],
            [
                "speak",
                [
                    "Cormorant",
                    "\u2028Not all of them are on\u2028the same page about{w}\u2028which God to build."
                ]
            ],
            [
                "speak",
                [
                    "Ennis",
                    "\u2028All we know is that they\u2028are close to achieving it.{w} \u2028And they are quickly\u2028gaining support.{w}\u2028Their numbers only seem\u2028to have grown each time{w}\u2028we have encountered them."
                ]
            ],
            [
                "speak",
                [
                    "Faviyn",
                    "\u2028O stars... It's happening again."
                ]
            ],
            [
                "speak",
                [
                    "Ennis",
                    "\u2028What is happening again?"
                ]
            ],
            [
                "speak",
                [
                    "Faviyn",
                    "\u2028Lady Connachta, come with me.{w}\u2028There are some things you must\u2028know."
                ]
            ],
            [
                "multi_remove_portrait",
                [
                    "Ennis",
                    "Faviyn",
                    "Cormorant"
                ]
            ],
            [
                "transition",
                [
                    "close"
                ]
            ],
            [
                "change_background",
                [
                    "Outside Castle 3 Day"
                ]
            ],
            [
                "transition",
                [
                    "open"
                ]
            ],
            [
                "multi_add_portrait",
                [
                    "Faviyn",
                    "Left",
                    "Ennis",
                    "MidRight",
                    "Cormorant",
                    "FarRight"
                ]
            ],
            [
                "music",
                [
                    "Chamber Of Sages"
                ]
            ],
            [
                "speak",
                [
                    "Ennis",
                    "\u2028Where are we?"
                ]
            ],
            [
                "speak",
                [
                    "Faviyn",
                    "\u2028This is both our forge and\u2028our temple.{w}\u2028Zuarthis are a long-running\u2028line of bladesmiths.{w}\u2028The first among us created\u2028a blade that shines pure.{w}\u2028This blade was forged in\u2028the most radiant light.{w}\u2028It alone contains the power\u2028to slay a God."
                ]
            ],
            [
                "speak",
                [
                    "Ennis",
                    "\u2028The magic radiating off of\u2028that blade...{w} \u2028I can almost taste it.{w}\u2028I have no doubt this weapon\u2028is sacred to you.{w}\u2028Why are you showing me this?"
                ]
            ],
            [
                "speak",
                [
                    "Faviyn",
                    "\u2028Because the cycle is starting\u2028again.{w}\u2028The last time there was a new\u2028God built,{w} the great war \u2028of Braghedunn happened."
                ]
            ],
            [
                "speak",
                [
                    "Faviyn",
                    "\u2028Ever since the new God was\u2028built,{w} the world has begun\u2028to fracture.{w}\u2028The Fenians have blamed it\u2028on Tuathan magic,{w} but the\u2028true reason is that the Crown{w}\u2028is using its power to drain our\u2028world of its magic.{w}\u2028Prince Tiberius has done every-\u2028thing in his power to drive{w}\u2028our people to extinction."
                ]
            ],
            [
                "speak",
                [
                    "Ennis",
                    "\u2028But that doesn't explain how\u2028you know all of this.{w}\u2028How you know me and my\u2028family."
                ]
            ],
            [
                "speak",
                [
                    "Faviyn",
                    "\u2028Lady Connachta-your mother-\u2028often traded artifacts with Tuathans,{w}\u2028including us.{w} She acted as\u2028a bridge between our societies.{w}\u2028As we gave her the means and\u2028knowledge to use our magic,{w}\u2028she gave us protection from\u2028her own world.{w}\u2028When the war was raging on,\u2028she stood guard and protected{w}\u2028us from the conflict.{w}\u2028Thanks to her, we were able\u2028to live in peace."
                ]
            ],
            [
                "speak",
                [
                    "Ennis",
                    "\u2028How have I never known about this?"
                ]
            ],
            [
                "speak",
                [
                    "Faviyn",
                    "\u2028It's a big responsibility.{w}\u2028I cannot speak for her, but\u2028she likely wanted to tell{w}\u2028you when you came of a\u2028certain age.{w}\u2028The people who want us gone...\u2028they're a dangerous sort."
                ]
            ],
            [
                "speak",
                [
                    "Ennis",
                    "\u2028You started talking about the\u2028Godslayer sword.{w} Why?"
                ]
            ],
            [
                "speak",
                [
                    "Cormorant",
                    "\u2028Doesn't take a genius to see \u2028that he wants you to use it."
                ]
            ],
            [
                "speak",
                [
                    "Ennis",
                    "\u2028Me?"
                ]
            ],
            [
                "speak",
                [
                    "Faviyn",
                    "\u2028The blade has a soul of its\u2028own.{w} It holds within too\u2028much power for a mortal.{w}\u2028The first wielder of the\u2028blade was your ancestor.{w}\u2028The last wielder was\u2028your grandmother.{w}\u2028All born of the Connachta\u2028line."
                ]
            ],
            [
                "speak",
                [
                    "Ennis",
                    "\u2028Are you trying to tell me{w}\u2028that I am to slay a God?"
                ]
            ],
            [
                "speak",
                [
                    "Cormorant",
                    "\u2028I'm calling total bullshit.{w}\u2028Taking on a God? This is crazy."
                ]
            ],
            [
                "speak",
                [
                    "Faviyn",
                    "\u2028When mortals try to change\u2028the natural balance with{w}\u2028their Gods, the world\u2028unravels.{w} It is the duty\u2028of the Connachtas to stave{w}\u2028the unraveling.{w}\u2028If they don't, the barrier\u2028holding the realms apart{w}\u2028will break, and all hell\u2028will break loose."
                ]
            ],
            [
                "speak",
                [
                    "Ennis",
                    "\u2028So, if we don't kill\u2028the Gods..."
                ]
            ],
            [
                "expression",
                [
                    "Cormorant",
                    "CloseEyes"
                ]
            ],
            [
                "speak",
                [
                    "Cormorant",
                    "\u2028Bye, bye, world."
                ]
            ],
            [
                "expression",
                [
                    "Cormorant",
                    "NormalBlink"
                ]
            ],
            [
                "speak",
                [
                    "Faviyn",
                    "\u2028I know this is a lot\u2028to take in.{w}\u2028Feel free to set up camp\u2028in our town.{w}\u2028You helped defend us, and\u2028your family is a friend{w}\u2028to the village.{w}\u2028We can have our mages close\u2028the tear, and we'll be{w}\u2028safe for the time being."
                ]
            ],
            [
                "speak",
                [
                    "Ennis",
                    "\u2028Thank you for the\u2028hospitality.{w}\u2028I... will be sure to\u2028think on this matter."
                ]
            ],
            [
                "speak",
                [
                    "Cormorant",
                    "\u2028Ennis? A word?"
                ]
            ],
            [
                "remove_portrait",
                [
                    "Faviyn"
                ]
            ],
            [
                "move_portrait",
                [
                    "Ennis",
                    "Left"
                ]
            ],
            [
                "move_portrait",
                [
                    "Cormorant",
                    "Right"
                ]
            ],
            [
                "mirror_portrait",
                [
                    "Ennis"
                ]
            ],
            [
                "speak",
                [
                    "Cormorant",
                    "\u2028So, if I'm getting this\u2028right, we take two trips{w}\u2028into this new world, and\u2028now your mother knew{w}\u2028these people all along?{w}\u2028And she was a hero or\u2028something to them?{w}\u2028How much else are you\u2028hiding from us?"
                ]
            ],
            [
                "speak",
                [
                    "Ennis",
                    "\u2028Believe me, I'm learning\u2028much of this for the{w}\u2028first time myself.{w}\u2028You've been helping\u2028me for this long.{w}\u2028Far beyond what I initially\u2028expected of you.{w}\u2028You at least deserve to\u2028know what I know.{w}\u2028Besides, I have a few\u2028questions to ask Abeni."
                ]
            ],
            [
                "speak",
                [
                    "Cormorant",
                    "\u2028Alright.{w} No more secrets."
                ]
            ],
            [
                "speak",
                [
                    "Ennis",
                    "\u2028No more secrets."
                ]
            ],
            [
                "multi_remove_portrait",
                [
                    "Ennis",
                    "Cormorant"
                ]
            ],
            [
                "transition",
                [
                    "close"
                ]
            ],
            [
                "music_clear",
                []
            ],
            [
                "change_background",
                [
                    "BlackBackground"
                ]
            ]
        ],
        "only_once": false,
        "priority": 20
    }
]