[
    {
        "name": "5. Break Wall",
        "trigger": "Break",
        "level_nid": "10_roam",
        "condition": "True",
        "commands": [
            [
                "add_portrait",
                [
                    "{var:roam_unit}",
                    "Right"
                ]
            ],
            [
                "comment",
                [
                    "# If this is the first time interacting with the crack, comment"
                ]
            ],
            [
                "if",
                [
                    "game.level_vars['checked_wall'] != True"
                ]
            ],
            [
                "level_var",
                [
                    "checked_wall",
                    "True"
                ]
            ],
            [
                "expression",
                [
                    "{var:roam_unit}",
                    "Smile"
                ]
            ],
            [
                "speak",
                [
                    "{var:roam_unit}",
                    "\u2028My my - what do we have here?{w}\u2028Hello, treasure!"
                ]
            ],
            [
                "expression",
                [
                    "{var:roam_unit}",
                    "HalfCloseEyes,NoSmile"
                ]
            ],
            [
                "bop_portrait",
                [
                    "{var:roam_unit}"
                ]
            ],
            [
                "expression",
                [
                    "{var:roam_unit}",
                    "OpenEyes"
                ]
            ],
            [
                "speak",
                [
                    "{var:roam_unit}",
                    "\u2028Hmm...{w} Can't fit my hand.{w}\u2028Time to widen the crack!"
                ]
            ],
            [
                "end",
                []
            ],
            [
                "comment",
                [
                    "# Use AxeBert to break the wall"
                ]
            ],
            [
                "if",
                [
                    "\"{var:roam_unit}\" == \"AxeBert\""
                ]
            ],
            [
                "speak",
                [
                    "{var:roam_unit}",
                    "This should do it!"
                ]
            ],
            [
                "remove_portrait",
                [
                    "{var:roam_unit}"
                ]
            ],
            [
                "interact_unit",
                [
                    "{var:roam_unit}",
                    "Wall (WallTile)",
                    "crit1"
                ]
            ],
            [
                "hide_layer",
                [
                    "KeySpot",
                    "fade"
                ]
            ],
            [
                "sound",
                [
                    "Death"
                ]
            ],
            [
                "wait",
                [
                    "500"
                ]
            ],
            [
                "sound",
                [
                    "Item"
                ]
            ],
            [
                "alert",
                [
                    "Found a door key!",
                    "Door Key (Door Key)"
                ]
            ],
            [
                "level_var",
                [
                    "wall_broken",
                    "True"
                ]
            ],
            [
                "else",
                []
            ],
            [
                "speak",
                [
                    "{var:roam_unit}",
                    "\u2028I'll need something bigger \u2028to break the wall down.{w}"
                ]
            ],
            [
                "end",
                []
            ],
            [
                "remove_portrait",
                [
                    "{var:roam_unit}",
                    "FLAG(no_warn)"
                ]
            ]
        ],
        "only_once": false,
        "priority": 20
    }
]