[
    {
        "name": "5b. Left Chest",
        "trigger": "Chest",
        "level_nid": "10_roam",
        "condition": "region.nid == 'left_chest'",
        "commands": [
            [
                "sound",
                [
                    "Unlock"
                ]
            ],
            [
                "hide_layer",
                [
                    "LeftChest",
                    "fade"
                ]
            ],
            [
                "give_item",
                [
                    "Osbert (Osbert)",
                    "Speedwing (Speedwing)"
                ]
            ]
        ],
        "only_once": false,
        "priority": 20
    }
]