[
    {
        "name": "5c. Right Chest",
        "trigger": "Chest",
        "level_nid": "10_roam",
        "condition": "region.nid == 'right_chest'",
        "commands": [
            [
                "sound",
                [
                    "Unlock"
                ]
            ],
            [
                "hide_layer",
                [
                    "RightChest"
                ]
            ],
            [
                "give_item",
                [
                    "Osbert (Osbert)",
                    "Flame Sword (Flame Sword)"
                ]
            ]
        ],
        "only_once": false,
        "priority": 20
    }
]