[
    {
        "name": "2. Osbert-Abeni Conversation",
        "trigger": "on_talk",
        "level_nid": "10_roam",
        "condition": "unit2.nid == \"Abeni\"",
        "commands": [
            [
                "multi_add_portrait",
                [
                    "{var:roam_unit}",
                    "Left",
                    "Abeni (Abeni)",
                    "Right"
                ]
            ],
            [
                "speak",
                [
                    "Abeni",
                    "\u2028Restless as ever, are we Os?"
                ]
            ],
            [
                "speak",
                [
                    "{var:roam_unit}",
                    "\u2028Surely this castle has more to it than meets the eye.{w}\u2028Nothing wrong with a bit of plunder!"
                ]
            ],
            [
                "speak",
                [
                    "Abeni",
                    "\u2028You're too excitable. I just thought it\u2028would be a good idea to grab some tomes{w}\u2028the Fenians left behind."
                ]
            ],
            [
                "speak",
                [
                    "{var:roam_unit}",
                    "\u2028Ah... those aren't books. They're a tome\u2028collection.{w} They intended to burn them?"
                ]
            ],
            [
                "speak",
                [
                    "Abeni",
                    "\u2028Definitely not. These are well kept.{w}\u2028Besides, their real hatred is for \u2028True Magic.{w} Regular magic's too\u2028useful to burn away."
                ]
            ],
            [
                "speak",
                [
                    "{var:roam_unit}",
                    "\u2028You're starting to bore me.{w} Hmm...\u2028Find anything interesting on that shelf?{w}\u2028Like say... a left-behind Bolting tome?"
                ]
            ],
            [
                "bop_portrait",
                [
                    "Abeni"
                ]
            ],
            [
                "mirror_portrait",
                [
                    "Abeni"
                ]
            ],
            [
                "wait",
                [
                    "200"
                ]
            ],
            [
                "give_item",
                [
                    "Abeni (Abeni)",
                    "Bolting (Bolting)"
                ]
            ],
            [
                "speak",
                [
                    "Abeni",
                    "\u2028Well I'll be damned. They didn't take \u2028everything useful before running."
                ]
            ],
            [
                "speak",
                [
                    "{var:roam_unit}",
                    "\u2028Try not to burn yourself alive again with\u2028it. Fire and lightning don't agree with you.{w}"
                ]
            ],
            [
                "speak",
                [
                    "Abeni",
                    "\u2028That was one time, alright?{w} \u2028Besides, the fool had it coming.{w}\u2028What's a little death to an immortal?"
                ]
            ],
            [
                "multi_remove_portrait",
                [
                    "{var:roam_unit}",
                    "Abeni (Abeni)"
                ]
            ],
            [
                "for",
                [
                    "osbert_gaming",
                    "[u for u in (\"Osbert\", \"AxeBert\", \"LanceBert\", \"Swordbert\")]"
                ]
            ],
            [
                "remove_talk",
                [
                    "{osbert_gaming}",
                    "Abeni (Abeni)"
                ]
            ],
            [
                "endf",
                []
            ]
        ],
        "only_once": true,
        "priority": 20
    }
]