[
    {
        "name": "4. Cormorant Crew Conversation",
        "trigger": "on_talk",
        "level_nid": "10_roam",
        "condition": "unit2.nid == \"Cormorant\"",
        "commands": [
            [
                "move_unit",
                [
                    "{var:roam_unit}",
                    "43,14"
                ]
            ],
            [
                "add_portrait",
                [
                    "{var:roam_unit}",
                    "FarRight"
                ]
            ],
            [
                "add_portrait",
                [
                    "Cormorant (Cormorant)",
                    "OffscreenLeft"
                ]
            ],
            [
                "mirror_portrait",
                [
                    "{var:roam_unit}",
                    "no_block"
                ]
            ],
            [
                "speak",
                [
                    "{var:roam_unit}",
                    "\u2028Hmmm...?"
                ]
            ],
            [
                "speak",
                [
                    "Cormorant (Cormorant)",
                    "\u2028...I needed to get some distance\u2028from that poet buffoon.{w}\u2028Why he insists on rhyming every\u2028other sentence...? Infuriating."
                ]
            ],
            [
                "speak",
                [
                    "{var:roam_unit}",
                    "\u2028Nothing wrong with a little snooping..."
                ]
            ],
            [
                "multi_remove_portrait",
                [
                    "{var:roam_unit}",
                    "Cormorant (Cormorant)"
                ]
            ],
            [
                "move_unit",
                [
                    "{var:roam_unit}",
                    "42,14"
                ]
            ],
            [
                "multi_add_portrait",
                [
                    "Shoebill (Shoebill)",
                    "FarLeft",
                    "Cistia (Cistia)",
                    "CenterLeft",
                    "Kingfisher (Kingfisher)",
                    "CenterRight",
                    "Cormorant (Cormorant)",
                    "FarRight"
                ]
            ],
            [
                "speak",
                [
                    "Shoebill (Shoebill)",
                    "\u2028That's the least of my concerns.\u2028This cult's plan is...{w} disturbing\u2028to think about.{w} How does one build a \u2028god?"
                ]
            ],
            [
                "expression",
                [
                    "Cormorant (Cormorant)",
                    "CloseEyes"
                ]
            ],
            [
                "speak",
                [
                    "Cormorant (Cormorant)",
                    "\u2028This True Magic nonsense is going\u2028completely over my head.{w}\u2028You're not the only one with questions."
                ]
            ],
            [
                "expression",
                [
                    "Cormorant (Cormorant)",
                    "OpenEyes"
                ]
            ],
            [
                "speak",
                [
                    "Cormorant (Cormorant)",
                    "\u2028Something Bluejay said is bothering \u2028me.{w} He said that they can \u2028use the power of the new god to{w}\u2028undo what happened to -"
                ]
            ],
            [
                "expression",
                [
                    "Cormorant (Cormorant)",
                    "CloseEyes"
                ]
            ],
            [
                "speak",
                [
                    "Cormorant (Cormorant)",
                    "\u2028What happened to Nivala."
                ]
            ],
            [
                "speak",
                [
                    "Shoebill (Shoebill",
                    "\u2028A load of wyvern-dung. He was just \u2028trying to get in your head.{w}\u2028It's useless to stay in the past."
                ]
            ],
            [
                "expression",
                [
                    "Cormorant (Cormorant)",
                    "OpenEyes"
                ]
            ],
            [
                "speak",
                [
                    "Cormorant (Cormorant)",
                    "\u2028I know that. But I kept thinking.\u2028On the off-chance that he's right...{w}\u2028I-{w}I'd give anything to have\u2028her back.{w} To stop the war from\u2028ever happening."
                ]
            ],
            [
                "speak",
                [
                    "Kingfisher (Kingfisher)",
                    "\u2028C-can't say I blame you."
                ]
            ],
            [
                "expression",
                [
                    "Shoebill (Shoebill)",
                    "CloseEyes"
                ]
            ],
            [
                "speak",
                [
                    "Shoebill (Shoebill",
                    "\u2028...The war took a toll on all of\u2028us. It's a shame the fighting{w}\u2028is never truly done."
                ]
            ],
            [
                "speak",
                [
                    "Cormorant (Cormorant)",
                    "\u2028I'll be damned if I'm losing more\u2028of my crew before this is all over.{w}\u2028You all better survive."
                ]
            ],
            [
                "speak",
                [
                    "Cistia (Cistia)",
                    "\u2028Don't you worry, Cor. We've been\u2028through this before.{w} We can do\u2028it again."
                ]
            ],
            [
                "multi_remove_portrait",
                [
                    "Cistia (Cistia)",
                    "Cormorant (Cormorant)",
                    "Kingfisher (Kingfisher)",
                    "Shoebill (Shoebill)"
                ]
            ],
            [
                "add_portrait",
                [
                    "{var:roam_unit}",
                    "FarRight"
                ]
            ],
            [
                "speak",
                [
                    "{var:roam_unit}",
                    "Tch. Too serious for my liking.{w} No treasure, to boot."
                ]
            ],
            [
                "for",
                [
                    "osbert_gaming",
                    "[u for u in (\"Osbert\", \"AxeBert\", \"LanceBert\", \"Swordbert\")]"
                ]
            ],
            [
                "remove_talk",
                [
                    "{osbert_gaming}",
                    "Cormorant (Cormorant)"
                ]
            ],
            [
                "endf",
                []
            ]
        ],
        "only_once": true,
        "priority": 20
    }
]