[
    {
        "name": "07. Seliche Talk",
        "trigger": "on_talk",
        "level_nid": "11",
        "condition": "check_pair('Seliche', 'Sionn')",
        "commands": [
            [
                "add_portrait",
                [
                    "Seliche",
                    "Right"
                ]
            ],
            [
                "add_portrait",
                [
                    "Sionn",
                    "Left"
                ]
            ],
            [
                "speak",
                [
                    "Sionn",
                    "Those are interesting powers...{w}\u2028Tell me, is this some kind of shifter ability?"
                ]
            ],
            [
                "speak",
                [
                    "Seliche",
                    "Yes, it is."
                ]
            ],
            [
                "speak",
                [
                    "Sionn",
                    "Interesting... it seems the scope of what we shifters can do{w}\u2028is much greater than I had initially thought."
                ]
            ],
            [
                "speak",
                [
                    "Seliche",
                    "Oh, you're also a Shifter? Amazing!{w}\u2028What led you to venture out of Tirnanogue?"
                ]
            ],
            [
                "speak",
                [
                    "Sionn",
                    "Well actually. I hadn't even heard to Tirnanogue until recently...{w}"
                ]
            ],
            [
                "speak",
                [
                    "Seliche",
                    "That's peculiar...{w} You must be descendant from Tuathan blood though,{w}\u2028to be able to Shift the way you do.{w}\u2028I wonder where you get it from..."
                ]
            ],
            [
                "speak",
                [
                    "Sionn",
                    "Hmmm..."
                ]
            ],
            [
                "multi_remove_portrait",
                [
                    "Seliche",
                    "Sionn"
                ]
            ],
            [
                "comment",
                [
                    "# Remove Talk Convos"
                ]
            ],
            [
                "remove_talk",
                [
                    "Seliche",
                    "Sionn"
                ]
            ],
            [
                "remove_talk",
                [
                    "Sionn",
                    "Seliche"
                ]
            ]
        ],
        "only_once": true,
        "priority": 20
    }
]