[
    {
        "name": "00. Intro",
        "trigger": "level_start",
        "level_nid": "11",
        "condition": "True",
        "commands": [
            [
                "comment",
                [
                    "# Setup"
                ]
            ],
            [
                "comment",
                [
                    "# Show chapter title"
                ]
            ],
            [
                "chapter_title",
                []
            ],
            [
                "comment",
                [
                    "# Pre-chapter cutscenes"
                ]
            ],
            [
                "change_background",
                [
                    "BlackBackground"
                ]
            ],
            [
                "transition",
                [
                    "open"
                ]
            ],
            [
                "change_background",
                [
                    "Village"
                ]
            ],
            [
                "music",
                [
                    "CalmFolk"
                ]
            ],
            [
                "add_portrait",
                [
                    "Cormorant",
                    "FarRight",
                    "FLAG(no_block)"
                ]
            ],
            [
                "speak",
                [
                    "Cormorant",
                    "Morning, Ennis. Feeling rested?"
                ]
            ],
            [
                "add_portrait",
                [
                    "Ennis",
                    "FarLeft",
                    "FLAG(no_block)"
                ]
            ],
            [
                "speak",
                [
                    "Ennis",
                    "Honestly, I spent the night tossing and turning...{w}\u2028So many thoughts, unable to be silenced.{w}\u2028...{w}\u2028Cor...{w}\u2028How am I meant to kill a God?{w}\u2028Or better yet - how am I even meant to FACE a God?!"
                ]
            ],
            [
                "speak",
                [
                    "Cormorant",
                    "I...{w} I don't know...{w}\u2028You know this kind of thing is way above my paygrade.{w}\u2028There's one thing I can say with confidence though.{w}\u2028If it bleeds, we can kill it.{w}\u2028Worst comes to worst, we just throw an Abeni Bomb on it, right?"
                ]
            ],
            [
                "expression",
                [
                    "Ennis",
                    "Smile,CloseEyes"
                ]
            ],
            [
                "speak",
                [
                    "Ennis",
                    "Cor... Thank you for trying to cheer me up."
                ]
            ],
            [
                "expression",
                [
                    "Ennis",
                    "NoSmile,OpenEyes"
                ]
            ],
            [
                "move_portrait",
                [
                    "Cormorant",
                    "CenterRight"
                ]
            ],
            [
                "add_portrait",
                [
                    "Faviyn",
                    "FarRight"
                ]
            ],
            [
                "speak",
                [
                    "Faviyn",
                    "Good morning everyone.{w}\u2028I hope I'm not interrupting,{w}\u2028but I would like to borrow Cormorant for a moment."
                ]
            ],
            [
                "speak",
                [
                    "Cormorant",
                    "Of course Faviyn, what do you want?"
                ]
            ],
            [
                "expression",
                [
                    "Faviyn",
                    "NoSmile,CloseEyes"
                ]
            ],
            [
                "speak",
                [
                    "Faviyn",
                    "Please, follow me."
                ]
            ],
            [
                "multi_remove_portrait",
                [
                    "Cormorant",
                    "Faviyn"
                ]
            ],
            [
                "add_portrait",
                [
                    "Osbert",
                    "FarRight"
                ]
            ],
            [
                "speak",
                [
                    "Osbert",
                    "Lady Connachta! Would you care to join us for some breakfast?{w}\u2028You MUST see SwordBert expertly chop onions!{w}\u2028Saves my own tears, but I fear they are doubled for him!"
                ]
            ],
            [
                "speak",
                [
                    "Ennis",
                    "Very well! I'll be there shortly!"
                ]
            ],
            [
                "multi_remove_portrait",
                [
                    "Ennis",
                    "Osbert"
                ]
            ],
            [
                "transition",
                [
                    "close"
                ]
            ],
            [
                "change_background",
                [
                    "BlackBackground"
                ]
            ],
            [
                "wait",
                [
                    "500"
                ]
            ],
            [
                "transition",
                [
                    "open"
                ]
            ],
            [
                "change_background",
                [
                    "Outside Castle 3 Day"
                ]
            ],
            [
                "multi_add_portrait",
                [
                    "Cormorant",
                    "Left",
                    "Faviyn",
                    "Right"
                ]
            ],
            [
                "speak",
                [
                    "Cormorant",
                    "What did you wish to speak to me about?"
                ]
            ],
            [
                "speak",
                [
                    "Faviyn",
                    "About our conversation yesterday."
                ]
            ],
            [
                "speak",
                [
                    "Cormorant",
                    "Okay, what about it?"
                ]
            ],
            [
                "speak",
                [
                    "Faviyn",
                    "I must tell you something of great importance.{w}\u2028Lady Ennis was not the only one whom the Godslayer sword was calling to.{w}"
                ]
            ],
            [
                "speak",
                [
                    "Cormorant",
                    "What are you talking about?"
                ]
            ],
            [
                "speak",
                [
                    "Faviyn",
                    "It has also chosen you to be a suitable wielder, Cormorant."
                ]
            ],
            [
                "speak",
                [
                    "Cormorant",
                    "I've seen some funny things recently.{w}\u2028But last time I checked, people choose swords.{w}\u2028Not the other way around."
                ]
            ],
            [
                "speak",
                [
                    "Faviyn",
                    "Believe it or not, the blade has decided."
                ]
            ],
            [
                "speak",
                [
                    "Cormorant",
                    "Whatever you say, Faviyn.{w}\u2028Now if you don't mind I'm going to rejoin my companions before we head off."
                ]
            ],
            [
                "speak",
                [
                    "Faviyn",
                    "Very well. Just thought it should be something to think about...{w}\u2028It is unwise to question the will of the blade."
                ]
            ],
            [
                "speak",
                [
                    "Cormorant",
                    "Fine. I'll entertain this \"blade\" of yours.{w}\u2028Perhaps it's time to get back into my old gear{w}\u2028and work out my sword arm again anyway."
                ]
            ],
            [
                "remove_portrait",
                [
                    "Cormorant"
                ]
            ],
            [
                "speak",
                [
                    "Faviyn",
                    "I believe that would be for the best..."
                ]
            ],
            [
                "remove_portrait",
                [
                    "Faviyn"
                ]
            ],
            [
                "give_item",
                [
                    "Cormorant",
                    "Captain's Gear"
                ]
            ],
            [
                "music_clear",
                []
            ],
            [
                "transition",
                [
                    "close"
                ]
            ],
            [
                "comment",
                [
                    "#Begin Base"
                ]
            ],
            [
                "game_var",
                [
                    "_base_market",
                    "True"
                ]
            ],
            [
                "game_var",
                [
                    "_prep_market",
                    "True"
                ]
            ],
            [
                "add_market_item",
                [
                    "Steel Sword"
                ]
            ],
            [
                "add_market_item",
                [
                    "Poison Sword"
                ]
            ],
            [
                "add_market_item",
                [
                    "Steel Lance"
                ]
            ],
            [
                "add_market_item",
                [
                    "Javelin"
                ]
            ],
            [
                "add_market_item",
                [
                    "Steel Axe"
                ]
            ],
            [
                "add_market_item",
                [
                    "Steel Bow"
                ]
            ],
            [
                "add_market_item",
                [
                    "Steel Dagger"
                ]
            ],
            [
                "add_market_item",
                [
                    "Fire"
                ]
            ],
            [
                "add_market_item",
                [
                    "Lightning"
                ]
            ],
            [
                "add_market_item",
                [
                    "Flux"
                ]
            ],
            [
                "add_market_item",
                [
                    "Mend"
                ]
            ],
            [
                "add_market_item",
                [
                    "Concoction"
                ]
            ],
            [
                "if",
                [
                    "game.check_alive('Farl') and game.check_alive('Lim')"
                ]
            ],
            [
                "add_base_convo",
                [
                    "Wordsmiths (!)"
                ]
            ],
            [
                "end",
                []
            ],
            [
                "if",
                [
                    "game.check_alive('Goibniu') and game.check_alive('Luan') and game.check_alive('Striga')"
                ]
            ],
            [
                "add_base_convo",
                [
                    "Axe Of Kindness (!)"
                ]
            ],
            [
                "end",
                []
            ],
            [
                "base",
                [
                    "Forest 2 Evening",
                    "Faron Woods"
                ]
            ],
            [
                "end_skip",
                []
            ],
            [
                "comment",
                [
                    "# Move to Chapter map, continue intro"
                ]
            ],
            [
                "transition",
                [
                    "open"
                ]
            ],
            [
                "change_tilemap",
                [
                    "Ch11 Frostbite Empty"
                ]
            ],
            [
                "change_background",
                []
            ],
            [
                "music",
                [
                    "4-01 Road Taken"
                ]
            ],
            [
                "load_unit",
                [
                    "Jarze"
                ]
            ],
            [
                "load_unit",
                [
                    "Seliche"
                ]
            ],
            [
                "add_unit",
                [
                    "Jarze",
                    "23,19"
                ]
            ],
            [
                "move_unit",
                [
                    "Jarze",
                    "24,16"
                ]
            ],
            [
                "add_unit",
                [
                    "Seliche",
                    "23,19"
                ]
            ],
            [
                "move_unit",
                [
                    "Seliche",
                    "25,16"
                ]
            ],
            [
                "move_cursor",
                [
                    "Jarze"
                ]
            ],
            [
                "add_portrait",
                [
                    "Jarze",
                    "FarLeft"
                ]
            ],
            [
                "speak",
                [
                    "Jarze",
                    "Look, Seliche! In the cave! There's that damn dragon!"
                ]
            ],
            [
                "add_unit",
                [
                    "Monster (100)",
                    "16,3"
                ]
            ],
            [
                "move_cursor",
                [
                    "Monster (100)"
                ]
            ],
            [
                "wait",
                [
                    "1000"
                ]
            ],
            [
                "add_portrait",
                [
                    "Seliche",
                    "FarRight"
                ]
            ],
            [
                "move_cursor",
                [
                    "Seliche"
                ]
            ],
            [
                "speak",
                [
                    "Seliche",
                    "I see it! Looks like it's moving!{w}\u2028Let's try and sneak through the river and take it down.{w}\u2028Today is the day you'll be cleansed of that curse."
                ]
            ],
            [
                "speak",
                [
                    "Jarze",
                    "Sounds like a plan!{w}\u2028Man, I can't wait to have all my strength back!"
                ]
            ],
            [
                "add_unit",
                [
                    "Ennis",
                    "19,19"
                ]
            ],
            [
                "move_unit",
                [
                    "Ennis",
                    "20,16"
                ]
            ],
            [
                "add_unit",
                [
                    "Cormorant",
                    "19,19"
                ]
            ],
            [
                "move_unit",
                [
                    "Cormorant",
                    "21,17"
                ]
            ],
            [
                "remove_portrait",
                [
                    "Jarze"
                ]
            ],
            [
                "add_portrait",
                [
                    "Jarze",
                    "MidRight"
                ]
            ],
            [
                "add_portrait",
                [
                    "Ennis",
                    "FarLeft"
                ]
            ],
            [
                "speak",
                [
                    "Ennis",
                    "Have we made it out of Tirnanogue?{w}\u2028Are we on the other side of the mountain?"
                ]
            ],
            [
                "add_portrait",
                [
                    "Cormorant",
                    "CenterLeft",
                    "FLAG(no_block)"
                ]
            ],
            [
                "speak",
                [
                    "Cormorant",
                    "Seems like it...{w}\u2028Be on your guard! Remeber that Mount Hollowhorn is Fenian territory."
                ]
            ],
            [
                "speak",
                [
                    "Ennis",
                    "Wait, Cor. Do you see that?{w}\u2028Is that a dragon?!"
                ]
            ],
            [
                "speak",
                [
                    "Seliche",
                    "Indeed it is. Best to stay out of it's way.\u2028Don't worry though, Jarze and I will handle it!"
                ]
            ],
            [
                "speak",
                [
                    "Jarze",
                    "You've got that right!{w}\u2028If it's in Fenian territory we may have a bigger problem though.{w}\u2028We're not friend of the Fenians either,{w}\u2028so let's catch up once we've slain this dragon!"
                ]
            ],
            [
                "multi_remove_portrait",
                [
                    "Jarze",
                    "Seliche",
                    "Ennis",
                    "Cormorant"
                ]
            ],
            [
                "move_unit",
                [
                    "Jarze",
                    "27,3"
                ]
            ],
            [
                "move_unit",
                [
                    "Seliche",
                    "29,5"
                ]
            ],
            [
                "move_unit",
                [
                    "Monster (100)",
                    "22,1",
                    "swoosh"
                ]
            ],
            [
                "wait",
                [
                    "500"
                ]
            ],
            [
                "add_unit",
                [
                    "Byrne",
                    "9,13"
                ]
            ],
            [
                "move_cursor",
                [
                    "Byrne"
                ]
            ],
            [
                "wait",
                [
                    "500"
                ]
            ],
            [
                "multi_add_portrait",
                [
                    "Ennis",
                    "MidRight",
                    "Cormorant",
                    "FarRight",
                    "Byrne",
                    "FarLeft"
                ]
            ],
            [
                "expression",
                [
                    "Byrne",
                    "Smile"
                ]
            ],
            [
                "speak",
                [
                    "Byrne",
                    "Well look who finally decided to show herself...{w}\u2028Welcome to MY domain, Lady Connachta!{w}\u2028I hope you like it here. Because it's going to be all you know from now on!"
                ]
            ],
            [
                "expression",
                [
                    "Byrne",
                    "NoSmile"
                ]
            ],
            [
                "speak",
                [
                    "Byrne",
                    "All Fenians!{w}\u2028Bring me the girl! Do what you will with the rest...{w}\u2028But don't let their force near this castle!"
                ]
            ],
            [
                "move_cursor",
                [
                    "Ennis"
                ]
            ],
            [
                "speak",
                [
                    "Ennis",
                    "Well it looks like we really stirred the hive.{w}\u2028Prepare for battle everybody!{w}\u2028We're taking this castle tonight!"
                ]
            ],
            [
                "transition",
                [
                    "close"
                ]
            ],
            [
                "wait",
                [
                    "500"
                ]
            ],
            [
                "comment",
                [
                    "# Conversations"
                ]
            ],
            [
                "add_talk",
                [
                    "Jarze",
                    "Osbert"
                ]
            ],
            [
                "add_talk",
                [
                    "Osbert",
                    "Jarze"
                ]
            ],
            [
                "add_talk",
                [
                    "Seliche",
                    "Sionn"
                ]
            ],
            [
                "add_talk",
                [
                    "Sionn",
                    "Seliche"
                ]
            ],
            [
                "comment",
                [
                    "# Prep"
                ]
            ],
            [
                "change_background",
                [
                    "BlackBackground"
                ]
            ],
            [
                "change_tilemap",
                [
                    "Ch11 Frostbite",
                    "",
                    "Ch11 Frostbite",
                    "FLAG(reload)"
                ]
            ],
            [
                "wait",
                [
                    "500"
                ]
            ],
            [
                "change_background",
                []
            ],
            [
                "add_unit",
                [
                    "Jarze",
                    "27,3"
                ]
            ],
            [
                "add_unit",
                [
                    "Seliche",
                    "29,5"
                ]
            ],
            [
                "add_tag",
                [
                    "Monster (100)",
                    "Boss"
                ]
            ],
            [
                "prep",
                [
                    "1",
                    "4-01 Road Taken"
                ]
            ]
        ],
        "only_once": false,
        "priority": 20
    }
]