[
    {
        "name": "08. Jarze Talk",
        "trigger": "on_talk",
        "level_nid": "11",
        "condition": "check_pair('Jarze', 'Osbert')",
        "commands": [
            [
                "add_portrait",
                [
                    "Jarze",
                    "Right"
                ]
            ],
            [
                "add_portrait",
                [
                    "Osbert",
                    "Left"
                ]
            ],
            [
                "speak",
                [
                    "Osbert",
                    "Hail, friend! You seem sturdier than most...{w}\u2028You're an immortal too, aren't you?"
                ]
            ],
            [
                "speak",
                [
                    "Jarze",
                    "Oh, you noticed!{w}\u2028The Dragon Heart inside me is the one to thank."
                ]
            ],
            [
                "speak",
                [
                    "Osbert",
                    "Woah! The strength of a dragon trapped inside one man? Incredible."
                ]
            ],
            [
                "speak",
                [
                    "Jarze",
                    "I won't lie, it has let me see the other side\u2028of some tricky situations more than thrice.{w}\u2028Not to say it doesn't still hurt the next day though..."
                ]
            ],
            [
                "speak",
                [
                    "Osbert",
                    "Well, as I always say:{w}\u2028Life's no fun if you're afraid of a little pain!"
                ]
            ],
            [
                "speak",
                [
                    "Jarze",
                    "Truer words have never been said!{w}\u2028Pain is just something I've grown accustomed to these days."
                ]
            ],
            [
                "speak",
                [
                    "Osbert",
                    "Well, I'm just going to come out and say it.{w}\u2028I would love to spar with you in the future!"
                ]
            ],
            [
                "speak",
                [
                    "Jarze",
                    "I can't see any reason why that couldn't be arranged!"
                ]
            ],
            [
                "multi_remove_portrait",
                [
                    "Jarze",
                    "Osbert"
                ]
            ],
            [
                "comment",
                [
                    "# Remove Talk Convos"
                ]
            ],
            [
                "remove_talk",
                [
                    "Jarze",
                    "Osbert"
                ]
            ],
            [
                "remove_talk",
                [
                    "Osbert",
                    "Jarze"
                ]
            ]
        ],
        "only_once": true,
        "priority": 20
    }
]