[
    {
        "name": "04b. VillagerSecured",
        "trigger": "turn_change",
        "level_nid": "11",
        "condition": "game.turncount == 7",
        "commands": [
            [
                "if",
                [
                    "game.check_alive('Soldiernapper')"
                ]
            ],
            [
                "move_cursor",
                [
                    "Soldiernapper"
                ]
            ],
            [
                "move_unit",
                [
                    "Soldiernapper",
                    "9,14"
                ]
            ],
            [
                "add_portrait",
                [
                    "Soldiernapper",
                    "Left"
                ]
            ],
            [
                "speak",
                [
                    "Soldiernapper",
                    "This is the last of 'em! I'll clean up the mess now."
                ]
            ],
            [
                "remove_portrait",
                [
                    "Soldiernapper"
                ]
            ],
            [
                "change_ai",
                [
                    "Soldiernapper",
                    "CaptureDestroy"
                ]
            ],
            [
                "remove_portrait",
                [
                    "Garcia"
                ]
            ],
            [
                "end",
                []
            ]
        ],
        "only_once": true,
        "priority": 20
    }
]