[
    {
        "name": "10. Seize",
        "trigger": "Seize",
        "level_nid": "11",
        "condition": "True",
        "commands": [
            [
                "win_game",
                []
            ],
            [
                "music_clear",
                []
            ]
        ],
        "only_once": true,
        "priority": 20
    }
]