[
    {
        "name": "99. Outro",
        "trigger": "level_end",
        "level_nid": "11",
        "condition": "True",
        "commands": [
            [
                "change_background",
                [
                    "BlackBackground"
                ]
            ],
            [
                "transition",
                [
                    "open"
                ]
            ],
            [
                "change_background",
                [
                    "Outside Castle Winter Day"
                ]
            ],
            [
                "music",
                [
                    "Radiant Dawn Tension - IS"
                ]
            ],
            [
                "multi_add_portrait",
                [
                    "Cormorant",
                    "FarRight",
                    "Ennis",
                    "FarLeft"
                ]
            ],
            [
                "speak",
                [
                    "Ennis",
                    "We did it! The Fenian's hold on Mount Hollowhorn is no more!{w}\u2028These people no longer need to live in fear."
                ]
            ],
            [
                "speak",
                [
                    "Cormorant",
                    "And with any luck they'll be able to rebuild and live a normal life again."
                ]
            ],
            [
                "move_portrait",
                [
                    "Ennis",
                    "MidRight"
                ]
            ],
            [
                "mirror_portrait",
                [
                    "Ennis"
                ]
            ],
            [
                "add_portrait",
                [
                    "Accipiter",
                    "MidLeft"
                ]
            ],
            [
                "speak",
                [
                    "Accipiter",
                    "Lady Ennis, Cor.{w}\u2028I found something while I was scouting through the fortress walls."
                ]
            ],
            [
                "speak",
                [
                    "Cormorant",
                    "What is it, Accipiter?"
                ]
            ],
            [
                "speak",
                [
                    "Accipiter",
                    "Well.{w}\u2028I found evidence that Fenians have been receiving orders direct from Tiberius,{w}\u2028just like Lim said.{w}\u2028It seems like this is just one of a few strongholds of theirs, too.{w}\u2028Finally, there are these maps of a place I've never seen before."
                ]
            ],
            [
                "add_portrait",
                [
                    "Thrant",
                    "FarLeft"
                ]
            ],
            [
                "speak",
                [
                    "Thrant",
                    "Sorry to interrupt, did you say maps? May I have a look?"
                ]
            ],
            [
                "speak",
                [
                    "Accipiter",
                    "Of course, I'll keep searching while you mull this over."
                ]
            ],
            [
                "remove_portrait",
                [
                    "Accipiter"
                ]
            ],
            [
                "speak",
                [
                    "Thrant",
                    "I see... Yes. I know where this is. This is the capital of Tirnanogue."
                ]
            ],
            [
                "speak",
                [
                    "Ennis",
                    "Tirnanogue?! How have the Fenians found this information?"
                ]
            ],
            [
                "expression",
                [
                    "Thrant",
                    "CloseEyes"
                ]
            ],
            [
                "speak",
                [
                    "Thrant",
                    "I'm not sure."
                ]
            ],
            [
                "expression",
                [
                    "Thrant",
                    "OpenEyes"
                ]
            ],
            [
                "speak",
                [
                    "Thrant",
                    "But it seems like they plan to attack."
                ]
            ],
            [
                "move_portrait",
                [
                    "Cormorant",
                    "OffscreenRight"
                ]
            ],
            [
                "move_portrait",
                [
                    "Ennis",
                    "FarRight"
                ]
            ],
            [
                "move_portrait",
                [
                    "Thrant",
                    "MidRight"
                ]
            ],
            [
                "mirror_portrait",
                [
                    "Thrant"
                ]
            ],
            [
                "multi_add_portrait",
                [
                    "Seliche",
                    "MidLeft",
                    "Lim",
                    "FarLeft"
                ]
            ],
            [
                "speak",
                [
                    "Seliche",
                    "Attack Tirnanogue?! That's my home. We must warn them!"
                ]
            ],
            [
                "speak",
                [
                    "Lim",
                    "Sorry to insert myself like this, but I agree.{w}\u2028The fall of my homeland is not something that I wish to see."
                ]
            ],
            [
                "speak",
                [
                    "Ennis",
                    "My mother wouldn't let this stand either.{w}\u2028Where are we go to go with this information though?{w}\u2028Do any of you know someone we could talk to?"
                ]
            ],
            [
                "speak",
                [
                    "Seliche",
                    "Sorry, I personally don't know anyone in the capital..."
                ]
            ],
            [
                "speak",
                [
                    "Lim",
                    "Sadly, the same can be said for me.{w}\u2028If only there was someone we could see."
                ]
            ],
            [
                "speak",
                [
                    "Thrant",
                    "We could always talk to Queen Maeve herself?"
                ]
            ],
            [
                "speak",
                [
                    "Ennis",
                    "Queen Maeve? Are you saying you know the ruler of Tirnanogue?"
                ]
            ],
            [
                "speak",
                [
                    "Thrant",
                    "Of course! The Queen and I go way back.{w}\u2028I used to work with her alongside your mother, Ennis."
                ]
            ],
            [
                "remove_portrait",
                [
                    "Lim"
                ]
            ],
            [
                "move_portrait",
                [
                    "Seliche",
                    "FarLeft"
                ]
            ],
            [
                "move_portrait",
                [
                    "Thrant",
                    "MidLeft"
                ]
            ],
            [
                "mirror_portrait",
                [
                    "Thrant"
                ]
            ],
            [
                "move_portrait",
                [
                    "Ennis",
                    "MidRight"
                ]
            ],
            [
                "move_portrait",
                [
                    "Cormorant",
                    "FarRight"
                ]
            ],
            [
                "speak",
                [
                    "Cormorant",
                    "You knew Lady Connachta?! How is that possible?"
                ]
            ],
            [
                "expression",
                [
                    "Thrant",
                    "Smile"
                ]
            ],
            [
                "speak",
                [
                    "Thrant",
                    "Oh, you haven't figured it out yet?{w}\u2028Yarrow and I are Immortals!"
                ]
            ],
            [
                "expression",
                [
                    "Cormorant",
                    "CloseEyes"
                ]
            ],
            [
                "speak",
                [
                    "Cormorant",
                    "Unbelievable..."
                ]
            ],
            [
                "speak",
                [
                    "Ennis",
                    "You could have told us sooner!{w}\u2028Well in any case, we must head to the capital of Tirnanogue at once!"
                ]
            ],
            [
                "speak",
                [
                    "Seliche",
                    "We have a common enemy.{w}\u2028Jarze and I will do whatever we can to assist."
                ]
            ],
            [
                "speak",
                [
                    "Ennis",
                    "We'll gladly accept any help we can get.{w}\u2028Seems like we'll soon be outnumbered by Immortals though."
                ]
            ],
            [
                "speak",
                [
                    "Thrant",
                    "Not so fast...{w}\u2028Maeve won't take kindly to us bringing the Lia F\u00e1l to the capital.{w}\u2028And who can blame her? It'll seem like we're there to coronate a new ruler!"
                ]
            ],
            [
                "expression",
                [
                    "Cormorant",
                    "OpenEyes"
                ]
            ],
            [
                "speak",
                [
                    "Cormorant",
                    "She'll just have to get over it.{w}\u2028It's either that or she gets invaded by the Crown and the Fenians."
                ]
            ],
            [
                "speak",
                [
                    "Ennis",
                    "Yes, I don't care what she thinks about us in possession of the Lia F\u00e1l.{w}\u2028We have to warn her of what's to come!"
                ]
            ],
            [
                "speak",
                [
                    "Thrant",
                    "Then let us away."
                ]
            ],
            [
                "multi_remove_portrait",
                [
                    "Seliche",
                    "Thrant",
                    "Ennis",
                    "Cormorant"
                ]
            ],
            [
                "give_skill",
                [
                    "Thrant",
                    "Immortal"
                ]
            ],
            [
                "give_skill",
                [
                    "Yarrow",
                    "Immortal"
                ]
            ],
            [
                "transition",
                [
                    "close"
                ]
            ],
            [
                "music_clear",
                []
            ],
            [
                "change_background",
                [
                    "BlackBackground"
                ]
            ]
        ],
        "only_once": false,
        "priority": 20
    }
]