[
    {
        "name": "BC Axe Of Kindness (!)",
        "trigger": "on_base_convo",
        "level_nid": "11",
        "condition": "unit == 'Axe Of Kindness (!)'",
        "commands": [
            [
                "change_background",
                [
                    "Village"
                ]
            ],
            [
                "music",
                [
                    "CalmFolk"
                ]
            ],
            [
                "add_portrait",
                [
                    "Luan",
                    "MidLeft",
                    "FLAG(no_block)"
                ]
            ],
            [
                "add_portrait",
                [
                    "Striga",
                    "FarLeft",
                    "FLAG(no_block)"
                ]
            ],
            [
                "add_portrait",
                [
                    "Goibniu",
                    "Right"
                ]
            ],
            [
                "speak",
                [
                    "Luan",
                    "Cousin! It was really something to fight by your side in a real battle."
                ]
            ],
            [
                "speak",
                [
                    "Goibniu",
                    "Hah.{w}\u2028I see your skills have grown since our last mock fight at the Barrow!"
                ]
            ],
            [
                "speak",
                [
                    "Luan",
                    "Oh, do you think?{w}\u2028I've started practicing with heavier weapons\u2028so I can finally crack your thick shell!{w}\u2028I wonder if I stand a chance next time we spar..."
                ]
            ],
            [
                "speak",
                [
                    "Striga",
                    "Choose your words carefully, Goibniu.{w}\u2028You are Luan's absolute hero, you know."
                ]
            ],
            [
                "speak",
                [
                    "Luan",
                    "S-Striga..!"
                ]
            ],
            [
                "speak",
                [
                    "Goibniu",
                    "That's mighty flattering to hear,|but I think I have as much to learn from Luan|as he does from me these days.|That new defence piercing technique of yours could have what it takes!"
                ]
            ],
            [
                "speak",
                [
                    "Luan",
                    "Cousin..."
                ]
            ],
            [
                "speak",
                [
                    "Striga",
                    "Flattery won't help my baby brother learn, cousin.{w}\u2028Now that we're on the war path together,|he will need constructive criticism from his betters."
                ]
            ],
            [
                "speak",
                [
                    "Luan",
                    "Ahh Striga, there's no need to be so serious.{w}\u2028With instructors like you and Goibniu around, how could I fail?"
                ]
            ],
            [
                "speak",
                [
                    "Goibniu",
                    "The boy's got a point with that one Striga!"
                ]
            ],
            [
                "speak",
                [
                    "Striga",
                    "Haha!|So I see flattery works on you as well, Goibniu.|No matter.|Luan, perhaps it is a good time to present Goibniu with his gift?"
                ]
            ],
            [
                "speak",
                [
                    "Luan",
                    "Oh, yes.|Cousin, a gift from our forge to yours."
                ]
            ],
            [
                "speak",
                [
                    "Goibniu",
                    "Ahh, an axe as beautiful as any I've seen before."
                ]
            ],
            [
                "speak",
                [
                    "Luan",
                    "It is called Bealtaine, or Summer's Axe."
                ]
            ],
            [
                "speak",
                [
                    "Goibniu",
                    "My forge was destroyed, as you know.|In the absence of a reciprocal gift from it,|I will make this Bealtaine an axe of legend through my deeds.|This I promise you both."
                ]
            ],
            [
                "speak",
                [
                    "Striga",
                    "You always were a showboat, cousin.|Still, I believe you."
                ]
            ],
            [
                "give_item",
                [
                    "Goibniu",
                    "Bealtaine"
                ]
            ],
            [
                "multi_remove_portrait",
                [
                    "Goibniu",
                    "Luan",
                    "Striga"
                ]
            ],
            [
                "ignore_base_convo",
                [
                    "Axe Of Kindness (!)"
                ]
            ]
        ],
        "only_once": false,
        "priority": 20
    }
]