[
    {
        "name": "BC Wordsmiths (!)",
        "trigger": "on_base_convo",
        "level_nid": "11",
        "condition": "unit == 'Wordsmiths (!)'",
        "commands": [
            [
                "music",
                [
                    "rain"
                ]
            ],
            [
                "transition",
                [
                    "close"
                ]
            ],
            [
                "change_background",
                [
                    "Village 2 Rainy"
                ]
            ],
            [
                "transition",
                [
                    "open"
                ]
            ],
            [
                "add_portrait",
                [
                    "Lim",
                    "Right",
                    "FLAG(no_block)"
                ]
            ],
            [
                "add_portrait",
                [
                    "Farl",
                    "Left"
                ]
            ],
            [
                "speak",
                [
                    "Farl",
                    "Howdy, Lim."
                ]
            ],
            [
                "speak",
                [
                    "Lim",
                    "Hello Farl, are you enjoying the rain?{w}\u2028I'm not sure how well I'll be able to entertain."
                ]
            ],
            [
                "speak",
                [
                    "Farl",
                    "Not a problem, friend.{w} I only came out here to better appreciate the weather.{w}\u2028I find a certain peace and serenity in the storms.{w}\u2028Especially the ones here in Tirnanogue."
                ]
            ],
            [
                "speak",
                [
                    "Lim",
                    "Yes, they are something else alright.{w}\u2028A nice little break in our never ending plight."
                ]
            ],
            [
                "speak",
                [
                    "Farl",
                    "I'll say!{w} You know, I actually came out here to work on some poetry.{w}\u2028Would you care to join me?"
                ]
            ],
            [
                "speak",
                [
                    "Lim",
                    "I would enjoy it greatly to exercise my mind a bit!{w}\u2028What kind of style would you like us to fit?{w}\u2028Personally, I find the weather very suiting for a haiku.{w}\u2028How about you?"
                ]
            ],
            [
                "speak",
                [
                    "Farl",
                    "Sounds like a fantastic idea! I'll give a hand at it first!"
                ]
            ],
            [
                "expression",
                [
                    "Farl",
                    "CloseEyes"
                ]
            ],
            [
                "wait",
                [
                    "500"
                ]
            ],
            [
                "speak",
                [
                    "Farl",
                    "On a stormy night,{w}\u2028Our past worries wash away,{w}\u2028To give a clean slate."
                ]
            ],
            [
                "expression",
                [
                    "Farl",
                    "OpenEyes"
                ]
            ],
            [
                "speak",
                [
                    "Lim",
                    "Wow Farl, wonderfully said!{w}\u2028Hopefully mind doesn't flop dead..."
                ]
            ],
            [
                "expression",
                [
                    "Lim",
                    "CloseEyes"
                ]
            ],
            [
                "wait",
                [
                    "500"
                ]
            ],
            [
                "speak",
                [
                    "Lim",
                    "Covering the sky,{w}\u2028Will this weather ever die,{w}\u2028For the stars up high.{w}"
                ]
            ],
            [
                "expression",
                [
                    "Lim",
                    "OpenEyes"
                ]
            ],
            [
                "speak",
                [
                    "Farl",
                    "Ahh, a pleasure to hear the master at work!"
                ]
            ],
            [
                "speak",
                [
                    "Lim",
                    "No, you are too kind!{w}\u2028My words didn't come as easily as the ones you were able to find...\u2028Now to top off night: with this tap,{w}\u2028I enchant your cap."
                ]
            ],
            [
                "speak",
                [
                    "Farl",
                    "Woah nice and shiny! Seems like you were entertain me after all!{w}\u2028Anyway it's getting late now, so I might head back in and get some rest.{w}\u2028Thanks again, Lim!"
                ]
            ],
            [
                "speak",
                [
                    "Lim",
                    "Not a problem, it was a nice change of pace!{w}\u2028Goodnight, I think I'll stay out a while to feel the mist on my face."
                ]
            ],
            [
                "expression",
                [
                    "Lim",
                    "CloseEyes"
                ]
            ],
            [
                "remove_portrait",
                [
                    "Farl"
                ]
            ],
            [
                "wait",
                [
                    "1000"
                ]
            ],
            [
                "remove_portrait",
                [
                    "Lim"
                ]
            ],
            [
                "ignore_base_convo",
                [
                    "Wordsmiths (!)"
                ]
            ],
            [
                "transition",
                [
                    "close"
                ]
            ],
            [
                "change_background",
                []
            ],
            [
                "give_item",
                [
                    "Farl",
                    "Poetic Cap"
                ]
            ],
            [
                "transition",
                [
                    "Open"
                ]
            ]
        ],
        "only_once": false,
        "priority": 20
    }
]