[
    {
        "name": "02. FeodorReinforcements",
        "trigger": "turn_change",
        "level_nid": "1",
        "condition": "game.level.regions.get('ChaseRein').contains(game.get_unit('Ennis').position) or game.turncount == 10",
        "commands": [
            [
                "spawn_group",
                [
                    "EnemyBoss",
                    "south",
                    "EnemyBoss"
                ]
            ],
            [
                "move_cursor",
                [
                    "Ezra (MU)"
                ]
            ],
            [
                "disp_cursor",
                [
                    "1"
                ]
            ],
            [
                "wait",
                [
                    "1000"
                ]
            ],
            [
                "disp_cursor",
                [
                    "0"
                ]
            ],
            [
                "add_portrait",
                [
                    "Ezra (MU)",
                    "Left"
                ]
            ],
            [
                "speak",
                [
                    "MU",
                    "\u2028Cut them off.{w}\u2028Escape will not come\u2028so easily."
                ]
            ],
            [
                "remove_portrait",
                [
                    "Ezra (MU)"
                ]
            ],
            [
                "spawn_group",
                [
                    "EnemyChase",
                    "east",
                    "EnemyChase"
                ]
            ],
            [
                "move_cursor",
                [
                    "Feodor (Feodor)"
                ]
            ],
            [
                "disp_cursor",
                [
                    "1"
                ]
            ],
            [
                "wait",
                [
                    "1000"
                ]
            ],
            [
                "disp_cursor",
                [
                    "0"
                ]
            ],
            [
                "add_portrait",
                [
                    "Feodor",
                    "Left"
                ]
            ],
            [
                "speak",
                [
                    "Feodor",
                    "\u2028What a slog.{w} Connachta weren't\u2028so tough after all.{w} Let's get\u2028this over with."
                ]
            ],
            [
                "remove_portrait",
                [
                    "Feodor"
                ]
            ],
            [
                "move_cursor",
                [
                    "Cormorant (Cormorant)"
                ]
            ],
            [
                "flicker_cursor",
                [
                    "Cormorant (Cormorant)"
                ]
            ],
            [
                "add_portrait",
                [
                    "Cormorant",
                    "Right"
                ]
            ],
            [
                "speak",
                [
                    "Cormorant",
                    "\u2028Between hell and high water, huh?{w}\u2028We'd better move fast.{w}"
                ]
            ],
            [
                "flicker_cursor",
                [
                    "Ezra (MU)"
                ]
            ],
            [
                "speak",
                [
                    "Cormorant",
                    "\u2028Something's strange.{w}\u2028All of this feels familiar ...{w}\u2028Do I recognize these people?"
                ]
            ],
            [
                "change_objective_win",
                [
                    "Kill the enemy commander."
                ]
            ]
        ],
        "only_once": true,
        "priority": 20
    }
]