[
    {
        "name": "030. FightMU Ennis",
        "trigger": "combat_start",
        "level_nid": "1",
        "condition": "check_pair('MU', 'Ennis')",
        "commands": [
            [
                "add_portrait",
                [
                    "MU",
                    "Left"
                ]
            ],
            [
                "add_portrait",
                [
                    "Ennis",
                    "Right"
                ]
            ],
            [
                "speak",
                [
                    "MU",
                    "There's the little lady.{w} I expect we both know what happens now."
                ]
            ],
            [
                "expression",
                [
                    "Ennis",
                    "CloseEyes"
                ]
            ],
            [
                "speak",
                [
                    "Ennis",
                    "Before you kill me ...{w} Just please tell me.{w}\u2028Who have I angered so much that they would see me dead?"
                ]
            ],
            [
                "speak",
                [
                    "MU",
                    "...{w} Too bad.{w} I'm not in the habit of disclosing needless intel."
                ]
            ],
            [
                "expression",
                [
                    "Ennis",
                    "NormalBlink"
                ]
            ],
            [
                "speak",
                [
                    "Ennis",
                    "Even for a girl's dying wish?"
                ]
            ],
            [
                "speak",
                [
                    "MU",
                    "I won't fall for that.{w}\u2028If you escape here?{w}\u2028That's a lot of names I bet\u2028you'd be interested in."
                ]
            ],
            [
                "speak",
                [
                    "Ennis",
                    "Me?{w} Escape?{w} You should have more confidence, master assassin."
                ]
            ],
            [
                "speak",
                [
                    "MU",
                    "Should I?"
                ]
            ],
            [
                "speak",
                [
                    "Ennis",
                    "No."
                ]
            ],
            [
                "remove_portrait",
                [
                    "MU"
                ]
            ],
            [
                "remove_portrait",
                [
                    "Ennis"
                ]
            ]
        ],
        "only_once": true,
        "priority": 20
    }
]