[
    {
        "name": "ChestStorage",
        "trigger": "on_region_interact",
        "level_nid": "1",
        "condition": "region.nid == 'ChestRoom'",
        "commands": [
            [
                "show_layer",
                [
                    "ChestOpen",
                    "immediate"
                ]
            ],
            [
                "unlock",
                [
                    "{unit}"
                ]
            ],
            [
                "give_item",
                [
                    "{unit}",
                    "Parrier (Parrier)"
                ]
            ],
            [
                "has_attacked",
                [
                    "{unit}"
                ]
            ]
        ],
        "only_once": true,
        "priority": 20
    }
]