[
    {
        "name": "DoorRightOpen",
        "trigger": "on_region_interact",
        "level_nid": "1",
        "condition": "region.nid == 'DoorRight'",
        "commands": [
            [
                "show_layer",
                [
                    "RightDoorOpen",
                    "fade"
                ]
            ],
            [
                "unlock",
                [
                    "{unit}"
                ]
            ],
            [
                "has_attacked",
                [
                    "{unit}"
                ]
            ]
        ],
        "only_once": true,
        "priority": 20
    }
]