[
    {
        "name": "Armory",
        "trigger": "Armory",
        "level_nid": "2",
        "condition": "True",
        "commands": [
            [
                "change_background",
                [
                    "Armory"
                ]
            ],
            [
                "transition",
                [
                    "open"
                ]
            ],
            [
                "add_portrait",
                [
                    "Armorer",
                    "Left"
                ]
            ],
            [
                "add_portrait",
                [
                    "{unit}",
                    "Right"
                ]
            ],
            [
                "speak",
                [
                    "Armorer",
                    "\u2028Get out! Get out!\u2028No customers during a gang fight!"
                ]
            ],
            [
                "transition",
                [
                    "Close"
                ]
            ],
            [
                "change_background",
                []
            ],
            [
                "transition",
                [
                    "Open"
                ]
            ]
        ],
        "only_once": false,
        "priority": 20
    }
]