[
    {
        "name": "DeathKalash",
        "trigger": "unit_death",
        "level_nid": "2",
        "condition": "unit.nid == \"Kalash\"",
        "commands": [
            [
                "add_portrait",
                [
                    "Kalash",
                    "Left"
                ]
            ],
            [
                "speak",
                [
                    "Kalash",
                    "Urgh... Cinders and ash..."
                ]
            ],
            [
                "remove_portrait",
                [
                    "Kalash"
                ]
            ]
        ],
        "only_once": false,
        "priority": 20
    }
]