[
    {
        "name": "Vendor",
        "trigger": "Vendor",
        "level_nid": "2",
        "condition": "True",
        "commands": [
            [
                "if",
                [
                    "not game.level_vars.get('vendor_conversation', False)"
                ]
            ],
            [
                "change_background",
                [
                    "IndoorMarket"
                ]
            ],
            [
                "transition",
                [
                    "open"
                ]
            ],
            [
                "add_portrait",
                [
                    "Vendor",
                    "Left"
                ]
            ],
            [
                "add_portrait",
                [
                    "{unit}",
                    "Right"
                ]
            ],
            [
                "if",
                [
                    "unit.nid == 'Ennis'"
                ]
            ],
            [
                "speak",
                [
                    "Vendor",
                    "\u2028Oh you poor thing.\u2028Don't you look out of place?{w}\u2028Don't look so worried, dear.\u2028These sort of commotions happen.{w}\u2028The guards'll be by in a bit--\u2028unless they've been paid off. Hah!{w}\u2028Take a good look around,\u2028you might be looking at the deal of a lifetime!{w}"
                ]
            ],
            [
                "else",
                []
            ],
            [
                "speak",
                [
                    "Vendor",
                    "\u2028Don't look so worried, dear.\u2028These sort of commotions happen.{w}\u2028The guards'll be by in a bit--\u2028unless they've been paid off. Hah!{w}\u2028Take a good look around,\u2028you might be looking at the deal of a lifetime!{w}"
                ]
            ],
            [
                "end",
                []
            ],
            [
                "transition",
                [
                    "Close"
                ]
            ],
            [
                "change_background",
                []
            ],
            [
                "level_var",
                [
                    "vendor_conversation",
                    "True"
                ]
            ],
            [
                "else",
                []
            ],
            [
                "transition",
                [
                    "close"
                ]
            ],
            [
                "end",
                []
            ],
            [
                "shop",
                [
                    "{unit}",
                    "Heal,Fortune,Thunder,Shine,Wither,Vulnerary",
                    "Vendor"
                ]
            ],
            [
                "transition",
                [
                    "Open"
                ]
            ]
        ],
        "only_once": false,
        "priority": 20
    }
]