[
    {
        "name": "Village3",
        "trigger": "Visit",
        "level_nid": "2",
        "condition": "region.nid == 'Village3'",
        "commands": [
            [
                "transition",
                [
                    "Close"
                ]
            ],
            [
                "change_background",
                [
                    "Town"
                ]
            ],
            [
                "transition",
                [
                    "Open"
                ]
            ],
            [
                "add_portrait",
                [
                    "{unit}",
                    "Left"
                ]
            ],
            [
                "transition",
                [
                    "Close"
                ]
            ],
            [
                "show_layer",
                [
                    "shutter3"
                ]
            ],
            [
                "change_background",
                []
            ],
            [
                "transition",
                [
                    "Open"
                ]
            ],
            [
                "give_item",
                [
                    "{unit}",
                    "Red Gem"
                ]
            ],
            [
                "has_traded",
                [
                    "{unit}"
                ]
            ],
            [
                "remove_region",
                [
                    "DestroyVillage3"
                ]
            ]
        ],
        "only_once": false,
        "priority": 20
    }
]