[
    {
        "name": "Village1",
        "trigger": "Visit",
        "level_nid": "2",
        "condition": "region.nid == 'Village1' and unit.nid != 'Eirika'",
        "commands": [
            [
                "transition",
                [
                    "Close"
                ]
            ],
            [
                "change_background",
                [
                    "Town"
                ]
            ],
            [
                "transition",
                [
                    "Open"
                ]
            ],
            [
                "add_portrait",
                [
                    "{unit}",
                    "Left",
                    "no_block"
                ]
            ],
            [
                "transition",
                [
                    "Close"
                ]
            ],
            [
                "show_layer",
                [
                    "shutter1"
                ]
            ],
            [
                "change_background",
                []
            ],
            [
                "transition",
                [
                    "Open"
                ]
            ],
            [
                "give_item",
                [
                    "{unit}",
                    "Steel Sword"
                ]
            ],
            [
                "has_traded",
                [
                    "{unit}"
                ]
            ],
            [
                "remove_region",
                [
                    "DestroyVillage1"
                ]
            ]
        ],
        "only_once": false,
        "priority": 20
    }
]