[
    {
        "name": "02. SouthReinforcements",
        "trigger": "turn_change",
        "level_nid": "3",
        "condition": "game.turncount == 6",
        "commands": [
            [
                "spawn_group",
                [
                    "SouthReinforcments",
                    "West",
                    "SouthReinforcments"
                ]
            ],
            [
                "move_cursor",
                [
                    "124"
                ]
            ],
            [
                "disp_cursor",
                [
                    "1"
                ]
            ],
            [
                "wait",
                [
                    "1000"
                ]
            ],
            [
                "disp_cursor",
                [
                    "0"
                ]
            ],
            [
                "add_portrait",
                [
                    "SoldierRed",
                    "Left"
                ]
            ],
            [
                "speak",
                [
                    "SoldierRed",
                    "Tch, those sellswords are too slow.|I'd give them 9 minutes until they arrive."
                ]
            ],
            [
                "speak",
                [
                    "SoldierRed",
                    "Men! Charge after the targets!|Let's not let those sellswords hog all the credit."
                ]
            ],
            [
                "remove_portrait",
                [
                    "SoldierRed"
                ]
            ],
            [
                "wait",
                [
                    "500"
                ]
            ]
        ],
        "only_once": true,
        "priority": 20
    }
]