[
    {
        "name": "04.FightBiran",
        "trigger": "combat_start",
        "level_nid": "3",
        "condition": "check_default(\"Biran\")",
        "commands": [
            [
                "add_portrait",
                [
                    "Biran",
                    "Right"
                ]
            ],
            [
                "speak",
                [
                    "Biran",
                    "\u2028Do you really think you can run forever?{w}\u2028Come, try your luck!|You cannot break\u2028past me!"
                ]
            ],
            [
                "remove_portrait",
                [
                    "Biran"
                ]
            ]
        ],
        "only_once": true,
        "priority": 20
    }
]