[
    {
        "name": "Village1",
        "trigger": "Visit",
        "level_nid": "3",
        "condition": "region.nid == 'Village1'",
        "commands": [
            [
                "transition",
                [
                    "Close"
                ]
            ],
            [
                "change_background",
                [
                    "Town"
                ]
            ],
            [
                "transition",
                [
                    "Open"
                ]
            ],
            [
                "add_portrait",
                [
                    "{unit}",
                    "Left",
                    "no_block"
                ]
            ],
            [
                "transition",
                [
                    "Close"
                ]
            ],
            [
                "show_layer",
                [
                    "VillageVisited"
                ]
            ],
            [
                "change_background",
                []
            ],
            [
                "transition",
                [
                    "Open"
                ]
            ],
            [
                "give_item",
                [
                    "{unit}",
                    "Mana Potion (Mana Potion)"
                ]
            ],
            [
                "has_traded",
                [
                    "{unit}"
                ]
            ]
        ],
        "only_once": true,
        "priority": 20
    }
]