[
    {
        "name": "00.Intro",
        "trigger": "level_start",
        "level_nid": "4",
        "condition": "True",
        "commands": [
            [
                "speak_style",
                [
                    "Ennis",
                    "",
                    "",
                    "",
                    "5.5",
                    "",
                    "",
                    "clear"
                ]
            ],
            [
                "change_background",
                [
                    "BlackBackground"
                ]
            ],
            [
                "music",
                [
                    "Rainy Save Room"
                ]
            ],
            [
                "wait",
                [
                    "2000"
                ]
            ],
            [
                "speak",
                [
                    "",
                    "What.. .what is this place?",
                    "",
                    "",
                    "Ennis",
                    "FLAG(hold)"
                ]
            ],
            [
                "wait",
                [
                    "500"
                ]
            ],
            [
                "unhold",
                [
                    "Ennis"
                ]
            ],
            [
                "change_background",
                [
                    "WhiteBackground"
                ]
            ],
            [
                "wait",
                [
                    "200"
                ]
            ],
            [
                "change_background",
                [
                    "BlackBackground"
                ]
            ],
            [
                "wait",
                [
                    "300"
                ]
            ],
            [
                "sound",
                [
                    "lightning strike"
                ]
            ],
            [
                "speak",
                [
                    "",
                    "Is this... rain? Why is it... so dark?",
                    "",
                    "",
                    "Ennis",
                    "FLAG(hold)"
                ]
            ],
            [
                "wait",
                [
                    "500"
                ]
            ],
            [
                "unhold",
                [
                    "Ennis"
                ]
            ],
            [
                "speak",
                [
                    "",
                    "Why am I here?! What's going on?!",
                    "",
                    "",
                    "Ennis",
                    "FLAG(hold)"
                ]
            ],
            [
                "wait",
                [
                    "500"
                ]
            ],
            [
                "unhold",
                [
                    "Ennis"
                ]
            ],
            [
                "change_background",
                [
                    "haunted_house"
                ]
            ],
            [
                "wait",
                [
                    "200"
                ]
            ],
            [
                "change_background",
                [
                    "BlackBackground"
                ]
            ],
            [
                "wait",
                [
                    "300"
                ]
            ],
            [
                "sound",
                [
                    "lightning strike"
                ]
            ],
            [
                "wait",
                [
                    "500"
                ]
            ],
            [
                "speak",
                [
                    "",
                    "Ennis!{w} Ennis!",
                    "",
                    "",
                    "Fiachra"
                ]
            ],
            [
                "wait",
                [
                    "500"
                ]
            ],
            [
                "speak",
                [
                    "",
                    "Huh, who's there?!",
                    "",
                    "",
                    "Ennis",
                    "FLAG(hold)"
                ]
            ],
            [
                "wait",
                [
                    "500"
                ]
            ],
            [
                "unhold",
                [
                    "Ennis"
                ]
            ],
            [
                "music_clear",
                []
            ],
            [
                "change_background",
                [
                    "Plains"
                ]
            ],
            [
                "add_portrait",
                [
                    "Ennis",
                    "Left",
                    "",
                    "CloseEyes"
                ]
            ],
            [
                "add_portrait",
                [
                    "Fiachra",
                    "CenterLeft",
                    "FLAG(mirror)"
                ]
            ],
            [
                "bop_portrait",
                [
                    "Fiachra"
                ]
            ],
            [
                "speak",
                [
                    "Fiachra",
                    "Ennis! Wake Up! We're here!"
                ]
            ],
            [
                "expression",
                [
                    "Ennis",
                    "OpenEyes"
                ]
            ],
            [
                "move_portrait",
                [
                    "Fiachra",
                    "CenterRight"
                ]
            ],
            [
                "speak",
                [
                    "Ennis",
                    "Huh? Oh... Oh I'm sorry. I must have dozed off."
                ]
            ],
            [
                "speak",
                [
                    "Fiachra",
                    "You have nothing to apologize for, Miss Ennis.|Given how long it look me to wake you, you must have needed the rest."
                ]
            ],
            [
                "speak",
                [
                    "Ennis",
                    "You said we were here? Does that mean..."
                ]
            ],
            [
                "speak",
                [
                    "Fiachra",
                    "The Port of Belrann is five minutes away, we will be in town soon.|Come with me, Cormorant should be done scouting."
                ]
            ],
            [
                "remove_portrait",
                [
                    "Fiachra"
                ]
            ],
            [
                "speak",
                [
                    "Ennis",
                    "What that... a dream?",
                    "",
                    "",
                    "thought_bubble"
                ]
            ],
            [
                "remove_portrait",
                [
                    "Ennis"
                ]
            ],
            [
                "wait",
                [
                    "600"
                ]
            ],
            [
                "change_background",
                [
                    "TownSunset"
                ]
            ],
            [
                "music",
                [
                    "ForebodingMidnasTheme"
                ]
            ],
            [
                "multi_add_portrait",
                [
                    "Ennis",
                    "FarLeft",
                    "Fiachra",
                    "MidLeft",
                    "Cormorant",
                    "MidRight",
                    "Thrant",
                    "FarRight"
                ]
            ],
            [
                "speak",
                [
                    "Cormorant",
                    "I've got bad news, they're searching everyone who comes into town."
                ]
            ],
            [
                "speak",
                [
                    "Thrant",
                    "My employer is not at the emergency rendezvous location.|Looks like someone found out the buyer is here."
                ]
            ],
            [
                "speak",
                [
                    "Ennis",
                    "They got here before us? That's not possible!"
                ]
            ],
            [
                "speak",
                [
                    "Fiachra",
                    "Perhaps they predicted our movements?"
                ]
            ],
            [
                "speak",
                [
                    "Ennis",
                    "No one should know a buyer exists, let alone where they are.|Have you betrayed me, Cormornat?"
                ]
            ],
            [
                "speak",
                [
                    "Cormorant",
                    "If had betrayed you, you wouldn't be alive right now."
                ]
            ],
            [
                "speak",
                [
                    "Ennis",
                    "I suppose..."
                ]
            ],
            [
                "speak",
                [
                    "Fiachra",
                    "There is the possibility the men who attacked us are on our trail.|We should spend our time deciding what to do next."
                ]
            ],
            [
                "speak",
                [
                    "Ennis",
                    "There's no discussion to be had. We are going to save the buyer."
                ]
            ],
            [
                "speak",
                [
                    "Thrant",
                    "Are you insane? You would fight against the port guards?!|We would be criminals!"
                ]
            ],
            [
                "speak",
                [
                    "Cormorant",
                    "The men I saw didn't look like militia or guard.|They don't seem affiliated with the port, well, not officially affiliated."
                ]
            ],
            [
                "speak",
                [
                    "Fiachra",
                    "Then we will interrogate them after the battle is won.|If there is a traitor, we will find out then."
                ]
            ],
            [
                "speak",
                [
                    "Ennis",
                    "Cormornat, prepare your men for a fight.|We will deliver this package, no matter what."
                ]
            ],
            [
                "multi_remove_portrait",
                [
                    "Ennis",
                    "Fiachra",
                    "Thrant",
                    "Cormorant"
                ]
            ],
            [
                "center_cursor",
                [
                    "Prince Zackary (Zackary)"
                ]
            ],
            [
                "change_background",
                []
            ],
            [
                "wait",
                [
                    "200"
                ]
            ],
            [
                "music_clear",
                []
            ],
            [
                "music",
                [
                    "OMORI OST - 082 Wandering Rose"
                ]
            ],
            [
                "flicker_cursor",
                [
                    "Prince Zackary (Zackary)"
                ]
            ],
            [
                "wait",
                [
                    "500"
                ]
            ],
            [
                "multi_add_portrait",
                [
                    "Prince Zackary (Zackary)",
                    "CenterRight",
                    "Pitta (Pitta)",
                    "FarRight",
                    "Moore (Moore)",
                    "Left"
                ]
            ],
            [
                "speak",
                [
                    "Zackary",
                    "You still haven't found it!? Are you stupid!?"
                ]
            ],
            [
                "speak",
                [
                    "Moore",
                    "With all due respect,|you haven't even told us what we're looking for."
                ]
            ],
            [
                "speak",
                [
                    "Zackary",
                    "It's something super valuable! Most valuable thing you've ever seen!"
                ]
            ],
            [
                "speak",
                [
                    "Moore",
                    "We found a fancy silver lion statue, that looked pretty valuable."
                ]
            ],
            [
                "speak",
                [
                    "Zackary",
                    "Did you have to kill someone to get it?"
                ]
            ],
            [
                "speak",
                [
                    "Moore",
                    "Well, no, they gave it up when threaten..."
                ]
            ],
            [
                "speak",
                [
                    "Zackary",
                    "Then it's not valuable enough!|My brother burned down an entire estate to get this item!|I'm talking risk your life valuable!{w} Kill your family valuable!{w} Drop kick your dog valuable!"
                ]
            ],
            [
                "speak",
                [
                    "Moore",
                    "I don't think there's anything in this world that would make me hurt Scampers."
                ]
            ],
            [
                "speak",
                [
                    "Zackary",
                    "Good, since you're going to be giving the item to me.|You want your son to get a pardon after all, don't you?"
                ]
            ],
            [
                "speak",
                [
                    "Moore",
                    "Of course I do but... are you sure it will be here, my Lord?"
                ]
            ],
            [
                "speak",
                [
                    "Zackary",
                    "Of course it will be here.|If my brother had it, he would have sent his messenger to Father.|And since his messenger hasn't moved, his goons must have betrayed him and taken it.|Best place for a runaway mercenary is here.{w} Isn't that right, Pitta?"
                ]
            ],
            [
                "speak",
                [
                    "Pitta",
                    "I suppose this is where I would hide.|Low royal presence, job offers for scoundrels, easy transport out the country..."
                ]
            ],
            [
                "speak",
                [
                    "Moore",
                    "Are...are you saying the King is behind the attack on the Connachta Estate?"
                ]
            ],
            [
                "speak",
                [
                    "Zackary",
                    "Yeah?{w} My brother doesn't listen to anyone but himself.|Won't even talk to anyone who doesn't have a fancy title.|The fool thinks he can become King with only one ear!"
                ]
            ],
            [
                "speak",
                [
                    "Pitta",
                    "Prince Zackary, if you wish to insult your brother, I would recommend doing it in private.|Anyway, we should be going.|Your tutor would be upset if you missed another lesson."
                ]
            ],
            [
                "speak",
                [
                    "Zackary",
                    "Ugh,|I didn't hire you to be my mother.{w} Do I have to go?"
                ]
            ],
            [
                "speak",
                [
                    "Pitta",
                    "If your father becomes suspicious of you, things will end poorly.|He may even find out how you've been spending your money."
                ]
            ],
            [
                "speak",
                [
                    "Zackary",
                    "Fine, I'll go.{w} I'll be back, pirate!{w} Make sure you have my item by tonight!"
                ]
            ],
            [
                "speak",
                [
                    "Moore",
                    "Of... of course, my Lord."
                ]
            ],
            [
                "multi_remove_portrait",
                [
                    "Prince Zackary (Zackary)",
                    "Moore (Moore)",
                    "Pitta (Pitta)"
                ]
            ],
            [
                "music_clear",
                []
            ],
            [
                "remove_unit",
                [
                    "Prince Zackary (Zackary)"
                ]
            ],
            [
                "move_unit",
                [
                    "Pitta",
                    "16,0"
                ]
            ],
            [
                "wait",
                [
                    "100"
                ]
            ],
            [
                "remove_unit",
                [
                    "Pitta"
                ]
            ],
            [
                "flicker_cursor",
                [
                    "Moore (Moore)"
                ]
            ],
            [
                "music",
                [
                    "Rage Fixed"
                ]
            ],
            [
                "add_portrait",
                [
                    "Moore (Moore)",
                    "Left"
                ]
            ],
            [
                "speak",
                [
                    "Moore",
                    "Alright boys, just pretend this is one big ship.|Take whatever you can, but if someone resists, bring them to me!|Make sure no one leaves this town!"
                ]
            ],
            [
                "remove_portrait",
                [
                    "Moore (Moore)"
                ]
            ],
            [
                "center_cursor",
                [
                    "Ennis (Ennis)"
                ]
            ],
            [
                "flicker_cursor",
                [
                    "Ennis (Ennis)"
                ]
            ],
            [
                "add_portrait",
                [
                    "Ennis",
                    "Right"
                ]
            ],
            [
                "speak",
                [
                    "Ennis",
                    "Thrant, do you see the buyer anywhere?"
                ]
            ],
            [
                "remove_portrait",
                [
                    "Ennis"
                ]
            ],
            [
                "flicker_cursor",
                [
                    "Thrant (Thrant)"
                ]
            ],
            [
                "add_portrait",
                [
                    "Thrant",
                    "Right"
                ]
            ],
            [
                "speak",
                [
                    "Thrant",
                    "I see him across the river."
                ]
            ],
            [
                "remove_portrait",
                [
                    "Thrant"
                ]
            ],
            [
                "center_cursor",
                [
                    "Buyer"
                ]
            ],
            [
                "flicker_cursor",
                [
                    "Buyer"
                ]
            ],
            [
                "center_cursor",
                [
                    "Ennis"
                ]
            ],
            [
                "add_portrait",
                [
                    "Ennis",
                    "Right"
                ]
            ],
            [
                "speak",
                [
                    "Ennis",
                    "If I can just talk to him, I can hand him the package.|Mother, I will not fail. Not matter what."
                ]
            ],
            [
                "add_talk",
                [
                    "Ennis (Ennis)",
                    "Buyer (Buyer)"
                ]
            ],
            [
                "level_var",
                [
                    "BuyerTalk",
                    "False"
                ]
            ]
        ],
        "only_once": false,
        "priority": 20
    }
]