[
    {
        "name": "03.Buyer Talk",
        "trigger": "on_talk",
        "level_nid": "4",
        "condition": "unit.nid == 'Ennis' and unit2.nid == 'Buyer'",
        "commands": [
            [
                "if",
                [
                    "not game.level_vars.get('BuyerTalk', False)"
                ]
            ],
            [
                "resurrect",
                [
                    "Moore"
                ]
            ],
            [
                "multi_add_portrait",
                [
                    "Ennis",
                    "Left",
                    "Buyer",
                    "Right"
                ]
            ],
            [
                "speak",
                [
                    "Ennis",
                    "I am Lady Ennis from House Connachta.|I have what you re-"
                ]
            ],
            [
                "music_clear",
                []
            ],
            [
                "multi_remove_portrait",
                [
                    "Ennis",
                    "Buyer"
                ]
            ],
            [
                "change_background",
                [
                    "BlackBackground"
                ]
            ],
            [
                "wait",
                [
                    "500"
                ]
            ],
            [
                "speak_style",
                [
                    "P",
                    "",
                    "center",
                    "",
                    "5.5",
                    "",
                    "",
                    "clear",
                    "FLAG(fit)"
                ]
            ],
            [
                "speak",
                [
                    "",
                    "Young Lady, what is your wish?",
                    "",
                    "",
                    "P"
                ]
            ],
            [
                "speak",
                [
                    "",
                    "What is it that you desire?",
                    "",
                    "",
                    "P"
                ]
            ],
            [
                "remove_all_units",
                []
            ],
            [
                "add_group",
                [
                    "Player Army"
                ]
            ],
            [
                "add_group",
                [
                    "Starting Enemies 2"
                ]
            ],
            [
                "move_cursor",
                [
                    "Ennis"
                ]
            ],
            [
                "change_background",
                []
            ],
            [
                "center_cursor",
                [
                    "Moore"
                ]
            ],
            [
                "flicker_cursor",
                [
                    "Moore"
                ]
            ],
            [
                "add_portrait",
                [
                    "Moore (Moore)",
                    "Left"
                ]
            ],
            [
                "speak",
                [
                    "Moore",
                    "Alright boys, just pretend this is one big ship.|Take whatever you can, but if someone resists, bring them to me!|Make sure no one leaves this town!"
                ]
            ],
            [
                "remove_portrait",
                [
                    "Moore (Moore)"
                ]
            ],
            [
                "center_cursor",
                [
                    "Ennis (Ennis)"
                ]
            ],
            [
                "flicker_cursor",
                [
                    "Ennis (Ennis)"
                ]
            ],
            [
                "add_portrait",
                [
                    "Ennis",
                    "Right"
                ]
            ],
            [
                "speak",
                [
                    "Ennis",
                    "What... what just happened?"
                ]
            ],
            [
                "remove_portrait",
                [
                    "Ennis"
                ]
            ],
            [
                "flicker_cursor",
                [
                    "Fiachra (Fiachra)"
                ]
            ],
            [
                "add_portrait",
                [
                    "Fiachra",
                    "Right"
                ]
            ],
            [
                "speak",
                [
                    "Fiachra",
                    "Ennis? Are you alright?"
                ]
            ],
            [
                "remove_portrait",
                [
                    "Fiachra"
                ]
            ],
            [
                "flicker_cursor",
                [
                    "Ennis (Ennis)"
                ]
            ],
            [
                "add_portrait",
                [
                    "Ennis",
                    "Right"
                ]
            ],
            [
                "speak",
                [
                    "Ennis",
                    "Ummm, yeah... yeah I'm good. Go on ahead of me.|I just... need a moment."
                ]
            ],
            [
                "remove_portrait",
                [
                    "Ennis"
                ]
            ],
            [
                "change_music",
                [
                    "player_phase",
                    "Pathologic Soundtrack - Disease"
                ]
            ],
            [
                "change_music",
                [
                    "enemy_phase",
                    "Pathologic Soundtrack - Disease"
                ]
            ],
            [
                "change_music",
                [
                    "player_battle",
                    "Pathologic Soundtrack - Disease"
                ]
            ],
            [
                "change_objective_simple",
                [
                    "Talk to the Buyer?"
                ]
            ],
            [
                "game_var",
                [
                    "TimeLoop",
                    "1"
                ]
            ],
            [
                "change_ai",
                [
                    "Buyer",
                    "Go to Ennis"
                ]
            ],
            [
                "add_talk",
                [
                    "Ennis (Ennis)",
                    "Buyer"
                ]
            ],
            [
                "set_current_hp",
                [
                    "Ennis (Ennis)",
                    "100",
                    "FLAG(no_warn)"
                ]
            ],
            [
                "set_current_hp",
                [
                    "Fiachra (Fiachra)",
                    "100",
                    "FLAG(no_warn)"
                ]
            ],
            [
                "set_current_hp",
                [
                    "Cormorant (Cormorant)",
                    "100",
                    "FLAG(no_warn)"
                ]
            ],
            [
                "set_current_hp",
                [
                    "Kingfisher (Kingfisher)",
                    "100",
                    "FLAG(no_warn)"
                ]
            ],
            [
                "set_current_hp",
                [
                    "Yarrow (Yarrow)",
                    "100",
                    "FLAG(no_warn)"
                ]
            ],
            [
                "set_current_hp",
                [
                    "Thrant (Thrant)",
                    "100",
                    "FLAG(no_warn)"
                ]
            ],
            [
                "set_current_hp",
                [
                    "Sionn (Sionn)",
                    "100",
                    "FLAG(no_warn)"
                ]
            ],
            [
                "set_current_hp",
                [
                    "Cistia (Cistia)",
                    "100",
                    "FLAG(no_warn)"
                ]
            ],
            [
                "change_ai",
                [
                    "Buyer",
                    "Guard"
                ]
            ],
            [
                "reset",
                [
                    "Fiachra (Fiachra)"
                ]
            ],
            [
                "reset",
                [
                    "Cormorant (Cormorant)"
                ]
            ],
            [
                "reset",
                [
                    "Kingfisher (Kingfisher)"
                ]
            ],
            [
                "reset",
                [
                    "Yarrow (Yarrow)"
                ]
            ],
            [
                "reset",
                [
                    "Cistia (Cistia)"
                ]
            ],
            [
                "reset",
                [
                    "Thrant (Thrant)"
                ]
            ],
            [
                "reset",
                [
                    "Sionn (Sionn)"
                ]
            ],
            [
                "else",
                []
            ],
            [
                "set_current_hp",
                [
                    "Ennis (Ennis)",
                    "100",
                    "FLAG(no_warn)"
                ]
            ],
            [
                "set_current_hp",
                [
                    "Fiachra (Fiachra)",
                    "100",
                    "FLAG(no_warn)"
                ]
            ],
            [
                "set_current_hp",
                [
                    "Cormorant (Cormorant)",
                    "100",
                    "FLAG(no_warn)"
                ]
            ],
            [
                "set_current_hp",
                [
                    "Kingfisher (Kingfisher)",
                    "100",
                    "FLAG(no_warn)"
                ]
            ],
            [
                "set_current_hp",
                [
                    "Yarrow (Yarrow)",
                    "100",
                    "FLAG(no_warn)"
                ]
            ],
            [
                "set_current_hp",
                [
                    "Thrant (Thrant)",
                    "100",
                    "FLAG(no_warn)"
                ]
            ],
            [
                "set_current_hp",
                [
                    "Sionn (Sionn)",
                    "100",
                    "FLAG(no_warn)"
                ]
            ],
            [
                "set_current_hp",
                [
                    "Cistia (Cistia)",
                    "100",
                    "FLAG(no_warn)"
                ]
            ],
            [
                "multi_add_portrait",
                [
                    "Ennis",
                    "Left",
                    "Buyer",
                    "Right"
                ]
            ],
            [
                "speak",
                [
                    "Ennis",
                    "I am Lady Ennis from House Connacht-"
                ]
            ],
            [
                "remove_portrait",
                [
                    "Ennis"
                ]
            ],
            [
                "remove_portrait",
                [
                    "Buyer"
                ]
            ],
            [
                "music_clear",
                []
            ],
            [
                "change_background",
                [
                    "BlackBackground"
                ]
            ],
            [
                "remove_all_units",
                []
            ],
            [
                "change_background",
                []
            ],
            [
                "change_tilemap",
                [
                    "Ch. 3"
                ]
            ],
            [
                "center_cursor",
                [
                    "Ennis (Ennis)"
                ]
            ],
            [
                "add_unit",
                [
                    "Ennis",
                    "2,21"
                ]
            ],
            [
                "add_unit",
                [
                    "Fiachra (Fiachra)",
                    "3,20"
                ]
            ],
            [
                "add_unit",
                [
                    "Thrant (Thrant)",
                    "2,20"
                ]
            ],
            [
                "add_unit",
                [
                    "Yarrow (Yarrow)",
                    "1,20"
                ]
            ],
            [
                "add_unit",
                [
                    "Kingfisher (Kingfisher)",
                    "3,21"
                ]
            ],
            [
                "add_unit",
                [
                    "Cormorant (Cormorant)",
                    "2,19"
                ]
            ],
            [
                "make_generic",
                [
                    "TimeMerc3",
                    "Mercenary (Mercenary)",
                    "1",
                    "enemy",
                    "None",
                    "Soldier (Soldier)"
                ]
            ],
            [
                "make_generic",
                [
                    "TimeArmor3",
                    "Knight (Knight)",
                    "1",
                    "enemy",
                    "None",
                    "Soldier (Soldier)"
                ]
            ],
            [
                "make_generic",
                [
                    "TimeMage3",
                    "Mage (Mage)",
                    "1",
                    "enemy",
                    "None",
                    "Soldier (Soldier)"
                ]
            ],
            [
                "make_generic",
                [
                    "TimeAxe3",
                    "Fighter (Fighter)",
                    "1",
                    "enemy",
                    "None",
                    "Soldier (Soldier)"
                ]
            ],
            [
                "make_generic",
                [
                    "TimeArcher3",
                    "Archer (Archer)",
                    "1",
                    "enemy",
                    "None",
                    "Soldier (Soldier)"
                ]
            ],
            [
                "make_generic",
                [
                    "TimeShaman3",
                    "Shaman (Shaman)",
                    "1",
                    "enemy",
                    "None",
                    "Soldier (Soldier)"
                ]
            ],
            [
                "make_generic",
                [
                    "TimeSoilder3",
                    "Shaman (Shaman)",
                    "1",
                    "enemy",
                    "None",
                    "Soldier (Soldier)"
                ]
            ],
            [
                "add_unit",
                [
                    "TimeArcher3",
                    "3,14"
                ]
            ],
            [
                "add_unit",
                [
                    "TimeMerc3",
                    "6,20"
                ]
            ],
            [
                "add_unit",
                [
                    "TimeArmor3",
                    "5,19"
                ]
            ],
            [
                "add_unit",
                [
                    "TimeMage3",
                    "7,19"
                ]
            ],
            [
                "add_unit",
                [
                    "TimeAxe3",
                    "6,18"
                ]
            ],
            [
                "add_unit",
                [
                    "TimeShaman3",
                    "11,17"
                ]
            ],
            [
                "add_unit",
                [
                    "TimeSoilder3",
                    "9,14"
                ]
            ],
            [
                "music",
                [
                    "1-09-Dusk-Falls"
                ]
            ],
            [
                "flicker_cursor",
                [
                    "Ennis (Ennis)"
                ]
            ],
            [
                "center_cursor",
                [
                    "Fiachra (Fiachra)"
                ]
            ],
            [
                "add_portrait",
                [
                    "Fiachra",
                    "Left"
                ]
            ],
            [
                "add_portrait",
                [
                    "Cormorant",
                    "Right"
                ]
            ],
            [
                "speak",
                [
                    "Fiachra",
                    "..."
                ]
            ],
            [
                "speak",
                [
                    "Cormorant",
                    "Something wrong?"
                ]
            ],
            [
                "speak",
                [
                    "Fiachra",
                    "No. I've fought here before.|See those caves?"
                ]
            ],
            [
                "speak",
                [
                    "Fiachra",
                    "Mining system.|We should be able to move between the mountain."
                ]
            ],
            [
                "speak",
                [
                    "Cormorant",
                    "That's valuable intel."
                ]
            ],
            [
                "wait",
                [
                    "200"
                ]
            ],
            [
                "speak",
                [
                    "Cormorant",
                    "But that's not what you were thinking about."
                ]
            ],
            [
                "add_portrait",
                [
                    "Ennis",
                    "FarLeft"
                ]
            ],
            [
                "speak",
                [
                    "Ennis",
                    "Not again! What the hell is happening?"
                ]
            ],
            [
                "speak",
                [
                    "Fiachra",
                    "Miss Ennis? Is something the matter?"
                ]
            ],
            [
                "speak",
                [
                    "Ennis",
                    "Does no one notice?! Does no on-"
                ]
            ],
            [
                "remove_all_units",
                []
            ],
            [
                "music_clear",
                []
            ],
            [
                "change_background",
                [
                    "BlackBackground"
                ]
            ],
            [
                "change_tilemap",
                [
                    "Market Town"
                ]
            ],
            [
                "add_unit",
                [
                    "Ennis",
                    "5,11"
                ]
            ],
            [
                "add_unit",
                [
                    "Cormorant (Cormorant)",
                    "12,7"
                ]
            ],
            [
                "add_unit",
                [
                    "Fiachra (Fiachra)",
                    "7,12"
                ]
            ],
            [
                "add_unit",
                [
                    "Kingfisher (Kingfisher)",
                    "11,7"
                ]
            ],
            [
                "add_unit",
                [
                    "Yarrow (Yarrow)",
                    "4,12"
                ]
            ],
            [
                "add_unit",
                [
                    "Thrant (Thrant)",
                    "13,7"
                ]
            ],
            [
                "make_generic",
                [
                    "TimeBandit2",
                    "Brigand (Brigand)",
                    "1",
                    "enemy",
                    "None",
                    "Soldier (Soldier)"
                ]
            ],
            [
                "make_generic",
                [
                    "TimeMage2a",
                    "Mage (Mage)",
                    "1",
                    "enemy",
                    "None",
                    "Soldier (Soldier)"
                ]
            ],
            [
                "make_generic",
                [
                    "TimeMage2b",
                    "Mage (Mage)",
                    "1",
                    "enemy",
                    "None",
                    "Soldier (Soldier)"
                ]
            ],
            [
                "make_generic",
                [
                    "TimeArmor2",
                    "Knight (Knight)",
                    "1",
                    "enemy",
                    "None",
                    "Soldier (Soldier)"
                ]
            ],
            [
                "make_generic",
                [
                    "TimeSoilder2a",
                    "Soldier (Soldier)",
                    "1",
                    "enemy",
                    "None",
                    "Soldier (Soldier)"
                ]
            ],
            [
                "make_generic",
                [
                    "TimeSoilder2b",
                    "Soldier (Soldier)",
                    "1",
                    "enemy",
                    "None",
                    "Soldier (Soldier)"
                ]
            ],
            [
                "make_generic",
                [
                    "TimeFighter2a",
                    "Fighter (Fighter)",
                    "1",
                    "enemy",
                    "None",
                    "Soldier (Soldier)"
                ]
            ],
            [
                "make_generic",
                [
                    "TimeFighter2b",
                    "Fighter (Fighter)",
                    "1",
                    "enemy",
                    "None",
                    "Soldier (Soldier)"
                ]
            ],
            [
                "add_unit",
                [
                    "TimeMage2a",
                    "2,12"
                ]
            ],
            [
                "add_unit",
                [
                    "TimeBandit2",
                    "1,13"
                ]
            ],
            [
                "add_unit",
                [
                    "TimeArmor2",
                    "6,8"
                ]
            ],
            [
                "add_unit",
                [
                    "TimeSoilder2a",
                    "11,11"
                ]
            ],
            [
                "add_unit",
                [
                    "TimeSoilder2b",
                    "12,11"
                ]
            ],
            [
                "add_unit",
                [
                    "TimeMage2b",
                    "13,9"
                ]
            ],
            [
                "add_unit",
                [
                    "TimeFighter2a",
                    "1,7"
                ]
            ],
            [
                "add_unit",
                [
                    "TimeFighter2b",
                    "2,6"
                ]
            ],
            [
                "change_background",
                []
            ],
            [
                "flicker_cursor",
                [
                    "Ennis (Ennis)"
                ]
            ],
            [
                "wait",
                [
                    "500"
                ]
            ],
            [
                "music",
                [
                    "Flight over Venice"
                ]
            ],
            [
                "add_portrait",
                [
                    "Ennis",
                    "Left"
                ]
            ],
            [
                "speak",
                [
                    "Ennis",
                    "Wha...why...why is this happening?!"
                ]
            ],
            [
                "add_portrait",
                [
                    "Yarrow",
                    "OffscreenRight"
                ]
            ],
            [
                "move_portrait",
                [
                    "Yarrow",
                    "Right"
                ]
            ],
            [
                "speak",
                [
                    "Yarrow",
                    "Miss Ennis, you need to calm down!|You won't be able to control your blessing if yo-"
                ]
            ],
            [
                "music_clear",
                []
            ],
            [
                "remove_all_units",
                []
            ],
            [
                "change_background",
                [
                    "BlackBackground"
                ]
            ],
            [
                "speak_style",
                [
                    "P",
                    "",
                    "center",
                    "",
                    "5.5",
                    "",
                    "",
                    "clear",
                    "FLAG(fit)"
                ]
            ],
            [
                "speak",
                [
                    "",
                    "Very well. So you shall be Blessed.",
                    "",
                    "",
                    "P"
                ]
            ],
            [
                "speak",
                [
                    "",
                    "Close your eyes. Take a deep breath.",
                    "",
                    "",
                    "P"
                ]
            ],
            [
                "speak",
                [
                    "",
                    "It will be over soon.",
                    "",
                    "",
                    "P"
                ]
            ],
            [
                "change_tilemap",
                [
                    "Time Travel Ch. 1",
                    "FLAG(no_warn)"
                ]
            ],
            [
                "add_unit",
                [
                    "Ennis (Ennis)",
                    "8,5"
                ]
            ],
            [
                "change_background",
                []
            ],
            [
                "flicker_cursor",
                [
                    "Ennis"
                ]
            ],
            [
                "wait",
                [
                    "2000"
                ]
            ],
            [
                "add_portrait",
                [
                    "Ennis",
                    "Left"
                ]
            ],
            [
                "speak",
                [
                    "Ennis",
                    "What..."
                ]
            ],
            [
                "expression",
                [
                    "Ennis",
                    "CloseEyes"
                ]
            ],
            [
                "music",
                [
                    "The Dark Forest - Professor Layton vs. Phoenix Wright - Ace Attorney"
                ]
            ],
            [
                "change_music",
                [
                    "player_phase",
                    "The Dark Forest - Professor Layton vs. Phoenix Wright - Ace Attorney"
                ]
            ],
            [
                "change_music",
                [
                    "other_phase",
                    "The Dark Forest - Professor Layton vs. Phoenix Wright - Ace Attorney"
                ]
            ],
            [
                "speak",
                [
                    "Ennis",
                    "No... you're back home.|Everything is okay.|There is nothing to worry about anymore."
                ]
            ],
            [
                "expression",
                [
                    "Ennis",
                    "OpenEyes"
                ]
            ],
            [
                "speak",
                [
                    "Ennis",
                    "I... I can just go ask Mom for help.|She should have some time before she leaves again.|Yes... I'll go see Mother again.|I should say goodbye before she leaves..."
                ]
            ],
            [
                "change_objective_simple",
                [
                    "Talk to Lady Connachta"
                ]
            ],
            [
                "comment",
                [
                    "#add_region;Battle Save;8,10;1,1;event;Battle_Save;FLAG(only_once)"
                ]
            ],
            [
                "choice",
                [
                    "battle_save",
                    "Would you like to save?",
                    "Yes,No"
                ]
            ],
            [
                "if",
                [
                    "game.game_vars['battle_save'] == 'Yes'"
                ]
            ],
            [
                "comment",
                [
                    "#remove_map_anim;OverchargeAura;8,10"
                ]
            ],
            [
                "battle_save",
                []
            ],
            [
                "end",
                []
            ],
            [
                "comment",
                [
                    "#map_anim;OverchargeAura;8,10;FLAG(permanent)"
                ]
            ],
            [
                "add_unit",
                [
                    "Abeni",
                    "8,21"
                ]
            ],
            [
                "add_talk",
                [
                    "Ennis (Ennis)",
                    "Abeni (Abeni)"
                ]
            ],
            [
                "add_region",
                [
                    "LionStatue1",
                    "3,6",
                    "1,1",
                    "event",
                    "Visit"
                ]
            ],
            [
                "add_region",
                [
                    "LionStatue2",
                    "5,6",
                    "1,1",
                    "event",
                    "Visit"
                ]
            ],
            [
                "add_region",
                [
                    "LionStatue3",
                    "10,6",
                    "1,1",
                    "event",
                    "Visit"
                ]
            ],
            [
                "add_region",
                [
                    "LionStatue4",
                    "12,6",
                    "1,1",
                    "event",
                    "Visit"
                ]
            ],
            [
                "add_region",
                [
                    "TopBookShelf",
                    "8,5",
                    "1,1",
                    "event",
                    "Visit"
                ]
            ],
            [
                "add_region",
                [
                    "LeftTopBookShelf",
                    "4,10",
                    "1,1",
                    "event",
                    "Visit"
                ]
            ],
            [
                "add_region",
                [
                    "RightTopBookShelf",
                    "12,10",
                    "1,1",
                    "event",
                    "Visit"
                ]
            ],
            [
                "add_region",
                [
                    "MiddleLeftBookShelf",
                    "4,14",
                    "1,1",
                    "event",
                    "Visit"
                ]
            ],
            [
                "add_region",
                [
                    "MiddleRightBookShelf",
                    "12,14",
                    "1,1",
                    "event",
                    "Visit"
                ]
            ],
            [
                "add_region",
                [
                    "LowLeftBookShelf",
                    "4,17",
                    "1,1",
                    "event",
                    "Visit"
                ]
            ],
            [
                "add_region",
                [
                    "LowRightBookShelf",
                    "12,17",
                    "1,1",
                    "event",
                    "Visit"
                ]
            ],
            [
                "add_region",
                [
                    "Stairs",
                    "2,6",
                    "1,1",
                    "event",
                    "Visit"
                ]
            ],
            [
                "add_region",
                [
                    "Stairs2",
                    "14,6",
                    "1,1",
                    "event",
                    "Visit"
                ]
            ],
            [
                "add_region",
                [
                    "Stairs3",
                    "14,19",
                    "1,1",
                    "event",
                    "Visit"
                ]
            ],
            [
                "remove_region",
                [
                    "Village1"
                ]
            ],
            [
                "remove_region",
                [
                    "Village2"
                ]
            ],
            [
                "remove_region",
                [
                    "Village3"
                ]
            ],
            [
                "change_roaming",
                [
                    "t"
                ]
            ],
            [
                "change_roaming_unit",
                [
                    "Ennis (Ennis)"
                ]
            ],
            [
                "end",
                []
            ]
        ],
        "only_once": false,
        "priority": 20
    }
]