[
    {
        "name": "05.Battle_Save",
        "trigger": "on_region_interact",
        "level_nid": "4",
        "condition": "region.nid == 'Battle Save'",
        "commands": [
            [
                "if",
                [
                    "not game.level_vars.get('BuyerTalk', False)"
                ]
            ],
            [
                "else",
                []
            ],
            [
                "choice",
                [
                    "battle_save",
                    "Would you like to save?",
                    "Yes,No"
                ]
            ],
            [
                "if",
                [
                    "game.game_vars['battle_save'] == 'Yes'"
                ]
            ],
            [
                "remove_map_anim",
                [
                    "OverchargeAura",
                    "8,10"
                ]
            ],
            [
                "battle_save",
                []
            ],
            [
                "end",
                []
            ]
        ],
        "only_once": true,
        "priority": 20
    }
]