[
    {
        "name": "17.LionStatue (2)",
        "trigger": "Visit",
        "level_nid": "4",
        "condition": "region.nid == 'LionStatue3'",
        "commands": [
            [
                "add_portrait",
                [
                    "Ennis",
                    "Right"
                ]
            ],
            [
                "speak",
                [
                    "Ennis",
                    "A silver lion statue.|Valuable, but not kick your dog valuable.",
                    "",
                    "",
                    "thought_bubble"
                ]
            ],
            [
                "remove_portrait",
                [
                    "Ennis"
                ]
            ]
        ],
        "only_once": false,
        "priority": 20
    }
]