[
    {
        "name": "17.Low Left BookShelf ",
        "trigger": "Visit",
        "level_nid": "4",
        "condition": "region.nid == 'LowLeftBookShelf'",
        "commands": [
            [
                "add_portrait",
                [
                    "Ennis",
                    "Right"
                ]
            ],
            [
                "speak",
                [
                    "Ennis",
                    "A collection of religious texts from several religious sects.|I don't think my Mother has ever read any of them,|she just changes which ones are at eye level depending on the visitor.|Well, my mother doesn't actually do any of the work.|I can't help but pity Fiachra.",
                    "",
                    "",
                    "thought_bubble"
                ]
            ],
            [
                "remove_portrait",
                [
                    "Ennis"
                ]
            ]
        ],
        "only_once": false,
        "priority": 20
    }
]