[
    {
        "name": "Death Buyer",
        "trigger": "unit_death",
        "level_nid": "4",
        "condition": "unit.nid == \"Buyer\"",
        "commands": [
            [
                "add_portrait",
                [
                    "Buyer",
                    "Left"
                ]
            ],
            [
                "speak",
                [
                    "Buyer",
                    "....."
                ]
            ],
            [
                "lose_game",
                []
            ]
        ],
        "only_once": false,
        "priority": 20
    }
]