[
    {
        "name": "Isador Death",
        "trigger": "unit_death",
        "level_nid": "4",
        "condition": "unit.nid == 'Isador'",
        "commands": [
            [
                "add_portrait",
                [
                    "Isador",
                    "Left"
                ]
            ],
            [
                "speak",
                [
                    "Isador",
                    "Am I really this weak? How embarrassing.|I'll have to be smarter next time."
                ]
            ],
            [
                "remove_unit",
                [
                    "Isador (Isador)",
                    "warp"
                ]
            ],
            [
                "remove_portrait",
                [
                    "Isador"
                ]
            ]
        ],
        "only_once": false,
        "priority": 20
    }
]