[
    {
        "name": "Moore Death",
        "trigger": "unit_death",
        "level_nid": "4",
        "condition": "unit.nid == 'Moore'",
        "commands": [
            [
                "add_portrait",
                [
                    "Moore (Moore)",
                    "Left"
                ]
            ],
            [
                "speak",
                [
                    "Moore",
                    "I'm sorry my boy, seems I've gotten rusty."
                ]
            ],
            [
                "remove_portrait",
                [
                    "Moore"
                ]
            ],
            [
                "flicker_cursor",
                [
                    "Buyer"
                ]
            ],
            [
                "add_portrait",
                [
                    "Buyer",
                    "Left"
                ]
            ],
            [
                "speak",
                [
                    "Buyer",
                    "........"
                ]
            ],
            [
                "remove_portrait",
                [
                    "Buyer"
                ]
            ],
            [
                "change_ai",
                [
                    "Buyer",
                    "Go to Ennis"
                ]
            ],
            [
                "resurrect",
                [
                    "Moore"
                ]
            ],
            [
                "remove_skill",
                [
                    "Moore",
                    "Crippled (Crippled)",
                    "FLAG(no_banner)",
                    "FLAG(no_warn)"
                ]
            ],
            [
                "remove_skill",
                [
                    "Moore",
                    "Poisoned (Poisoned)",
                    "FLAG(no_banner)",
                    "FLAG(no_warn)"
                ]
            ],
            [
                "remove_skill",
                [
                    "Moore",
                    "Toxin (Poisoned_stack)",
                    "FLAG(no_banner)",
                    "FLAG(no_warn)"
                ]
            ]
        ],
        "only_once": false,
        "priority": 20
    }
]