[
    {
        "name": "Moore Fight",
        "trigger": "combat_start",
        "level_nid": "4",
        "condition": "check_default(\"Moore\")",
        "commands": [
            [
                "music",
                [
                    "Rage Fixed"
                ]
            ],
            [
                "add_portrait",
                [
                    "Moore",
                    "Left"
                ]
            ],
            [
                "speak",
                [
                    "Moore",
                    "I'd normally surrender after losing so many men but,|I don't have a choice this time.|I will not lose, no matter what!"
                ]
            ]
        ],
        "only_once": true,
        "priority": 20
    }
]