[
    {
        "name": "Village 3 (4)",
        "trigger": "Visit",
        "level_nid": "4",
        "condition": "region.nid == 'Village3'",
        "commands": [
            [
                "if",
                [
                    "game.game_vars['Hear the Story?'] == 'Yes'"
                ]
            ],
            [
                "choice",
                [
                    "LionKingPlot4",
                    "Keep listening?",
                    "Yes,No"
                ]
            ],
            [
                "if",
                [
                    "game.game_vars['_last_choice'] == 'Yes'"
                ]
            ],
            [
                "transition",
                [
                    "Close"
                ]
            ],
            [
                "change_background",
                [
                    "House"
                ]
            ],
            [
                "transition",
                [
                    "Open"
                ]
            ],
            [
                "add_portrait",
                [
                    "{unit}",
                    "Left",
                    "no_block"
                ]
            ],
            [
                "add_portrait",
                [
                    "OldMan1",
                    "Right"
                ]
            ],
            [
                "speak",
                [
                    "OldMan1",
                    "Since robbing banks is the gateway crime, we then rob wagons.|But Shaman guy gets jealous of all the crime we're doing,|so he hires some bandits to kidnap some kids.|We're cool so we save them, and then decided to save more people from prison.|We finish our crime spree by robbing some fort that has super secret info."
                ]
            ],
            [
                "end",
                []
            ]
        ],
        "only_once": false,
        "priority": 16
    }
]