[
    {
        "name": "Village 3",
        "trigger": "Visit",
        "level_nid": "4",
        "condition": "region.nid == 'Village3'",
        "commands": [
            [
                "transition",
                [
                    "Close"
                ]
            ],
            [
                "change_background",
                [
                    "House"
                ]
            ],
            [
                "transition",
                [
                    "Open"
                ]
            ],
            [
                "add_portrait",
                [
                    "{unit}",
                    "Left",
                    "no_block"
                ]
            ],
            [
                "add_portrait",
                [
                    "OldMan1",
                    "Right"
                ]
            ],
            [
                "speak",
                [
                    "OldMan1",
                    "Oh dear, you actaully came to visit me?|Ha ha, I'm too broke for vistors these days.|Still, I want to at least give you something.|I have a great story, if you want to hear it."
                ]
            ]
        ],
        "only_once": false,
        "priority": 20
    }
]