[
    {
        "name": "00.Intro",
        "trigger": "level_start",
        "level_nid": "5",
        "condition": "True",
        "commands": [
            [
                "comment",
                [
                    "# Setup"
                ]
            ],
            [
                "comment",
                [
                    "# Show chapter title"
                ]
            ],
            [
                "chapter_title",
                []
            ],
            [
                "comment",
                [
                    "# Pre-chapter cutscenes"
                ]
            ],
            [
                "change_background",
                [
                    "TownSunset"
                ]
            ],
            [
                "change_tilemap",
                [
                    "Port Belrann"
                ]
            ],
            [
                "music",
                [
                    "Therion"
                ]
            ],
            [
                "add_unit",
                [
                    "Ennis",
                    "9,2"
                ]
            ],
            [
                "add_unit",
                [
                    "Buyer",
                    "9,3"
                ]
            ],
            [
                "add_unit",
                [
                    "Kingfisher",
                    "6,1"
                ]
            ],
            [
                "add_unit",
                [
                    "Cormorant",
                    "7,1"
                ]
            ],
            [
                "add_unit",
                [
                    "Abeni",
                    "9,1"
                ]
            ],
            [
                "add_unit",
                [
                    "Thrant",
                    "11,2"
                ]
            ],
            [
                "add_unit",
                [
                    "Yarrow",
                    "11,3"
                ]
            ],
            [
                "add_unit",
                [
                    "Fiachra",
                    "8,4"
                ]
            ],
            [
                "add_portrait",
                [
                    "Ennis",
                    "MidLeft",
                    "FLAG(no_block)"
                ]
            ],
            [
                "speak",
                [
                    "Ennis",
                    "..Kill the buyer or destroy the package?|No, there is no choice here.|Even without knowing what it contains, I cannot destroy the last vestige of my house.|Adelmar, I'm sorry."
                ]
            ],
            [
                "remove_portrait",
                [
                    "Ennis"
                ]
            ],
            [
                "change_background",
                []
            ],
            [
                "give_skill",
                [
                    "Buyer",
                    "Void Curse (Void Curse)",
                    "FLAG(no_banner)"
                ]
            ],
            [
                "interact_unit",
                [
                    "Ennis (Ennis)",
                    "Buyer",
                    "crit1"
                ]
            ],
            [
                "end_skip",
                []
            ],
            [
                "add_portrait",
                [
                    "Adelmar (Buyer)",
                    "MidLeft"
                ]
            ],
            [
                "speak",
                [
                    "Buyer",
                    "urgh.. Lady Ennis, why?"
                ]
            ],
            [
                "remove_portrait",
                [
                    "Buyer"
                ]
            ],
            [
                "add_portrait",
                [
                    "Cormorant",
                    "MidLeft"
                ]
            ],
            [
                "speak",
                [
                    "Cormorant",
                    "Cac a dh\u00e9anamh, Princess. That was cold."
                ]
            ],
            [
                "remove_portrait",
                [
                    "Cormorant"
                ]
            ],
            [
                "add_portrait",
                [
                    "Fiachra",
                    "FarLeft"
                ]
            ],
            [
                "speak",
                [
                    "Fiachra",
                    "Miss Ennis, I'm a little lost..|How does this violence further the goals of House Connachta?"
                ]
            ],
            [
                "add_portrait",
                [
                    "Thrant",
                    "MidRight"
                ]
            ],
            [
                "speak",
                [
                    "Thrant",
                    "Now now, manservant. I'm sure your lady had a reason."
                ]
            ],
            [
                "speak",
                [
                    "Fiachra",
                    "Your employer is killed in front of you and you have no reaction at all?"
                ]
            ],
            [
                "speak",
                [
                    "Thrant",
                    "Well, it may surprise you to learn|that this isn't the first time one boss of mine gutted another.|And, like I said, the lady had a reason.|Right, Ennis?"
                ]
            ],
            [
                "add_portrait",
                [
                    "Ennis",
                    "MidLeft"
                ]
            ],
            [
                "speak",
                [
                    "Ennis",
                    "... I did. Please, trust me Fiachra."
                ]
            ],
            [
                "speak",
                [
                    "Fiachra",
                    "Implicitly, my lady."
                ]
            ],
            [
                "remove_portrait",
                [
                    "Fiachra"
                ]
            ],
            [
                "remove_portrait",
                [
                    "Thrant"
                ]
            ],
            [
                "add_portrait",
                [
                    "Cormorant",
                    "FarRight",
                    "FLAG(no_block)"
                ]
            ],
            [
                "speak",
                [
                    "Cormorant",
                    "Well, Lady Connachta, what's next?"
                ]
            ],
            [
                "add_portrait",
                [
                    "Abeni",
                    "FarLeft",
                    "FLAG(no_block)"
                ]
            ],
            [
                "speak",
                [
                    "Abeni",
                    "If I may... |My name is Abeni, and I am a former contact of the late Lady Connachta's.|While I don't know whom the ultimate recipient of your package is,|I do know of a place where we may at least appraise your cargo.|There is a ruin in the hills to the west of here where true magic reigns.|A place known to Adelmar and your mother, Lady Ennis."
                ]
            ],
            [
                "speak",
                [
                    "Ennis",
                    "Then that is where we will go."
                ]
            ],
            [
                "multi_remove_portrait",
                [
                    "Ennis",
                    "Cormorant"
                ]
            ],
            [
                "move_portrait",
                [
                    "Abeni",
                    "FarRight"
                ]
            ],
            [
                "add_portrait",
                [
                    "Kingfisher",
                    "Left"
                ]
            ],
            [
                "wait",
                [
                    "200"
                ]
            ],
            [
                "remove_portrait",
                [
                    "Abeni"
                ]
            ],
            [
                "speak",
                [
                    "Kingfisher",
                    "..Where did she even come from?"
                ]
            ],
            [
                "remove_portrait",
                [
                    "Kingfisher"
                ]
            ],
            [
                "remove_unit",
                [
                    "Ennis (Ennis)"
                ]
            ],
            [
                "remove_unit",
                [
                    "Cormorant"
                ]
            ],
            [
                "remove_unit",
                [
                    "Thrant"
                ]
            ],
            [
                "remove_unit",
                [
                    "Yarrow"
                ]
            ],
            [
                "remove_unit",
                [
                    "Fiachra"
                ]
            ],
            [
                "remove_unit",
                [
                    "Kingfisher"
                ]
            ],
            [
                "remove_unit",
                [
                    "Abeni"
                ]
            ],
            [
                "end_skip",
                []
            ],
            [
                "music_clear",
                []
            ],
            [
                "comment",
                [
                    "# Move to Chapter map, continue intro"
                ]
            ],
            [
                "change_tilemap",
                [
                    "Forest Ruins Empty"
                ]
            ],
            [
                "music",
                [
                    "Faron Woods"
                ]
            ],
            [
                "add_unit",
                [
                    "Cormorant",
                    "7,17"
                ]
            ],
            [
                "move_unit",
                [
                    "Cormorant",
                    "7,15"
                ]
            ],
            [
                "add_unit",
                [
                    "Kingfisher",
                    "7,17"
                ]
            ],
            [
                "move_unit",
                [
                    "Kingfisher",
                    "7,16"
                ]
            ],
            [
                "center_cursor",
                [
                    "Cormorant (Cormorant)"
                ]
            ],
            [
                "if",
                [
                    "game.check_alive('Cistia')"
                ]
            ],
            [
                "add_unit",
                [
                    "Cistia",
                    "8,17"
                ]
            ],
            [
                "move_unit",
                [
                    "Cistia",
                    "8,16"
                ]
            ],
            [
                "add_portrait",
                [
                    "Cistia",
                    "FarRight"
                ]
            ],
            [
                "speak",
                [
                    "Cistia",
                    "Well! It's a ruin, just as expected.|Not sure why they needed to send us ahead to scout like this."
                ]
            ],
            [
                "add_portrait",
                [
                    "Kingfisher",
                    "MidRight"
                ]
            ],
            [
                "speak",
                [
                    "Kingfisher",
                    "No Cistia, this is good. We needed a chance to speak as a company."
                ]
            ],
            [
                "else",
                []
            ],
            [
                "wait",
                [
                    "1500"
                ]
            ],
            [
                "change_background",
                [
                    "Clearing"
                ]
            ],
            [
                "add_portrait",
                [
                    "Kingfisher",
                    "MidRight"
                ]
            ],
            [
                "speak",
                [
                    "Kingfisher",
                    "I'm glad they sent us ahead to scout. We needed a chance to speak as a company."
                ]
            ],
            [
                "end",
                []
            ],
            [
                "speak",
                [
                    "Kingfisher",
                    "Cor, I'm worried about working with this Ennis character.|I mean, we just watched her kill a business partner in cold blood.|I'm sure I don't need to remind you that WE are her business partners too!"
                ]
            ],
            [
                "add_portrait",
                [
                    "Cormorant",
                    "Left"
                ]
            ],
            [
                "speak",
                [
                    "Cormorant",
                    "I'm listening King,|and I'd be lying if I said I wasn't starting to have second thoughts about this job.|But, the pay is good, and you know that hasn't been a given since the war."
                ]
            ],
            [
                "speak",
                [
                    "Kingfisher",
                    "Ack..   Hm."
                ]
            ],
            [
                "speak",
                [
                    "Cormorant",
                    "I'm sorry old friend.|I only meant that we need this job a little more than we might like to think.|Try to keep an open-mind with the princess, by the way.|She's a desperate woman, and we're no strangers to desperation ourselves.|I've seen the pain and fury in her eyes.|You know I've felt that too.|Who knows, maybe she needs people like us around|to stop her from doing something she'll regret."
                ]
            ],
            [
                "end_skip",
                []
            ],
            [
                "if",
                [
                    "game.check_alive('Cistia')"
                ]
            ],
            [
                "multi_remove_portrait",
                [
                    "Cormorant",
                    "Cistia",
                    "Kingfisher"
                ]
            ],
            [
                "else",
                []
            ],
            [
                "multi_remove_portrait",
                [
                    "Cormorant",
                    "Kingfisher"
                ]
            ],
            [
                "end",
                []
            ],
            [
                "add_unit",
                [
                    "Dullahan",
                    "14,4"
                ]
            ],
            [
                "add_unit",
                [
                    "Accipiter",
                    "15,5"
                ]
            ],
            [
                "add_unit",
                [
                    "Shoebill",
                    "13,5"
                ]
            ],
            [
                "move_cursor",
                [
                    "Dullahan"
                ]
            ],
            [
                "add_portrait",
                [
                    "Dullahan (Dullahan)",
                    "Left"
                ]
            ],
            [
                "add_portrait",
                [
                    "Accipiter (Accipiter)",
                    "MidRight"
                ]
            ],
            [
                "add_portrait",
                [
                    "Shoebill",
                    "FarRight"
                ]
            ],
            [
                "speak",
                [
                    "Dullahan",
                    "Hark, mercenaries! I carry the Suzerain's will!|Peddler, continue to search the ruins for the angelic robes.|Use your phasewalk, if you have to.|Old man, rally the acolytes. I smell company."
                ]
            ],
            [
                "end_skip",
                []
            ],
            [
                "multi_remove_portrait",
                [
                    "Dullahan",
                    "Accipiter",
                    "Shoebill"
                ]
            ],
            [
                "move_unit",
                [
                    "Shoebill",
                    "23,3",
                    "normal"
                ]
            ],
            [
                "move_unit",
                [
                    "Accipiter",
                    "22,3",
                    "normal"
                ]
            ],
            [
                "add_portrait",
                [
                    "Accipiter (Accipiter)",
                    "Left"
                ]
            ],
            [
                "add_portrait",
                [
                    "Shoebill",
                    "Right"
                ]
            ],
            [
                "speak",
                [
                    "Accipiter",
                    "Pah!|Calls me a peddler in one breath and then says use my Tashtali magic in the other.|Quelea didn't ready me for the backwards oafs on this job."
                ]
            ],
            [
                "speak",
                [
                    "Shoebill",
                    "Nor did I expect to be training a gang of hokey cultists how to saddle a horse.|Still, a job's a job, and Quelea's been taking care of us since Cor disappeared."
                ]
            ],
            [
                "speak",
                [
                    "Accipiter",
                    "Hmph. To me, it's all a bit suspicious.|Quelea was so ready to join this cult when Cor left that it felt premeditated."
                ]
            ],
            [
                "speak",
                [
                    "Cormorant",
                    "King, hush. I hear voices in the courtyard. Gather Ennis and the others."
                ]
            ],
            [
                "speak",
                [
                    "Accipiter",
                    "Shoe, that was Cormorant's voice!|You stay here, I'm going to have a look."
                ]
            ],
            [
                "change_team",
                [
                    "Accipiter",
                    "other"
                ]
            ],
            [
                "multi_remove_portrait",
                [
                    "Accipiter",
                    "Shoebill"
                ]
            ],
            [
                "end_skip",
                []
            ],
            [
                "wait",
                [
                    "500"
                ]
            ],
            [
                "move_unit",
                [
                    "Accipiter",
                    "25,7",
                    "normal"
                ]
            ],
            [
                "remove_unit",
                [
                    "Accipiter"
                ]
            ],
            [
                "add_portrait",
                [
                    "Shoebill",
                    "Right"
                ]
            ],
            [
                "speak",
                [
                    "Shoebill",
                    "Heh, that girl hears what she wants to. Still, it would be nice to see Cor again.|...Enough sentimentality Shoebill, you old fool. Cultists, to arms!"
                ]
            ],
            [
                "remove_portrait",
                [
                    "Shoebill"
                ]
            ],
            [
                "end_skip",
                []
            ],
            [
                "comment",
                [
                    "# Remove Talk Units"
                ]
            ],
            [
                "remove_all_units",
                []
            ],
            [
                "comment",
                [
                    "#Spawn"
                ]
            ],
            [
                "change_background",
                [
                    "BlackBackground"
                ]
            ],
            [
                "wait",
                [
                    "1000"
                ]
            ],
            [
                "change_tilemap",
                [
                    "Forest Ruins",
                    "",
                    "Forest Ruins",
                    "FLAG(reload)"
                ]
            ],
            [
                "change_background",
                []
            ],
            [
                "center_cursor",
                [
                    "22,4",
                    "800"
                ]
            ],
            [
                "center_cursor",
                [
                    "22,14",
                    "800"
                ]
            ],
            [
                "center_cursor",
                [
                    "4,14",
                    "800"
                ]
            ],
            [
                "center_cursor",
                [
                    "4,4",
                    "800"
                ]
            ],
            [
                "move_cursor",
                [
                    "Ennis (Ennis)"
                ]
            ],
            [
                "change_background",
                []
            ],
            [
                "comment",
                [
                    "# Preps"
                ]
            ],
            [
                "prep",
                [
                    "1",
                    "Pilgrimage"
                ]
            ],
            [
                "add_portrait",
                [
                    "Fiachra",
                    "FarLeft"
                ]
            ],
            [
                "add_portrait",
                [
                    "Abeni",
                    "Right"
                ]
            ],
            [
                "speak",
                [
                    "Fiachra",
                    "You'd better not have led Lady Connachta into a trap, flameseer."
                ]
            ],
            [
                "speak",
                [
                    "Abeni",
                    "This is hallowed ground.|I had no reason to expect we'd find trouble here."
                ]
            ],
            [
                "add_portrait",
                [
                    "Ennis",
                    "MidLeft"
                ]
            ],
            [
                "speak",
                [
                    "Ennis",
                    "Enough, Fiachra.|Abeni has served me better than you have yet had the chance to see.|She has my trust."
                ]
            ],
            [
                "speak",
                [
                    "Fiachra",
                    "Very well, my lady."
                ]
            ],
            [
                "remove_portrait",
                [
                    "Fiachra"
                ]
            ],
            [
                "speak",
                [
                    "Abeni",
                    "Lady Connachta, if I may.|Your newfound power will serve you well in the battle to come."
                ]
            ],
            [
                "speak",
                [
                    "Ennis",
                    "Yes... the power of the turnwheel."
                ]
            ],
            [
                "end_skip",
                []
            ],
            [
                "alert",
                [
                    "Ennis can now use the power of the turnwheel."
                ]
            ],
            [
                "end_skip",
                []
            ],
            [
                "alert",
                [
                    "Lady Connachta's words echoed..."
                ]
            ],
            [
                "end_skip",
                []
            ],
            [
                "multi_remove_portrait",
                [
                    "Abeni",
                    "Ennis"
                ]
            ],
            [
                "speak",
                [
                    "Lady Conn",
                    "The turnwheel can be accessed from the map menu, whether Ennis has acted this turn or not.|After activating, you can cycle back and forth between past actions.|Pressing the confirm button will move you back in time to the currently highlighted past action."
                ]
            ],
            [
                "end_skip",
                []
            ],
            [
                "comment",
                [
                    "# Add Talk Convos"
                ]
            ],
            [
                "add_talk",
                [
                    "Cormorant (Cormorant)",
                    "Accipiter (Accipiter)"
                ]
            ],
            [
                "add_talk",
                [
                    "Cormorant (Cormorant)",
                    "Shoebill (Shoebill)"
                ]
            ],
            [
                "add_talk",
                [
                    "Cistia",
                    "Shoebill"
                ]
            ],
            [
                "add_talk",
                [
                    "Kingfisher",
                    "Shoebill"
                ]
            ],
            [
                "add_talk",
                [
                    "Accipiter",
                    "Shoebill"
                ]
            ],
            [
                "comment",
                [
                    "# Mogall Grounded"
                ]
            ],
            [
                "give_skill",
                [
                    "133",
                    "Grounded (Grounded)",
                    "FLAG(no_banner)"
                ]
            ]
        ],
        "only_once": false,
        "priority": 20
    }
]