[
    {
        "name": "05. Reinforcements",
        "trigger": "turn_change",
        "level_nid": "5",
        "condition": "game.turncount == 5",
        "commands": [
            [
                "spawn_group",
                [
                    "SouthReinf",
                    "South",
                    "SouthReinf"
                ]
            ],
            [
                "flicker_cursor",
                [
                    "Cult (143)"
                ]
            ],
            [
                "disp_cursor",
                [
                    "1"
                ]
            ],
            [
                "wait",
                [
                    "1000"
                ]
            ],
            [
                "disp_cursor",
                [
                    "0"
                ]
            ]
        ],
        "only_once": true,
        "priority": 20
    }
]