[
    {
        "name": "08. Fight Dullahan",
        "trigger": "combat_start",
        "level_nid": "5",
        "condition": "check_default(\"Dullahan\")",
        "commands": [
            [
                "add_portrait",
                [
                    "Dullahan",
                    "Left"
                ]
            ],
            [
                "if",
                [
                    "unit.nid=='Accipiter'"
                ]
            ],
            [
                "speak",
                [
                    "Dullahan",
                    "Hah! A peddler and a turncoat. Come to your death, little one!"
                ]
            ],
            [
                "elif",
                [
                    "uni.nid=='Shoebill'"
                ]
            ],
            [
                "speak",
                [
                    "Dullahan",
                    "Quelea's trusted drill sargeant, a traitor? Interesting.|I should've smelled this coming."
                ]
            ],
            [
                "else",
                []
            ],
            [
                "speak",
                [
                    "Dullahan",
                    "Don't try to hide your fear. I can smell it from here! Mwahaha.."
                ]
            ],
            [
                "remove_portrait",
                [
                    "Dullahan"
                ]
            ],
            [
                "end",
                []
            ]
        ],
        "only_once": true,
        "priority": 20
    }
]