[
    {
        "name": "0A. Accipiter Recruit",
        "trigger": "on_talk",
        "level_nid": "5",
        "condition": "check_pair('Accipiter', 'Cormorant')",
        "commands": [
            [
                "add_portrait",
                [
                    "Cormorant",
                    "Left"
                ]
            ],
            [
                "add_portrait",
                [
                    "Accipiter (Accipiter)",
                    "Right"
                ]
            ],
            [
                "speak",
                [
                    "Cormorant",
                    "Accipiter? What in Tekk Duinn are you doing here!"
                ]
            ],
            [
                "speak",
                [
                    "Accipiter",
                    "Hah. I knew it was your voice through the trees Cor.|Shoebill owes me a gil!"
                ]
            ],
            [
                "speak",
                [
                    "Cormorant",
                    "Shoe is here too?!|Wait, don't tell me. You're here with that cult, aren't you?"
                ]
            ],
            [
                "speak",
                [
                    "Accipiter",
                    "Can you smell them on me or somethin'?"
                ]
            ],
            [
                "speak",
                [
                    "Cormorant",
                    "Nah. I ran into Cistia the same way half-a-week back.|...How'd you and Shoe end up running with this cult anyhow?"
                ]
            ],
            [
                "speak",
                [
                    "Accipiter",
                    "Well, you know Shoebill, loyal to a fault.|You appointed Quelea,|so he saw following her as the only way to deliver on his oaths to you.|Working with these gobshites was Lea's idea though."
                ]
            ],
            [
                "speak",
                [
                    "Cormorant",
                    " And you?|Not like the Accipiter I know to play along just because."
                ]
            ],
            [
                "speak",
                [
                    "Accipiter",
                    "Same as always.|A coin's a coin for a cutpurse like me.|Though, the gil always spent a little sweeter under you, boss."
                ]
            ],
            [
                "speak",
                [
                    "Cormorant",
                    "I can't promise the coin will flow like it did in the old days,|but King and I could actually use an extra pair of hands right now."
                ]
            ],
            [
                "speak",
                [
                    "Accipiter",
                    "Hah! I'm in."
                ]
            ],
            [
                "multi_remove_portrait",
                [
                    "Accipiter",
                    "Cormorant"
                ]
            ],
            [
                "change_team",
                [
                    "Accipiter",
                    "player"
                ]
            ],
            [
                "comment",
                [
                    "# Remove Talk Convos"
                ]
            ],
            [
                "remove_talk",
                [
                    "Cormorant (Cormorant)",
                    "Accipiter (Accipiter)"
                ]
            ],
            [
                "comment",
                [
                    "# Add Talk Convos"
                ]
            ],
            [
                "add_talk",
                [
                    "Cistia",
                    "Accipiter (Accipiter)"
                ]
            ],
            [
                "add_talk",
                [
                    "Accipiter (Accipiter)",
                    "Cistia"
                ]
            ],
            [
                "add_talk",
                [
                    "Accipiter (Accipiter)",
                    "Thrant"
                ]
            ],
            [
                "add_talk",
                [
                    "Thrant",
                    "Accipiter (Accipiter)"
                ]
            ]
        ],
        "only_once": true,
        "priority": 20
    }
]