[
    {
        "name": "0A2. Accipiter Thrant Chat",
        "trigger": "on_talk",
        "level_nid": "5",
        "condition": "check_pair('Accipiter', 'Thrant')",
        "commands": [
            [
                "add_portrait",
                [
                    "Thrant",
                    "Left"
                ]
            ],
            [
                "add_portrait",
                [
                    "Accipiter (Accipiter)",
                    "Right"
                ]
            ],
            [
                "speak",
                [
                    "Thrant",
                    "Heh. What are you doing here pretty bird?"
                ]
            ],
            [
                "speak",
                [
                    "Accipiter",
                    "Thrant?!|Don't tell me you followed me all the way here|after that night we spent together in Cunlingschire."
                ]
            ],
            [
                "speak",
                [
                    "Thrant",
                    "Hah! I probably would've tried if you didn't give me a fake name.|Does Dierdre ring any bells?"
                ]
            ],
            [
                "speak",
                [
                    "Accipiter",
                    "Tehehee. Keep an eye out for 'Dierdre' tonight.|She might just make a visit to your tent."
                ]
            ],
            [
                "remove_portrait",
                [
                    "Thrant"
                ]
            ],
            [
                "change_background",
                [
                    "WhiteBackground"
                ]
            ],
            [
                "wait",
                [
                    "200"
                ]
            ],
            [
                "change_background",
                [
                    "BlackBackground"
                ]
            ],
            [
                "wait",
                [
                    "300"
                ]
            ],
            [
                "change_background",
                []
            ],
            [
                "add_portrait",
                [
                    "Accipiter",
                    "Right"
                ]
            ],
            [
                "add_portrait",
                [
                    "Yarrow",
                    "Left"
                ]
            ],
            [
                "speak",
                [
                    "Yarrow",
                    "So Thrant has found himself a new sweetheart.|I've always wanted a sister!"
                ]
            ],
            [
                "speak",
                [
                    "Accipiter",
                    "Uhhh... I need to go!"
                ]
            ],
            [
                "move_portrait",
                [
                    "Accipiter",
                    "OffscreenRight"
                ]
            ],
            [
                "remove_portrait",
                [
                    "Accipiter"
                ]
            ],
            [
                "speak",
                [
                    "Yarrow",
                    "Hehe. Nice girl.|I'll have to explain later that I was only joking!"
                ]
            ],
            [
                "multi_remove_portrait",
                [
                    "Accipiter",
                    "Yarrow"
                ]
            ],
            [
                "comment",
                [
                    "# Remove Talk Convos"
                ]
            ],
            [
                "remove_talk",
                [
                    "Thrant",
                    "Accipiter (Accipiter)"
                ]
            ],
            [
                "remove_talk",
                [
                    "Accipiter",
                    "Thrant"
                ]
            ]
        ],
        "only_once": true,
        "priority": 20
    }
]