[
    {
        "name": "0Y. Shoebill Mogall Chamber Callout",
        "trigger": "enemy_turn_change",
        "level_nid": "5",
        "condition": "game.turncount == 4",
        "commands": [
            [
                "flicker_cursor",
                [
                    "Shoebill (Shoebill)"
                ]
            ],
            [
                "add_portrait",
                [
                    "Shoebill",
                    "Left",
                    "FLAG(no_block)"
                ]
            ],
            [
                "speak",
                [
                    "Shoebill",
                    "Hrrmm.. What's that?"
                ]
            ],
            [
                "flicker_cursor",
                [
                    "23,0"
                ]
            ],
            [
                "speak",
                [
                    "Shoebill",
                    "Just as I thought, a Mogall.|What was it the old fishwives told me as a boy?|He who enters the Mogall's chamber shall be offered a great boon?|Feh, I'd say it's nonsense.|I won't be alerting Dullahan either way though."
                ]
            ],
            [
                "remove_portrait",
                [
                    "Shoebill (Shoebill)"
                ]
            ]
        ],
        "only_once": true,
        "priority": 20
    }
]