[
    {
        "name": "10. Outro",
        "trigger": "level_end",
        "level_nid": "5",
        "condition": "True",
        "commands": [
            [
                "remove_all_units",
                []
            ],
            [
                "music",
                [
                    "Mines of Narshe"
                ]
            ],
            [
                "load_unit",
                [
                    "Lim (Lim)",
                    "other"
                ]
            ],
            [
                "transition",
                [
                    "open",
                    "500"
                ]
            ],
            [
                "add_unit",
                [
                    "Ennis",
                    "15,6"
                ]
            ],
            [
                "reset",
                [
                    "Ennis (Ennis)"
                ]
            ],
            [
                "add_unit",
                [
                    "Cormorant",
                    "13,6"
                ]
            ],
            [
                "add_unit",
                [
                    "Abeni",
                    "14,7"
                ]
            ],
            [
                "center_cursor",
                [
                    "14,4"
                ]
            ],
            [
                "add_portrait",
                [
                    "Abeni",
                    "FarRight"
                ]
            ],
            [
                "speak",
                [
                    "Abeni",
                    "We should be able to make contact from this chamber."
                ]
            ],
            [
                "add_portrait",
                [
                    "Ennis",
                    "MidLeft"
                ]
            ],
            [
                "speak",
                [
                    "Ennis",
                    "Make contact... with what?"
                ]
            ],
            [
                "speak",
                [
                    "Abeni",
                    "My blessing makes it far easier for me to show you, Lady Connachta."
                ]
            ],
            [
                "add_portrait",
                [
                    "Cormorant",
                    "FarLeft"
                ]
            ],
            [
                "speak",
                [
                    "Cormorant",
                    "This true magic crap is making me nervous.|You sure you know what you're dealing with Princess?"
                ]
            ],
            [
                "speak",
                [
                    "Ennis",
                    "I'm sure of little these days, but that's precisely why this is necessary."
                ]
            ],
            [
                "speak",
                [
                    "Cormorant",
                    "If you insist."
                ]
            ],
            [
                "speak",
                [
                    "Abeni",
                    "Silence. I can feel the thinning of the veil."
                ]
            ],
            [
                "end_skip",
                []
            ],
            [
                "add_unit",
                [
                    "Lim",
                    "14,4",
                    "warp"
                ]
            ],
            [
                "sound",
                [
                    "Aircalibur"
                ]
            ],
            [
                "add_portrait",
                [
                    "Lim",
                    "MidRight"
                ]
            ],
            [
                "speak",
                [
                    "Lim",
                    "Abeni, you've come at last,|and on this day, when fate is cast?"
                ]
            ],
            [
                "speak",
                [
                    "Abeni",
                    "Lim, I've brought you Lady Connachta's daughter.|She has a Tuathan artifact on her person."
                ]
            ],
            [
                "speak",
                [
                    "Ennis",
                    "Tuathan?"
                ]
            ],
            [
                "speak",
                [
                    "Lim",
                    "If definitions are what you seek,|you'll find my lexicon far from meek."
                ]
            ],
            [
                "speak",
                [
                    "Cormorant",
                    "Shite. This is going to get annoying fast."
                ]
            ],
            [
                "speak",
                [
                    "Lim",
                    "Abeni, leave the girls to me,|and as you wish, I'll make them see."
                ]
            ],
            [
                "speak",
                [
                    "Abeni",
                    "Very well."
                ]
            ],
            [
                "end_skip",
                []
            ],
            [
                "remove_portrait",
                [
                    "Abeni"
                ]
            ],
            [
                "remove_unit",
                [
                    "Abeni",
                    "warp"
                ]
            ],
            [
                "speak",
                [
                    "Lim",
                    "Lady Connachta, I'll answer your query|and far before your friend grows weary."
                ]
            ],
            [
                "speak",
                [
                    "Cormorant",
                    "*sigh*"
                ]
            ],
            [
                "speak",
                [
                    "Ennis",
                    "Uh.. Lim, is it?|Abeni said this package was a Tuathan artifact. What does that mean?"
                ]
            ],
            [
                "speak",
                [
                    "Lim",
                    "This land is home to more countries than one.|Your folk surveyed and named Braghedunn.|But 'neath the trees and 'tween the frogs,|lies the country of mine, ol' Tirnanogue."
                ]
            ],
            [
                "speak",
                [
                    "Cormorant",
                    "Two countries in one land?|My admittedly flawed notion of geopolitics tells me that isn't possible."
                ]
            ],
            [
                "speak",
                [
                    "Lim",
                    "Perhaps 'mong your folk that would be the case,|but we Tuathans do show more grace."
                ]
            ],
            [
                "speak",
                [
                    "Ennis",
                    "So, Tirnanogue is a hidden society within these lands?|And people from Tirnanogue are called Tuathans?"
                ]
            ],
            [
                "speak",
                [
                    "Lim",
                    "A very quick study you are, Lady Enn,|though humans and Tuathans are not the same."
                ]
            ],
            [
                "speak",
                [
                    "Ennis",
                    "If not people, then what?"
                ]
            ],
            [
                "speak",
                [
                    "Lim",
                    "The limits of your folk do not constrain,|we Tuathans, who dwell in true magic's reign."
                ]
            ],
            [
                "speak",
                [
                    "Ennis",
                    "True magic's reign..."
                ]
            ],
            [
                "speak",
                [
                    "Cormorant",
                    "Princess, you're forgetting something."
                ]
            ],
            [
                "speak",
                [
                    "Ennis",
                    "Oh, the package! Abeni seemed to think you could appraise this?|The delivery of this package was the final charge my mother left me with."
                ]
            ],
            [
                "remove_item",
                [
                    "convoy",
                    "Package"
                ]
            ],
            [
                "speak",
                [
                    "Lim",
                    "You've asked me to look, and look I shall,|at this most precious of stones, Lia F\u00e1l.|Few Tuathan treasures are its equal within creation,|this worthy stone of coronation."
                ]
            ],
            [
                "give_item",
                [
                    "Ennis",
                    "Lia F\u00e1l",
                    "FLAG(no_choice)"
                ]
            ],
            [
                "speak",
                [
                    "Ennis",
                    "Why did my mother possess the coronation stone of a hidden magical culture?|Who could she possibly have been selling it to?"
                ]
            ],
            [
                "speak",
                [
                    "Lim",
                    "Could it be, the Suzerain?|Either way, this spells Queen Maeve's pain."
                ]
            ],
            [
                "speak",
                [
                    "Ennis",
                    "You said you knew my mother.|How much did she know about Tirnanogue?"
                ]
            ],
            [
                "speak",
                [
                    "Lim",
                    "No longer can I serve as your informant,|though I have morsels still for Cormorant."
                ]
            ],
            [
                "speak",
                [
                    "Cormorant",
                    "Wha.. For me?"
                ]
            ],
            [
                "speak",
                [
                    "Lim",
                    "Birds above and birds below.|Some you love, and some you know."
                ]
            ],
            [
                "speak",
                [
                    "Cormorant",
                    "Hmm."
                ]
            ],
            [
                "speak",
                [
                    "Lim",
                    "A broken ring you've come to possess,|will, when fixed, right the mess."
                ]
            ],
            [
                "speak",
                [
                    "Cormorant",
                    "How does he know about the broken ring?"
                ]
            ],
            [
                "speak",
                [
                    "Lim",
                    "Seek Goibniu, the smith of Tirnanogue|to mend what's broken and lift the fog.|The smith and more, in Northmarch be found|under and 'neath an old burial mound.|Your fate is tied with the lady Enn|so both, seek it out in the northern fen."
                ]
            ],
            [
                "end_skip",
                []
            ],
            [
                "multi_remove_portrait",
                [
                    "Ennis",
                    "Lim",
                    "Cormorant"
                ]
            ],
            [
                "change_background",
                [
                    "WhiteBackground"
                ]
            ],
            [
                "remove_unit",
                [
                    "Lim"
                ]
            ],
            [
                "wait",
                [
                    "200"
                ]
            ],
            [
                "change_background",
                [
                    "BlackBackground"
                ]
            ],
            [
                "wait",
                [
                    "300"
                ]
            ],
            [
                "sound",
                [
                    "lightning strike"
                ]
            ],
            [
                "change_background",
                []
            ],
            [
                "add_portrait",
                [
                    "Cormorant",
                    "FarLeft"
                ]
            ],
            [
                "add_portrait",
                [
                    "Ennis",
                    "MidLeft"
                ]
            ],
            [
                "speak",
                [
                    "Cormorant",
                    "Was any of that real?"
                ]
            ],
            [
                "speak",
                [
                    "Ennis",
                    "I suspect our answer lies in the Northmarch..."
                ]
            ],
            [
                "multi_remove_portrait",
                [
                    "Ennis",
                    "Cormorant"
                ]
            ],
            [
                "end_skip",
                []
            ],
            [
                "transition",
                [
                    "close",
                    "1000"
                ]
            ],
            [
                "remove_all_units",
                []
            ],
            [
                "transition",
                [
                    "open",
                    "1000"
                ]
            ],
            [
                "add_weather",
                [
                    "rain"
                ]
            ],
            [
                "location_card",
                [
                    "Some time later..."
                ]
            ],
            [
                "load_unit",
                [
                    "Ezra (MU)",
                    "enemy"
                ]
            ],
            [
                "add_unit",
                [
                    "Ezra (MU)",
                    "25,7"
                ]
            ],
            [
                "move_unit",
                [
                    "Ezra (MU)",
                    "14,6"
                ]
            ],
            [
                "wait",
                [
                    "200"
                ]
            ],
            [
                "add_portrait",
                [
                    "Ezra (MU)",
                    "Right"
                ]
            ],
            [
                "speak",
                [
                    "Ezra (MU)",
                    "So, the mercenary and the fallen noble were here..|..and signs of a battle.|Perhaps I'll catch them sooner than expected..."
                ]
            ],
            [
                "wait",
                [
                    "200"
                ]
            ],
            [
                "change_background",
                [
                    "BlackBackground"
                ]
            ],
            [
                "wait",
                [
                    "300"
                ]
            ],
            [
                "change_background",
                []
            ]
        ],
        "only_once": false,
        "priority": 20
    }
]