[
    {
        "name": "Mogall Chamber",
        "trigger": "on_region_interact",
        "level_nid": "5",
        "condition": "region.nid == 'Mogall Chamber'",
        "commands": [
            [
                "transition",
                [
                    "Close"
                ]
            ],
            [
                "change_background",
                [
                    "Ruins"
                ]
            ],
            [
                "transition",
                [
                    "Open"
                ]
            ],
            [
                "add_portrait",
                [
                    "{unit}",
                    "Left",
                    "no_block"
                ]
            ],
            [
                "add_portrait",
                [
                    "Mogall",
                    "Right"
                ]
            ],
            [
                "speak",
                [
                    "Mogall",
                    "Hmph. Bested by humans."
                ]
            ],
            [
                "speak",
                [
                    "{unit}",
                    "How are you speaking to me?"
                ]
            ],
            [
                "speak",
                [
                    "Mogall",
                    "A rather simple trick. I believe your kind calls it telepathy."
                ]
            ],
            [
                "speak",
                [
                    "{unit}",
                    "..."
                ]
            ],
            [
                "speak",
                [
                    "Mogall",
                    "It is within my power to grant a minor boon to those without a blessing.|The exact details of this boon will depend on the qualities you already possess.|I can do this only once."
                ]
            ],
            [
                "if",
                [
                    "unit.nid == 'Cormorant'"
                ]
            ],
            [
                "speak",
                [
                    "Mogall",
                    "For you, I could increase the frequency with which|you are able to swap your positioning,|and temporarily increase your defences whenever you make a kill."
                ]
            ],
            [
                "elif",
                [
                    "unit.nid == 'Shoebill'"
                ]
            ],
            [
                "speak",
                [
                    "Mogall",
                    "For you, I could return you to a more youthful form,|increasing your capacity for growth."
                ]
            ],
            [
                "elif",
                [
                    "unit.nid == 'Kingfisher'"
                ]
            ],
            [
                "speak",
                [
                    "Mogall",
                    "I could allow you to keep your long targeting active|even after it is used by an ally."
                ]
            ],
            [
                "elif",
                [
                    "unit.nid == 'Cistia'"
                ]
            ],
            [
                "speak",
                [
                    "Mogall",
                    "For you, I could allow magical access to your party's convoy."
                ]
            ],
            [
                "elif",
                [
                    "unit.nid == 'Fiachra'"
                ]
            ],
            [
                "speak",
                [
                    "Mogall",
                    "For you, I could keep your weapons in pristine condition despite their use|and increase your offensive staying power."
                ]
            ],
            [
                "elif",
                [
                    "unit.nid == 'Accipiter'"
                ]
            ],
            [
                "speak",
                [
                    "Mogall",
                    "For you, I could increase the range|at which you are able to steal from your foes."
                ]
            ],
            [
                "elif",
                [
                    "unit.nid == 'Sionn'"
                ]
            ],
            [
                "speak",
                [
                    "Mogall",
                    "For you, I could make your strikes against debuffed foes more powerful."
                ]
            ],
            [
                "end",
                []
            ],
            [
                "if",
                [
                    "unit.nid == 'Cormorant' or unit.nid == 'Shoebill' or unit.nid == 'Kingfisher' or unit.nid == 'Cistia' or unit.nid == 'Fiachra' or unit.nid == 'Accipiter' or unit.nid == 'Sionn'"
                ]
            ],
            [
                "speak",
                [
                    "Mogall",
                    "Will you be the recipient?"
                ]
            ],
            [
                "choice",
                [
                    "MogallBoon",
                    "Accept the boon?",
                    "Yes,No"
                ]
            ],
            [
                "if",
                [
                    "game.game_vars['MogallBoon'] == 'Yes'"
                ]
            ],
            [
                "speak",
                [
                    "Mogall",
                    "Very well."
                ]
            ],
            [
                "if",
                [
                    "unit.nid == 'Cormorant'"
                ]
            ],
            [
                "remove_skill",
                [
                    "Cormorant",
                    "SwapPlus"
                ]
            ],
            [
                "give_skill",
                [
                    "Cormorant",
                    "SwapPlusPlus"
                ]
            ],
            [
                "give_skill",
                [
                    "Cormorant",
                    "Battle-hardened (Battle-hardened)"
                ]
            ],
            [
                "set_unit_field",
                [
                    "Cormorant",
                    "Blessed",
                    "True"
                ]
            ],
            [
                "elif",
                [
                    "unit.nid == 'Shoebill'"
                ]
            ],
            [
                "end_skip",
                []
            ],
            [
                "add_portrait",
                [
                    "Shoebill",
                    "Left"
                ]
            ],
            [
                "speak",
                [
                    "Shoebill",
                    "...What's happening?"
                ]
            ],
            [
                "remove_portrait",
                [
                    "Shoebill"
                ]
            ],
            [
                "change_background",
                [
                    "WhiteBackground"
                ]
            ],
            [
                "wait",
                [
                    "200"
                ]
            ],
            [
                "change_background",
                [
                    "BlackBackground"
                ]
            ],
            [
                "wait",
                [
                    "300"
                ]
            ],
            [
                "sound",
                [
                    "lightning strike"
                ]
            ],
            [
                "change_portrait",
                [
                    "{unit}",
                    "caringcarrot"
                ]
            ],
            [
                "add_portrait",
                [
                    "Shoebill",
                    "Left"
                ]
            ],
            [
                "speak",
                [
                    "Shoebill",
                    "M\u00f3r-R\u00edoghain's breath! I feel incredible!"
                ]
            ],
            [
                "show_layer",
                [
                    "MogallVisit"
                ]
            ],
            [
                "move_unit",
                [
                    "{unit}",
                    "22,0",
                    "swoosh"
                ]
            ],
            [
                "remove_skill",
                [
                    "{unit}",
                    "Taskmaster"
                ]
            ],
            [
                "give_skill",
                [
                    "{unit}",
                    "Taskmaster+"
                ]
            ],
            [
                "change_growths",
                [
                    "{unit}",
                    "STR,5,MAG,5,SKL,5,SPD,5,DEF,5,RES,5"
                ]
            ],
            [
                "set_unit_field",
                [
                    "Shoebill",
                    "Blessed",
                    "True"
                ]
            ],
            [
                "change_class",
                [
                    "{unit}",
                    "Cavalier Shoebill"
                ]
            ],
            [
                "elif",
                [
                    "unit.nid == 'Kingfisher'"
                ]
            ],
            [
                "end_skip",
                []
            ],
            [
                "remove_skill",
                [
                    "{unit}",
                    "Long Targeting"
                ]
            ],
            [
                "give_skill",
                [
                    "{unit}",
                    "Long Targeting+"
                ]
            ],
            [
                "set_unit_field",
                [
                    "Kingfisher",
                    "Blessed",
                    "True"
                ]
            ],
            [
                "elif",
                [
                    "unit.nid == 'Cistia'"
                ]
            ],
            [
                "add_tag",
                [
                    "{unit}",
                    "Convoy"
                ]
            ],
            [
                "give_skill",
                [
                    "{unit}",
                    "Magic Pockets (Magic Pockets)"
                ]
            ],
            [
                "set_unit_field",
                [
                    "Cistia",
                    "Blessed",
                    "True"
                ]
            ],
            [
                "elif",
                [
                    "unit.nid == 'Fiachra'"
                ]
            ],
            [
                "give_skill",
                [
                    "{unit}",
                    "Armsthrift (Armsthrift)"
                ]
            ],
            [
                "set_unit_field",
                [
                    "Fiachra",
                    "Blessed",
                    "True"
                ]
            ],
            [
                "elif",
                [
                    "unit.nid == 'Accipiter'"
                ]
            ],
            [
                "remove_skill",
                [
                    "Accipiter",
                    "Steal"
                ]
            ],
            [
                "give_skill",
                [
                    "{unit}",
                    "Steal+"
                ]
            ],
            [
                "set_unit_field",
                [
                    "Accipiter",
                    "Blessed",
                    "True"
                ]
            ],
            [
                "elif",
                [
                    "unit.nid == 'Sionn'"
                ]
            ],
            [
                "give_skill",
                [
                    "{unit}",
                    "Scavanger (Scavanger2)"
                ]
            ],
            [
                "set_unit_field",
                [
                    "Sionn",
                    "Blessed",
                    "True"
                ]
            ],
            [
                "end",
                []
            ],
            [
                "show_layer",
                [
                    "MogallVisit"
                ]
            ],
            [
                "sound",
                [
                    "ItemBreak"
                ]
            ],
            [
                "move_unit",
                [
                    "{unit}",
                    "22,0",
                    "swoosh"
                ]
            ],
            [
                "else",
                []
            ],
            [
                "speak",
                [
                    "Mogall",
                    "Very well. Send in another."
                ]
            ],
            [
                "end",
                []
            ],
            [
                "else",
                []
            ],
            [
                "speak",
                [
                    "Mogall",
                    "Though I see you are already blessed. Send in another."
                ]
            ],
            [
                "end",
                []
            ],
            [
                "transition",
                [
                    "Close"
                ]
            ],
            [
                "remove_portrait",
                [
                    "Mogall"
                ]
            ],
            [
                "change_background",
                []
            ],
            [
                "transition",
                [
                    "Open"
                ]
            ],
            [
                "has_attacked",
                [
                    "{unit}"
                ]
            ],
            [
                "has_traded",
                [
                    "{unit}"
                ]
            ]
        ],
        "only_once": false,
        "priority": 20
    }
]