[
    {
        "name": "01. Chest",
        "trigger": "on_region_interact",
        "level_nid": "6",
        "condition": "region.nid == 'Chest'",
        "commands": [
            [
                "show_layer",
                [
                    "Chest",
                    "immediate"
                ]
            ],
            [
                "unlock",
                [
                    "{unit}"
                ]
            ],
            [
                "give_item",
                [
                    "{unit}",
                    "Blood Diamond"
                ]
            ],
            [
                "has_attacked",
                [
                    "{unit}"
                ]
            ]
        ],
        "only_once": true,
        "priority": 20
    }
]