[
    {
        "name": "02. Mercs Chat",
        "trigger": "enemy_turn_change",
        "level_nid": "6",
        "condition": "game.turncount == 1",
        "commands": [
            [
                "flicker_cursor",
                [
                    "Maki (Maki)"
                ]
            ],
            [
                "flicker_cursor",
                [
                    "Chezz (Chezz)"
                ]
            ],
            [
                "comment",
                [
                    "#chezz is the girl"
                ]
            ],
            [
                "multi_add_portrait",
                [
                    "Chezz",
                    "Left",
                    "Maki",
                    "Right"
                ]
            ],
            [
                "speak",
                [
                    "Maki",
                    "Hah!{w}\u2028We may be the worst\u2028militia members here alone,{w}\u2028but together, we're\u2028peerless warriors!{w}\u2028These new swords we've\u2028got are unstoppable!{w}"
                ]
            ],
            [
                "speak",
                [
                    "Chezz",
                    "\u2028I can't tell for sure,{w}\u2028but these look like\u2028no common highwaymen.{w}\u2028Let's at least be careful-"
                ]
            ],
            [
                "speak",
                [
                    "Maki",
                    "\u2028Who needs careful when\u2028we're damn near invincible?"
                ]
            ],
            [
                "expression",
                [
                    "Chezz",
                    "Smile"
                ]
            ],
            [
                "speak",
                [
                    "Chezz",
                    "\u2028You are an idiot, brother,{w}\u2028and I couldn't love\u2028you more for it."
                ]
            ],
            [
                "expression",
                [
                    "Chezz",
                    "NoSmile"
                ]
            ],
            [
                "speak",
                [
                    "Chezz",
                    "\u2028Let's take care that\u2028we <red>both</> <red>survive</>, shall we?{w}\u2028Won't have much to give to\u2028the town without each other."
                ]
            ],
            [
                "multi_remove_portrait",
                [
                    "Maki",
                    "Chezz"
                ]
            ]
        ],
        "only_once": false,
        "priority": 20
    }
]