[
    {
        "name": "06. Cook, Truk, Temporary Blue Units",
        "trigger": "turn_change",
        "level_nid": "6",
        "condition": "game.turncount == 4",
        "commands": [
            [
                "add_group",
                [
                    "T4Reinforcements"
                ]
            ],
            [
                "flicker_cursor",
                [
                    "Cook"
                ]
            ],
            [
                "flicker_cursor",
                [
                    "Truk"
                ]
            ],
            [
                "multi_add_portrait",
                [
                    "Cook",
                    "Left",
                    "Truk",
                    "Right"
                ]
            ],
            [
                "speak",
                [
                    "Cook",
                    "Heyo, brother!"
                ]
            ],
            [
                "speak",
                [
                    "Truk",
                    "You know what I love about <red>raiding villages</>?"
                ]
            ],
            [
                "speak",
                [
                    "Cook",
                    "Easy loot?"
                ]
            ],
            [
                "speak",
                [
                    "Truk",
                    "Easy loot!|You may still be in the mercenary life,|but you should join up with these guys for real.|We're doing a good thing, beating the brains out of these pompous magicians."
                ]
            ],
            [
                "speak",
                [
                    "Cook",
                    "Sorry, I'm still thinking about the loot.|So, think this town has any good bread we can steal?"
                ]
            ],
            [
                "speak",
                [
                    "Truk",
                    "No, you lugnut!|These're swamp dwellers, they probably eat raw frogs or something.|The Northmarch's an awful place.|I never want to come back here once the Fenians are done."
                ]
            ],
            [
                "speak",
                [
                    "Cook",
                    "Aww, man. We'd better kill them good, then!|To avenge those poor innocent frogs!"
                ]
            ],
            [
                "speak",
                [
                    "Truk",
                    "For the frogs!"
                ]
            ],
            [
                "multi_remove_portrait",
                [
                    "Cook",
                    "Truk"
                ]
            ],
            [
                "if",
                [
                    "game.check_alive('Sadhbh') and game.check_alive('Farl') and game.check_alive('Lychee')"
                ]
            ],
            [
                "add_portrait",
                [
                    "Sadhbh",
                    "Left"
                ]
            ],
            [
                "add_portrait",
                [
                    "Lychee",
                    "MidRight"
                ]
            ],
            [
                "add_portrait",
                [
                    "Farl",
                    "FarRight"
                ]
            ],
            [
                "speak",
                [
                    "Lychee",
                    "I hate to say it, but this isn't going too well."
                ]
            ],
            [
                "speak",
                [
                    "Farl",
                    "Ah, but think of the heroic ballad it would make!"
                ]
            ],
            [
                "speak",
                [
                    "Sadhbh",
                    "...You're not helping."
                ]
            ],
            [
                "speak",
                [
                    "Lychee",
                    "Standing around alone here like this won't get us anywhere.|Let's join up with lady... What's her name?|Cornelius? Cheeseburger? Cunlingshire?"
                ]
            ],
            [
                "speak",
                [
                    "Sadhbh",
                    "Hey, don't ask me! I don't remember either."
                ]
            ],
            [
                "speak",
                [
                    "Farl",
                    "Whatever the case, it's a fine idea if I do say so myself!|Let the verses of Huxberdt the Elder spur us on|as we accompany the noble and mercenaries!"
                ]
            ],
            [
                "speak",
                [
                    "Sadhbh",
                    "...Just remember, we must preserve our own lives as well."
                ]
            ],
            [
                "expression",
                [
                    "Sadhbh",
                    "CloseEyes"
                ]
            ],
            [
                "speak",
                [
                    "Sadhbh",
                    "I couldn't bear to lose either of you, too..."
                ]
            ],
            [
                "multi_remove_portrait",
                [
                    "Sadhbh",
                    "Lychee",
                    "Farl"
                ]
            ],
            [
                "end",
                []
            ],
            [
                "transition",
                [
                    "close"
                ]
            ],
            [
                "change_team",
                [
                    "Sadhbh",
                    "player"
                ]
            ],
            [
                "change_team",
                [
                    "Lychee",
                    "player"
                ]
            ],
            [
                "change_team",
                [
                    "Farl",
                    "player"
                ]
            ],
            [
                "transition",
                [
                    "open"
                ]
            ]
        ],
        "only_once": false,
        "priority": 20
    }
]