[
    {
        "name": "08. Turn 6 Reinforcements",
        "trigger": "turn_change",
        "level_nid": "6",
        "condition": "game.turncount == 5",
        "commands": [
            [
                "add_group",
                [
                    "T6Reinforcements"
                ]
            ],
            [
                "alert",
                [
                    "The fog fades..."
                ]
            ],
            [
                "transition",
                [
                    "close"
                ]
            ],
            [
                "wait",
                [
                    "500"
                ]
            ],
            [
                "level_var",
                [
                    "_fog_of_war_radius",
                    "7"
                ]
            ],
            [
                "wait",
                [
                    "500"
                ]
            ],
            [
                "transition",
                [
                    "open"
                ]
            ]
        ],
        "only_once": false,
        "priority": 20
    }
]