[
    {
        "name": "10. T8 Bosses Charge",
        "trigger": "turn_change",
        "level_nid": "6",
        "condition": "game.turncount == 8",
        "commands": [
            [
                "add_group",
                [
                    "T8Reinforcements"
                ]
            ],
            [
                "if",
                [
                    "game.check_alive('Steel Fox')"
                ]
            ],
            [
                "flicker_cursor",
                [
                    "Steel Fox"
                ]
            ],
            [
                "add_portrait",
                [
                    "Steel Fox",
                    "Left"
                ]
            ],
            [
                "speak",
                [
                    "Steel Fox",
                    "We're being beaten back so far,|and now those nefarious sorcerers have arrived on the scene...|This must end now.|With me, knights of the crown!|Under the banner of the Steel Fox, we <red>charge</>!"
                ]
            ],
            [
                "remove_portrait",
                [
                    "Steel Fox"
                ]
            ],
            [
                "change_ai",
                [
                    "Steel Fox",
                    "PursuePlayer"
                ]
            ],
            [
                "end",
                []
            ],
            [
                "if",
                [
                    "game.check_alive('Amada')"
                ]
            ],
            [
                "flicker_cursor",
                [
                    "Amada"
                ]
            ],
            [
                "add_portrait",
                [
                    "Amada",
                    "Right"
                ]
            ],
            [
                "expression",
                [
                    "Amada",
                    "CloseEyes"
                ]
            ],
            [
                "speak",
                [
                    "Amada",
                    "I'd hoped I wouldn't have to do this..."
                ]
            ],
            [
                "expression",
                [
                    "Amada",
                    "OpenEyes"
                ]
            ],
            [
                "speak",
                [
                    "Amada",
                    "Ready yourself, Bronach.|I'm coming myself to show you the truth.|Whatever that takes."
                ]
            ],
            [
                "remove_portrait",
                [
                    "Amada"
                ]
            ],
            [
                "change_ai",
                [
                    "Amada",
                    "Pursue"
                ]
            ],
            [
                "end",
                []
            ]
        ],
        "only_once": false,
        "priority": 20
    }
]