[
    {
        "name": "11. Turn 9 Reinforcements",
        "trigger": "turn_change",
        "level_nid": "6",
        "condition": "game.turncount == 9",
        "commands": [
            [
                "add_group",
                [
                    "T9Reinforcements"
                ]
            ],
            [
                "change_ai",
                [
                    "Ysbryd",
                    "Ch6CultistAI"
                ]
            ],
            [
                "give_skill",
                [
                    "T9_1",
                    "Fogbreaker",
                    "FLAG(no_banner)"
                ]
            ],
            [
                "give_skill",
                [
                    "T9_2",
                    "Fogbreaker",
                    "FLAG(no_banner)"
                ]
            ],
            [
                "give_skill",
                [
                    "Ysbryd",
                    "Fogbreaker",
                    "FLAG(no_banner)"
                ]
            ],
            [
                "alert",
                [
                    "The fog fades..."
                ]
            ],
            [
                "transition",
                [
                    "close"
                ]
            ],
            [
                "wait",
                [
                    "500"
                ]
            ],
            [
                "level_var",
                [
                    "_fog_of_war_radius",
                    "8"
                ]
            ],
            [
                "wait",
                [
                    "500"
                ]
            ],
            [
                "transition",
                [
                    "open"
                ]
            ]
        ],
        "only_once": false,
        "priority": 20
    }
]