[
    {
        "name": "12. End Main Chapter",
        "trigger": "turn_change",
        "level_nid": "6",
        "condition": "game.turncount == 11",
        "commands": [
            [
                "flicker_cursor",
                [
                    "Ennis (Ennis)"
                ]
            ],
            [
                "add_portrait",
                [
                    "Ennis",
                    "Right"
                ]
            ],
            [
                "speak",
                [
                    "Ennis",
                    "The sun rises...|The Fenians' attack is hopeless without the fog.|We've won."
                ]
            ],
            [
                "remove_portrait",
                [
                    "Ennis"
                ]
            ],
            [
                "transition",
                [
                    "close",
                    "1000"
                ]
            ],
            [
                "music",
                [
                    "Valkyrie Profile All is Twilight - Motoi Sakuraba"
                ]
            ],
            [
                "remove_all_units",
                []
            ],
            [
                "resurrect",
                [
                    "Amada"
                ]
            ],
            [
                "add_unit",
                [
                    "Ennis",
                    "12,11"
                ]
            ],
            [
                "add_unit",
                [
                    "Cormorant",
                    "10,13"
                ]
            ],
            [
                "add_unit",
                [
                    "Bronach",
                    "11,10"
                ]
            ],
            [
                "add_unit",
                [
                    "Amada",
                    "11,13"
                ]
            ],
            [
                "set_current_hp",
                [
                    "Bronach",
                    "100"
                ]
            ],
            [
                "set_current_hp",
                [
                    "Amada",
                    "1"
                ]
            ],
            [
                "move_cursor",
                [
                    "15,16",
                    "FLAG(immediate)"
                ]
            ],
            [
                "level_var",
                [
                    "_fog_of_war",
                    "0"
                ]
            ],
            [
                "remove_weather",
                [
                    "rain"
                ]
            ],
            [
                "transition",
                [
                    "open"
                ]
            ],
            [
                "add_portrait",
                [
                    "Cormorant",
                    "FarLeft"
                ]
            ],
            [
                "add_portrait",
                [
                    "Amada",
                    "Left"
                ]
            ],
            [
                "add_portrait",
                [
                    "Bronach",
                    "MidRight"
                ]
            ],
            [
                "add_portrait",
                [
                    "Ennis",
                    "FarRight"
                ]
            ],
            [
                "expression",
                [
                    "Amada",
                    "HalfCloseEyes"
                ]
            ],
            [
                "expression",
                [
                    "Bronach",
                    "CloseEyes"
                ]
            ],
            [
                "speak",
                [
                    "Cormorant",
                    "I've got her tied up."
                ]
            ],
            [
                "speak",
                [
                    "Bronach",
                    "Amada..."
                ]
            ],
            [
                "speak",
                [
                    "Amada",
                    "Why did you do this, Bronach?|Why did you stand against us?|Why didn't you listen to me?"
                ]
            ],
            [
                "expression",
                [
                    "Bronach",
                    "OpenEyes"
                ]
            ],
            [
                "speak",
                [
                    "Bronach",
                    "You can't bring your father back from the dead, or avenge him,|or whatever you're doing with this.|Throwing yourself in with these madmen won't fix anything.|All it does is scourge the Northmarch with more war and more deaths!"
                ]
            ],
            [
                "expression",
                [
                    "Bronach",
                    "CloseEyes"
                ]
            ],
            [
                "speak",
                [
                    "Bronach",
                    "Has it not seen enough of those?"
                ]
            ],
            [
                "speak",
                [
                    "Ennis",
                    "Stay calm, Chieftess Bronach.|Amada, if you value your life even the slighest bit,|tell me.|Who are the Fenians?|What are they doing in the Northmarch?"
                ]
            ],
            [
                "speak",
                [
                    "Amada",
                    "You didn't even know...|All of this, and you didn't know?"
                ]
            ],
            [
                "speak",
                [
                    "Ennis",
                    "..."
                ]
            ],
            [
                "speak",
                [
                    "Amada",
                    "We fight for a world free from magic!|Free from the tricks of fairies, the schemes of sorcerers,|the whims of the Suzerain!"
                ]
            ],
            [
                "speak",
                [
                    "Ennis",
                    "Whims of the Suzerain..."
                ]
            ],
            [
                "expression",
                [
                    "Ennis",
                    "CloseEyes"
                ]
            ],
            [
                "speak",
                [
                    "Ennis",
                    "I... cannot lie if I say I understand you|just a little bit better now."
                ]
            ],
            [
                "expression",
                [
                    "Ennis",
                    "OpenEyes"
                ]
            ],
            [
                "speak",
                [
                    "Cormorant",
                    "But how did attacking Ratsbridge help you with that?"
                ]
            ],
            [
                "expression",
                [
                    "Bronach",
                    "OpenEyes"
                ]
            ],
            [
                "speak",
                [
                    "Bronach",
                    "Our town is not one of grand magics.|What did we even have to offer to you?"
                ]
            ],
            [
                "speak",
                [
                    "Amada",
                    "It was YOU, Bronach!|YOU stood against us! YOU broke our foundations at every turn!|YOU brought the Fenians to Ratsbridge!"
                ]
            ],
            [
                "expression",
                [
                    "Bronach",
                    "CloseEyes"
                ]
            ],
            [
                "speak",
                [
                    "Bronach",
                    "No... no, Amada..."
                ]
            ],
            [
                "speak",
                [
                    "Amada",
                    "Ah, and we can't forget your friend there in the dress.|They sent the Steel Fox to claim some package of yours, noblewoman...|I don't know what."
                ]
            ],
            [
                "speak",
                [
                    "Ennis",
                    "...Amada.|Do the Fenians have anything to do with stolen explosives?"
                ]
            ],
            [
                "speak",
                [
                    "Amada",
                    "Not stolen... used for a better cause.|The Bishop's Barrow... We'd burn that to the ground, Bronach.|Burn away all its barrow-wights and spirits and gateways to dark realms."
                ]
            ],
            [
                "speak",
                [
                    "Ennis",
                    "So it was you...!"
                ]
            ],
            [
                "expression",
                [
                    "Bronach",
                    "OpenEyes"
                ]
            ],
            [
                "speak",
                [
                    "Bronach",
                    "Amada, please listen to me, one final time.|It doesn't have to end this way,|with your corpse lying in the mud of the Northmarch fens.|You can come back to Ratsbridge. You can still have a place in my home."
                ]
            ],
            [
                "speak",
                [
                    "Amada",
                    "...No. Never.|There's nothing left for me here."
                ]
            ],
            [
                "expression",
                [
                    "Amada",
                    "OpenEyes"
                ]
            ],
            [
                "speak",
                [
                    "Amada",
                    "There's nothing left for me in this magic-haunted world!"
                ]
            ],
            [
                "speak",
                [
                    "Cormorant",
                    "Wha- She slipped her bonds!{w} Watch out!"
                ]
            ],
            [
                "speak",
                [
                    "Amada",
                    "Bronach... mother...|I'll see you in hell!"
                ]
            ],
            [
                "multi_remove_portrait",
                [
                    "Amada",
                    "Bronach",
                    "Cormorant",
                    "Ennis"
                ]
            ],
            [
                "change_music",
                [
                    "player_battle",
                    "Silence"
                ]
            ],
            [
                "change_music",
                [
                    "enemy_battle",
                    "Silence"
                ]
            ],
            [
                "change_music",
                [
                    "other_battle",
                    "Silence"
                ]
            ],
            [
                "move_unit",
                [
                    "Amada",
                    "11,11"
                ]
            ],
            [
                "end_skip",
                []
            ],
            [
                "interact_unit",
                [
                    "Amada",
                    "Bronach",
                    "crit1,hit2,end",
                    "FLAG(force_animation)"
                ]
            ],
            [
                "kill_unit",
                [
                    "Amada"
                ]
            ],
            [
                "music",
                [
                    "The Dark Forest - Professor Layton vs. Phoenix Wright - Ace Attorney"
                ]
            ],
            [
                "flicker_cursor",
                [
                    "Bronach"
                ]
            ],
            [
                "add_portrait",
                [
                    "Bronach",
                    "Left"
                ]
            ],
            [
                "add_portrait",
                [
                    "Cormorant",
                    "MidRight"
                ]
            ],
            [
                "add_portrait",
                [
                    "Ennis",
                    "FarRight"
                ]
            ],
            [
                "expression",
                [
                    "Bronach",
                    "CloseEyes"
                ]
            ],
            [
                "speak",
                [
                    "Bronach",
                    "...|...N-no.|I can't have done this.|I can't have killed Amada.|She isn't dead.|She isn't...|she..."
                ]
            ],
            [
                "expression",
                [
                    "Ennis",
                    "CloseEyes"
                ]
            ],
            [
                "speak",
                [
                    "Ennis",
                    "Chieftess Bronach..."
                ]
            ],
            [
                "expression",
                [
                    "Cormorant",
                    "CloseEyes"
                ]
            ],
            [
                "speak",
                [
                    "Cormorant",
                    "...I'm sorry.|I'm so, so sorry."
                ]
            ],
            [
                "speak",
                [
                    "Bronach",
                    "How did it come to this...?|Was it my own blind rage that brought doom to Ratsbridge?|That drove Amada to turn her dagger on... on..."
                ]
            ],
            [
                "speak",
                [
                    "Cormorant",
                    "This... wasn't your fault, Bronach.|Amada chose her path of her own will.|Nothing I - nothing you could have done could have pulled her back."
                ]
            ],
            [
                "expression",
                [
                    "Ennis",
                    "HalfCloseEyes"
                ]
            ],
            [
                "speak",
                [
                    "Ennis",
                    "...Cor... We don't have time to get bogged down in grief.|I'll start burying the bodies of the militiamen who-"
                ]
            ],
            [
                "speak",
                [
                    "Bronach",
                    "No... it was you, wasn't it, Lady Connachta?"
                ]
            ],
            [
                "speak",
                [
                    "Ennis",
                    "Hm?"
                ]
            ],
            [
                "expression",
                [
                    "Bronach",
                    "OpenEyes"
                ]
            ],
            [
                "speak",
                [
                    "Bronach",
                    "\u2028It... can't have\u2028been me. It can't.{w}\u2028Amada said they were\u2028chasing your package!{w}\u2028You brought the Fenians\u2028to this town!{w}\u2028YOU{w} KILLED{w} MY{w} DAUGHTER!"
                ]
            ],
            [
                "expression",
                [
                    "Ennis",
                    "CloseEyes"
                ]
            ],
            [
                "speak",
                [
                    "Ennis",
                    "N-no... I didn't..."
                ]
            ],
            [
                "expression",
                [
                    "Cormorant",
                    "OpenEyes"
                ]
            ],
            [
                "speak",
                [
                    "Cormorant",
                    "That's absurd!"
                ]
            ],
            [
                "speak",
                [
                    "Bronach",
                    "\u2028To the deepest pits of\u2028hell with all of you!{w}\u2028Get out of Ratsbridge, before\u2028your madness takes any more lives!{w}\u2028Get!{w} OUT!{w}"
                ]
            ],
            [
                "speak",
                [
                    "Cormorant",
                    "...Lady Connachta... let's go."
                ]
            ],
            [
                "speak",
                [
                    "Ennis",
                    "..."
                ]
            ],
            [
                "multi_remove_portrait",
                [
                    "Ennis",
                    "Cormorant"
                ]
            ],
            [
                "wait",
                [
                    "500"
                ]
            ],
            [
                "remove_portrait",
                [
                    "Bronach"
                ]
            ],
            [
                "move_unit",
                [
                    "Ennis",
                    "13,22"
                ]
            ],
            [
                "move_unit",
                [
                    "Cormorant",
                    "11,22"
                ]
            ],
            [
                "flicker_cursor",
                [
                    "Bronach"
                ]
            ],
            [
                "add_portrait",
                [
                    "Bronach",
                    "Left"
                ]
            ],
            [
                "expression",
                [
                    "Bronach",
                    "CloseEyes"
                ]
            ],
            [
                "speak",
                [
                    "Bronach",
                    "...No... no...{w} Amada..."
                ]
            ],
            [
                "remove_portrait",
                [
                    "Bronach"
                ]
            ],
            [
                "transition",
                [
                    "close",
                    "1000"
                ]
            ],
            [
                "remove_all_units",
                []
            ],
            [
                "remove_weather",
                [
                    "dark"
                ]
            ],
            [
                "music",
                [
                    "rain"
                ]
            ],
            [
                "change_background",
                [
                    "Village 2 Rainy"
                ]
            ],
            [
                "transition",
                [
                    "open"
                ]
            ],
            [
                "add_portrait",
                [
                    "Cormorant",
                    "MidRight"
                ]
            ],
            [
                "add_portrait",
                [
                    "Ennis",
                    "FarRight"
                ]
            ],
            [
                "if",
                [
                    "game.check_alive('Maki') and game.check_alive('Chezz')"
                ]
            ],
            [
                "add_portrait",
                [
                    "Maki",
                    "FarLeft"
                ]
            ],
            [
                "add_portrait",
                [
                    "Chezz",
                    "MidLeft"
                ]
            ],
            [
                "speak",
                [
                    "Chezz",
                    "\u2028Well, brother, I'm still amazed\u2028we made it out of that alive."
                ]
            ],
            [
                "speak",
                [
                    "Maki",
                    "\u2028Hah!{w}\u2028That's just what happens when\u2028you trust in the Sibling Swords!"
                ]
            ],
            [
                "speak",
                [
                    "Chezz",
                    "\u2028Anyway, about you two.{w}\u2028Since we're no good fighters\u2028without our weapons of choice,{w}\u2028this old thing on the weapon\u2028rack isn't much use to us."
                ]
            ],
            [
                "speak",
                [
                    "Maki",
                    "\u2028It's a legendary weapon!{w}\u2028They say it's the\u2028sword of kings, even!{w}\u2028The Titan of Tir Conain herself\u2028carried one into battle{w}\u2028when she slew a hundred men!"
                ]
            ],
            [
                "speak",
                [
                    "Chezz",
                    "\u2028That's not a real story,\u2028and nobody says that."
                ]
            ],
            [
                "speak",
                [
                    "Maki",
                    "\u2028Behold!{w}\u2028The steel blade!"
                ]
            ],
            [
                "give_item",
                [
                    "Ennis",
                    "Arcane Epee"
                ]
            ],
            [
                "speak",
                [
                    "Chezz",
                    "\u2028...{w}\u2028...That's not the steel blade."
                ]
            ],
            [
                "speak",
                [
                    "Maki",
                    "\u2028Well, it's a sword.\u2028Close enough, right?"
                ]
            ],
            [
                "speak",
                [
                    "Cormorant",
                    "..."
                ]
            ],
            [
                "speak",
                [
                    "Ennis",
                    "\u2028If you're willing to offer it,\u2028I'd gladly take it nontheless."
                ]
            ],
            [
                "speak",
                [
                    "Chezz",
                    "\u2028You may as well.{w}\u2028I don't know where\u2028you're going exactly,{w}\u2028but I hope you'll\u2028put it to good use."
                ]
            ],
            [
                "speak",
                [
                    "Maki",
                    "The best use, I'm sure!"
                ]
            ],
            [
                "speak",
                [
                    "Chezz",
                    "\u2028I'm sorry about him. Really.{w}\u2028Let's just get back to\u2028burying the bodies, brother."
                ]
            ],
            [
                "speak",
                [
                    "Maki",
                    "Of course!"
                ]
            ],
            [
                "multi_remove_portrait",
                [
                    "Chezz",
                    "Maki"
                ]
            ],
            [
                "end",
                []
            ],
            [
                "if",
                [
                    "game.check_alive('Abka')"
                ]
            ],
            [
                "add_portrait",
                [
                    "Abka",
                    "Left"
                ]
            ],
            [
                "speak",
                [
                    "Abka",
                    "Heya!|Me name's Abka. Ye did a real good job 'gainst the Fenians,|so I thought I'd hand over the secrets of me trade!"
                ]
            ],
            [
                "speak",
                [
                    "Cormorant",
                    "Your trade?"
                ]
            ],
            [
                "speak",
                [
                    "Abka",
                    "Aye, an' that trade be bombmakin!|I used t' work with gunpowder fer blastin' open mines,|but it works just as well for blastin' heads!"
                ]
            ],
            [
                "speak",
                [
                    "Ennis",
                    "That's certainly true...|And with how much the Fenians have stolen,|the \"blastin' heads\" will be fearsome indeed."
                ]
            ],
            [
                "speak",
                [
                    "Abka",
                    "Th' Fenians, ye say?|Then ye'd best take me best gunpowder and give 'em hell!"
                ]
            ],
            [
                "remove_portrait",
                [
                    "Abka"
                ]
            ],
            [
                "give_item",
                [
                    "Ennis",
                    "Frosty Bomb"
                ]
            ],
            [
                "end",
                []
            ],
            [
                "if",
                [
                    "game.check_alive('Bryans')"
                ]
            ],
            [
                "add_portrait",
                [
                    "Bryans",
                    "Left"
                ]
            ],
            [
                "speak",
                [
                    "Bryans",
                    "Hey, duuudes."
                ]
            ],
            [
                "speak",
                [
                    "Cormorant",
                    "..."
                ]
            ],
            [
                "speak",
                [
                    "Ennis",
                    "..."
                ]
            ],
            [
                "speak",
                [
                    "Bryans",
                    "After seeing your performance in battle,|I thought I'd give you a gift."
                ]
            ],
            [
                "speak",
                [
                    "Ennis",
                    "No, thank you. I'm-"
                ]
            ],
            [
                "speak",
                [
                    "Bryans",
                    "What's the problem?|It's just a herb - my best, even."
                ]
            ],
            [
                "speak",
                [
                    "Cormorant",
                    "Is that what that smell is?"
                ]
            ],
            [
                "speak",
                [
                    "Bryans",
                    "What else would it be?"
                ]
            ],
            [
                "speak",
                [
                    "Ennis",
                    "Well, militiaman, thank you truly for this kind gift.|Cormorant, let's take our leave."
                ]
            ],
            [
                "remove_portrait",
                [
                    "Bryans"
                ]
            ],
            [
                "give_item",
                [
                    "Ennis (Ennis)",
                    "Fragrant Herb (Fragrant Herb)"
                ]
            ],
            [
                "end",
                []
            ],
            [
                "if",
                [
                    "game.check_alive('Farl') and game.check_alive('Lychee') and game.check_alive('Sadhbh')"
                ]
            ],
            [
                "music",
                [
                    "Thracia-776-Union-of-Knights"
                ]
            ],
            [
                "add_portrait",
                [
                    "Sadhbh",
                    "FarLeft"
                ]
            ],
            [
                "add_portrait",
                [
                    "Farl",
                    "Left"
                ]
            ],
            [
                "add_portrait",
                [
                    "Lychee",
                    "MidLeft"
                ]
            ],
            [
                "speak",
                [
                    "Lychee",
                    "Hey, hold up!"
                ]
            ],
            [
                "speak",
                [
                    "Ennis",
                    "You fought with the militia, did you not?"
                ]
            ],
            [
                "speak",
                [
                    "Farl",
                    "And with you.|And we did a pretty good job, if I do say so myself!"
                ]
            ],
            [
                "speak",
                [
                    "Sadhbh",
                    "..."
                ]
            ],
            [
                "speak",
                [
                    "Lychee",
                    "So the three of us've been talking,|and we've decided we want to come with you."
                ]
            ],
            [
                "speak",
                [
                    "Cormorant",
                    "Will the Chieftess be okay with that?"
                ]
            ],
            [
                "speak",
                [
                    "Farl",
                    "She's hardly in a position to stop us now, is she?"
                ]
            ],
            [
                "speak",
                [
                    "Lychee",
                    "And I don't think she'd object to knocking the Fenians around a bit."
                ]
            ],
            [
                "speak",
                [
                    "Ennis",
                    "How... is Chieftess Bronach?"
                ]
            ],
            [
                "speak",
                [
                    "Sadhbh",
                    "...She... needs some time.|I never really knew Amada well, but losing her like that...|isn't something you can climb back from easily."
                ]
            ],
            [
                "speak",
                [
                    "Cormorant",
                    "..."
                ]
            ],
            [
                "speak",
                [
                    "Ennis",
                    "We'd be glad for your help, then.|After what I've learned today...|We're taking the fight to the Fenians. That's one thing that's certain."
                ]
            ],
            [
                "speak",
                [
                    "Cormorant",
                    "...So who are each of you exactly?"
                ]
            ],
            [
                "speak",
                [
                    "Lychee",
                    "I thought you'd never ask!|I'm Lychee, the second-best axe arm in Ratsbridge!|I've worked out and sparred every day for a moment like this."
                ]
            ],
            [
                "speak",
                [
                    "Farl",
                    "Now don't get too ahead of yourself, Lychee!|This is a company of fighters we're joining.|I'd imagine every one of them is just as trained as you!"
                ]
            ],
            [
                "speak",
                [
                    "Cormorant",
                    "Hah. Haven't met Kingfisher, then?"
                ]
            ],
            [
                "speak",
                [
                    "Ennis",
                    "You, in the hat."
                ]
            ],
            [
                "speak",
                [
                    "Farl",
                    "Call me Farl, the Voice of Thunder! Or just Farl.|I've got a miner's strength, a priest's healing,|and a true troubadour's musical genius!|With me in your party,|get ready for the best mountain shanties you've ever heard!"
                ]
            ],
            [
                "speak",
                [
                    "Sadhbh",
                    "..."
                ]
            ],
            [
                "speak",
                [
                    "Cormorant",
                    "Who's that in the back?"
                ]
            ],
            [
                "speak",
                [
                    "Lychee",
                    "Why don't you introduce yourself, Sadhbh?"
                ]
            ],
            [
                "speak",
                [
                    "Sadhbh",
                    "Sure. My name is... Sadhbh, like she said.|I... don't want to talk about what I can do."
                ]
            ],
            [
                "speak",
                [
                    "Farl",
                    "I can, if you'd like."
                ]
            ],
            [
                "speak",
                [
                    "Sadhbh",
                    "Sure."
                ]
            ],
            [
                "speak",
                [
                    "Farl",
                    "We don't know where she's from,|but the lass there's the best sorceress I've ever seen!|Just don't put any fire tomes near her."
                ]
            ],
            [
                "speak",
                [
                    "Ennis",
                    "Fire tomes? What's the story there?"
                ]
            ],
            [
                "remove_portrait",
                [
                    "Sadhbh"
                ]
            ],
            [
                "speak",
                [
                    "Cormorant",
                    "Seems you've scared her off, Lady Connachta."
                ]
            ],
            [
                "speak",
                [
                    "Lychee",
                    "Sadhbh's never fit in with conversations at all."
                ]
            ],
            [
                "expression",
                [
                    "Lychee",
                    "CloseEyes"
                ]
            ],
            [
                "speak",
                [
                    "Lychee",
                    "I was half-worried she'd run off and join the Fenians."
                ]
            ],
            [
                "speak",
                [
                    "Ennis",
                    "Thank you, all of you, for this help.|We won't forget any of what you've done today."
                ]
            ],
            [
                "speak",
                [
                    "Lychee",
                    "We won't forget you, either.|Cormorant and Ennis, saviors of Ratsbridge! Now those are heroic names!"
                ]
            ],
            [
                "speak",
                [
                    "Ennis",
                    "It's Lady Connachta, not Ennis.|And where did you even learn those na-"
                ]
            ],
            [
                "speak",
                [
                    "Farl",
                    "I'll have to compose a whole shanty about it!"
                ]
            ],
            [
                "add_portrait",
                [
                    "Sadhbh",
                    "FarLeft"
                ]
            ],
            [
                "speak",
                [
                    "Sadhbh",
                    "Oh no."
                ]
            ],
            [
                "speak",
                [
                    "Cormorant",
                    "...Let's get moving."
                ]
            ],
            [
                "end",
                []
            ],
            [
                "transition",
                [
                    "close"
                ]
            ],
            [
                "music",
                [
                    "rain"
                ]
            ],
            [
                "change_background",
                [
                    "Forest 2 Evening"
                ]
            ],
            [
                "transition",
                [
                    "open"
                ]
            ],
            [
                "multi_add_portrait",
                [
                    "Fiachra",
                    "FarLeft",
                    "Ennis",
                    "MidLeft",
                    "Cormorant",
                    "MidRight",
                    "Kingfisher",
                    "FarRight"
                ]
            ],
            [
                "speak",
                [
                    "Fiachra",
                    "Lady Connachta, we've fully cleared out of the village.|What's our next move?"
                ]
            ],
            [
                "speak",
                [
                    "Ennis",
                    "One thing's for certain.|The Fenians are the ones who stole the explosives,|and responsible for the attack on House Connachta.|I have had enough of running from place to place,|getting chased and ambushed all along the way.|We must take the fight to the Fenians.|We must destroy them."
                ]
            ],
            [
                "speak",
                [
                    "Kingfisher",
                    "C-Chieftess Bronach and Amada mentioned two locations we could go from here.|The Fenians have a h-hideout at Mount Hollowhorn,|and are gathering explosives for s-something at the Bishop's Barrow."
                ]
            ],
            [
                "speak",
                [
                    "Ennis",
                    "Then we're going to the barrow.|The Tuathan at the ruins said that's where the power of the Lia Fal would be revealed.|If the Fenians want to stop that, then we must pierce their defenses now."
                ]
            ],
            [
                "speak",
                [
                    "Cormorant",
                    "No. We're going to Hollowhorn."
                ]
            ],
            [
                "speak",
                [
                    "Ennis",
                    "Time is of the essence.|If we waste time besieging some mountain ruins,|then the Barrow could be destroyed while-"
                ]
            ],
            [
                "speak",
                [
                    "Cormorant",
                    "It's no wasted time, Lady Connachta.|Every day we let the Fenians recruit more members|is a day they spend killing innocents, tearing apart families,|separating mothers and daughters."
                ]
            ],
            [
                "speak",
                [
                    "Ennis",
                    "...!"
                ]
            ],
            [
                "speak",
                [
                    "Cormorant",
                    "Every day makes another Bronach and Amada!"
                ]
            ],
            [
                "speak",
                [
                    "Ennis",
                    "...So while we throw ourselves at Hollowhorn,|we let all our leads at the Bishop's Barrow be destroyed?|The secret of that ring of yours, gone forever?"
                ]
            ],
            [
                "speak",
                [
                    "Cormorant",
                    "..."
                ]
            ],
            [
                "remove_portrait",
                [
                    "Fiachra"
                ]
            ],
            [
                "add_portrait",
                [
                    "Abeni",
                    "FarLeft"
                ]
            ],
            [
                "speak",
                [
                    "Abeni",
                    "Enough of this argument!|The both of you need to calm down|so we can properly plan."
                ]
            ],
            [
                "speak",
                [
                    "Kingfisher",
                    "I-I agree."
                ]
            ],
            [
                "speak",
                [
                    "Ennis",
                    "...Pardon me, Lady Abeni. I let anger get the best of me."
                ]
            ],
            [
                "speak",
                [
                    "Cormorant",
                    "...Myself as well.|So where should we go?"
                ]
            ],
            [
                "speak",
                [
                    "Abeni",
                    "If you'd like my input, I would suggest that we..."
                ]
            ],
            [
                "transition",
                [
                    "close",
                    "1000"
                ]
            ],
            [
                "multi_remove_portrait",
                [
                    "Abeni",
                    "Kingfisher",
                    "Ennis",
                    "Cormorant"
                ]
            ],
            [
                "comment",
                [
                    "# Switch to Tiberius"
                ]
            ],
            [
                "change_background",
                [
                    "Bedroom"
                ]
            ],
            [
                "music",
                [
                    "OMORI OST - 082 Wandering Rose"
                ]
            ],
            [
                "transition",
                [
                    "open"
                ]
            ],
            [
                "multi_add_portrait",
                [
                    "Isador",
                    "FarLeft",
                    "Lim",
                    "MidLeft",
                    "Nialla",
                    "MidRight",
                    "Tiberius",
                    "FarRight"
                ]
            ],
            [
                "speak",
                [
                    "Isador",
                    "I have returned.|The gate at the forest ruins has been destroyed,|and its Tuathan caretaker taken captive."
                ]
            ],
            [
                "speak",
                [
                    "Lim",
                    "\u2028Release me from this pillory,\u2028black-hearted spawn of devilry!{w}"
                ]
            ],
            [
                "speak",
                [
                    "Tiberius",
                    "A Tuathan still resided there? Strange.|I thought they would've run and hid once we came through the area.|I trust the gunpowder you warped in did its job, though?"
                ]
            ],
            [
                "speak",
                [
                    "Isador",
                    "...It did."
                ]
            ],
            [
                "expression",
                [
                    "Isador",
                    "CloseEyes"
                ]
            ],
            [
                "speak",
                [
                    "Isador",
                    "Using my powers of warping to carry explosives about like a common workman..."
                ]
            ],
            [
                "expression",
                [
                    "Isador",
                    "OpenEyes"
                ]
            ],
            [
                "speak",
                [
                    "Isador",
                    "\u2028I must remind myself how profitable{w}\u2028this week of collaboration\u2028has been for us both."
                ]
            ],
            [
                "speak",
                [
                    "Tiberius",
                    "Indeed."
                ]
            ],
            [
                "speak",
                [
                    "Nialla",
                    "Prince Tiberius,|I still... distrust working with such a being as this Isador fellow."
                ]
            ],
            [
                "speak",
                [
                    "Tiberius",
                    "\u2028He is to be trusted,\u2028my dear Governess Nialla.{w}\u2028Despite our mutual...\u2028dislike of each other's natures,{w}\u2028we have a common goal of censoring\u2028the unrestrained power of Tirnanogue{w}\u2028and its abominable spawn..."
                ]
            ],
            [
                "expression",
                [
                    "Tiberius",
                    "Smile"
                ]
            ],
            [
                "speak",
                [
                    "Tiberius",
                    "at least for now."
                ]
            ],
            [
                "speak",
                [
                    "Isador",
                    "If there is nothing else to discuss,|I must return to my own projects before <red>he</> takes notice.|You know how to contact me when my talents are next needed."
                ]
            ],
            [
                "speak",
                [
                    "Tiberius",
                    "Of course. Take care, Isador."
                ]
            ],
            [
                "speak",
                [
                    "Isador",
                    "You as well, Prince Tiberius, Governess Nialla."
                ]
            ],
            [
                "sound",
                [
                    "Warp"
                ]
            ],
            [
                "remove_portrait",
                [
                    "Isador"
                ]
            ],
            [
                "speak",
                [
                    "Nialla",
                    "Prince Tiberius..."
                ]
            ],
            [
                "speak",
                [
                    "Tiberius",
                    "Allow me to teach you something, Governess.|Something you must learn if you are to join us Fenians in full.|The world is, at its core, nothing more than a chessboard.|And once those like my father and the Tuathans are taken off the board,|you will discover just what rules I truly play by.|And just what rewards I truly play to win."
                ]
            ],
            [
                "speak",
                [
                    "Lim",
                    "These maddened games will avail you not.|Such changes will never be by your hand wrought!"
                ]
            ],
            [
                "speak",
                [
                    "Tiberius",
                    "Ah, my little Tuathan friend. I had almost forgotten you.|As I was saying.|Sometimes, you must... make a show of your captures."
                ]
            ],
            [
                "speak",
                [
                    "Lim",
                    "No show will ever be-"
                ]
            ],
            [
                "speak",
                [
                    "Tiberius",
                    "Hand me that knife, Governess."
                ]
            ],
            [
                "speak",
                [
                    "Nialla",
                    "This one? With the runes?"
                ]
            ],
            [
                "speak",
                [
                    "Tiberius",
                    "Precisely."
                ]
            ],
            [
                "remove_portrait",
                [
                    "Nialla"
                ]
            ],
            [
                "speak",
                [
                    "Lim",
                    "You would not dare, for your dark fate-"
                ]
            ],
            [
                "move_portrait",
                [
                    "Tiberius",
                    "CenterRight"
                ]
            ],
            [
                "speak",
                [
                    "Tiberius",
                    "I suggest you start screaming, Tuathan."
                ]
            ],
            [
                "change_background",
                [
                    "BlackBackground"
                ]
            ],
            [
                "multi_remove_portrait",
                [
                    "Lim",
                    "Tiberius"
                ]
            ],
            [
                "speak",
                [
                    "Tiberius",
                    "I think I'll leave you with the barest sliver of life,|just enough to tell your fellow Tuathans never to cross us again.|Your friends at the Bishop's Barrow will understand that, won't they?"
                ]
            ],
            [
                "music_clear",
                []
            ],
            [
                "wait",
                [
                    "1000"
                ]
            ],
            [
                "sound",
                [
                    "Attack Hit 1"
                ]
            ],
            [
                "wait",
                [
                    "1000"
                ]
            ],
            [
                "sound",
                [
                    "Attack Hit 1"
                ]
            ],
            [
                "wait",
                [
                    "1000"
                ]
            ],
            [
                "sound",
                [
                    "Attack Hit 1"
                ]
            ],
            [
                "wait",
                [
                    "1000"
                ]
            ],
            [
                "sound",
                [
                    "Attack Hit 1"
                ]
            ],
            [
                "wait",
                [
                    "1000"
                ]
            ],
            [
                "sound",
                [
                    "Attack Hit 1"
                ]
            ],
            [
                "wait",
                [
                    "1000"
                ]
            ],
            [
                "speak",
                [
                    "Pitta",
                    "...How dreadful.|Prince Zackary deserves to know what happened here..."
                ]
            ],
            [
                "music",
                [
                    "Forest Campfire - Orange Free Sounds"
                ]
            ],
            [
                "comment",
                [
                    "#Feodor scene"
                ]
            ],
            [
                "end_skip",
                []
            ],
            [
                "change_background",
                [
                    "DeepForest"
                ]
            ],
            [
                "transition",
                [
                    "open"
                ]
            ],
            [
                "alert",
                [
                    "Earlier that night..."
                ]
            ],
            [
                "multi_add_portrait",
                [
                    "Feodor",
                    "Left",
                    "Mikhail",
                    "Right"
                ]
            ],
            [
                "speak",
                [
                    "Mikhail",
                    "...Hey, Feodor? You see that?"
                ]
            ],
            [
                "speak",
                [
                    "Feodor",
                    "See what?"
                ]
            ],
            [
                "speak",
                [
                    "Mikhail",
                    "There's something moving in those bushes."
                ]
            ],
            [
                "speak",
                [
                    "Feodor",
                    "Must be your imagination again.|...No, wait, I see it too."
                ]
            ],
            [
                "speak",
                [
                    "Mikhail",
                    "Hey, wait, that's...!"
                ]
            ],
            [
                "remove_portrait",
                [
                    "Feodor"
                ]
            ],
            [
                "move_portrait",
                [
                    "Mikhail",
                    "FarRight"
                ]
            ],
            [
                "add_portrait",
                [
                    "Feodor",
                    "MidRight"
                ]
            ],
            [
                "music",
                [
                    "Hollow Knight Dirtmouth - Christopher Larkin"
                ]
            ],
            [
                "add_portrait",
                [
                    "MU",
                    "Left"
                ]
            ],
            [
                "speak",
                [
                    "Feodor",
                    "{var:mu_name}...!|...Nah, I've got to be dreaming. Maybe it's a ghost or something.|Hey, Mik, you have some salt in your pack, right?"
                ]
            ],
            [
                "choice",
                [
                    "dialogue",
                    "",
                    "I'm no ghost.,This is really me.",
                    "",
                    "",
                    "center"
                ]
            ],
            [
                "speak",
                [
                    "MU",
                    "{var:dialogue}"
                ]
            ],
            [
                "speak",
                [
                    "Mikhail",
                    "Hold up. What'd you just say, Feodor?"
                ]
            ],
            [
                "speak",
                [
                    "Feodor",
                    "That's {var:acc_p}. Has to be.|A bit battered, but alive."
                ]
            ],
            [
                "speak",
                [
                    "Mikhail",
                    "Nah, you're just playing a joke on me. That's got to be-|...The hell?"
                ]
            ],
            [
                "speak",
                [
                    "MU",
                    "Mikhail!"
                ]
            ],
            [
                "speak",
                [
                    "Mikhail",
                    "You're really back...!|We never did find your body after the Connachta job...|How'd you survive anyhow?"
                ]
            ],
            [
                "choice",
                [
                    "dialogue",
                    "",
                    "I... saw this divine presence.,Pure skill.,...",
                    "",
                    "",
                    "center"
                ]
            ],
            [
                "speak",
                [
                    "MU",
                    "{var:dialogue}"
                ]
            ],
            [
                "if",
                [
                    "\"{var:dialogue}\" == 'I... saw this divine presence.'"
                ]
            ],
            [
                "speak",
                [
                    "Mikhail",
                    "So that's proof, eh, Feodor?|Some of that True Magic stuff's real."
                ]
            ],
            [
                "speak",
                [
                    "Feodor",
                    "\u2028Hmph.{w}\u2028{var:mu_name} is probably just\u2028tired and making things up.{w}\u2028I say we let {var:acc_p}\u2028be for a bit."
                ]
            ],
            [
                "end",
                []
            ],
            [
                "if",
                [
                    "\"{var:dialogue}\" == 'Pure skill.'"
                ]
            ],
            [
                "speak",
                [
                    "Mikhail",
                    "\u2028Really? I've seen you fight.{w}\u2028You're good, but you're not{w}\u2028\"survive alone in enemy\u2028territory for a week\" good."
                ]
            ],
            [
                "speak",
                [
                    "Feodor",
                    "Cut {var:acc_p} a bit of slack, Mik. I'm just glad to have {var:acc_p} back."
                ]
            ],
            [
                "end",
                []
            ],
            [
                "if",
                [
                    "\"{var:dialogue}\" == '...'"
                ]
            ],
            [
                "speak",
                [
                    "Mikhail",
                    "Don't want to talk about it, huh?"
                ]
            ],
            [
                "speak",
                [
                    "Feodor",
                    "Cut {var:acc_p} a bit of slack, Mik. I'm just glad to have {var:acc_p} back."
                ]
            ],
            [
                "end",
                []
            ],
            [
                "speak",
                [
                    "Mikhail",
                    "True, true. I just get worried, you know?|Guess I'd better go catch another rabbit."
                ]
            ],
            [
                "music_clear",
                []
            ],
            [
                "multi_remove_portrait",
                [
                    "MU",
                    "Mikhail",
                    "Feodor"
                ]
            ],
            [
                "multi_add_portrait",
                [
                    "Ayla",
                    "Left",
                    "Feodor",
                    "MidRight",
                    "MU",
                    "Right",
                    "Mikhail",
                    "FarRight"
                ]
            ],
            [
                "speak",
                [
                    "Ayla",
                    "You... At last we've found you."
                ]
            ],
            [
                "speak",
                [
                    "Feodor",
                    "Huh? Who the hell is this wench?"
                ]
            ],
            [
                "speak",
                [
                    "Ayla",
                    "And you are protecting {var:acc_p}, hm? Stand down."
                ]
            ],
            [
                "speak",
                [
                    "Mikhail",
                    "Sounds like something you need to do, unless you'd like an arrow in the head."
                ]
            ],
            [
                "choice",
                [
                    "dialogue",
                    "",
                    "What do you want?,Why are you looking for me?,...",
                    "",
                    "",
                    "center"
                ]
            ],
            [
                "speak",
                [
                    "MU",
                    "{var:dialogue}"
                ]
            ],
            [
                "speak",
                [
                    "Ayla",
                    "You were the worst of the four deserters, you know.|Abeni merely burned books, Osbert killed our men,|the Nameless barely rated an annoyance...|but you took the Heart, the key to the Rebuilding.|And that can never be forgiven."
                ]
            ],
            [
                "speak",
                [
                    "MU",
                    "I don't even have the Heart anymore-"
                ]
            ],
            [
                "speak",
                [
                    "Ayla",
                    "As if that matters.|Only your corpse will satisfy Her now."
                ]
            ],
            [
                "speak",
                [
                    "Feodor",
                    "Deserter? The Heart?|{var:mu_name}, just what the hell happened before we found you on the roadside?"
                ]
            ],
            [
                "choice",
                [
                    "dialogue",
                    "",
                    "Is that how I lost my memories...?,I don't know.,...",
                    "",
                    "",
                    "center"
                ]
            ],
            [
                "speak",
                [
                    "MU",
                    "{var:dialogue}"
                ]
            ],
            [
                "speak",
                [
                    "Ayla",
                    "Stay out of this, mercenaries.|Hand over {var:mu_name}, and you can go on your merry way."
                ]
            ],
            [
                "music",
                [
                    "Hollow Knight - Hornet"
                ]
            ],
            [
                "speak",
                [
                    "Mikhail",
                    "Not a goddamn chance."
                ]
            ],
            [
                "speak",
                [
                    "Feodor",
                    "We're not about to turn in {var:mu_name} to the likes of you.|Stand down or be cut down."
                ]
            ],
            [
                "speak",
                [
                    "Ayla",
                    "What a disappointment. Take positions, everyone.|We'll burn the whole forest to claim {var:mu_name} if we have to!"
                ]
            ],
            [
                "multi_remove_portrait",
                [
                    "Ayla",
                    "MU",
                    "Feodor",
                    "Mikhail"
                ]
            ],
            [
                "transition",
                [
                    "close"
                ]
            ],
            [
                "change_background",
                []
            ],
            [
                "change_tilemap",
                [
                    "Merc Campfire"
                ]
            ],
            [
                "load_unit",
                [
                    "FeodorC6",
                    "player"
                ]
            ],
            [
                "load_unit",
                [
                    "MikhailC6",
                    "player"
                ]
            ],
            [
                "load_unit",
                [
                    "AylaC6",
                    "enemy2"
                ]
            ],
            [
                "change_team",
                [
                    "Ezra (MU)",
                    "player"
                ]
            ],
            [
                "add_group",
                [
                    "CampfireGroup"
                ]
            ],
            [
                "add_unit",
                [
                    "Ezra (MU)",
                    "9,3"
                ]
            ],
            [
                "add_unit",
                [
                    "FeodorC6",
                    "10,4"
                ]
            ],
            [
                "add_unit",
                [
                    "MikhailC6",
                    "8,4"
                ]
            ],
            [
                "add_unit",
                [
                    "AylaC6",
                    "1,7"
                ]
            ],
            [
                "change_ai",
                [
                    "AylaC6",
                    "Guard"
                ]
            ],
            [
                "set_current_mana",
                [
                    "AylaC6",
                    "2"
                ]
            ],
            [
                "remove_tag",
                [
                    "Ezra (MU)",
                    "Boss"
                ]
            ],
            [
                "transition",
                [
                    "open"
                ]
            ],
            [
                "flicker_cursor",
                [
                    "MikhailC6"
                ]
            ],
            [
                "flicker_cursor",
                [
                    "Ezra (MU)"
                ]
            ],
            [
                "flicker_cursor",
                [
                    "FeodorC6"
                ]
            ],
            [
                "add_portrait",
                [
                    "Feodor",
                    "Left"
                ]
            ],
            [
                "add_portrait",
                [
                    "MU",
                    "MidRight"
                ]
            ],
            [
                "add_portrait",
                [
                    "Mikhail",
                    "FarRight"
                ]
            ],
            [
                "speak",
                [
                    "Mikhail",
                    "{var:mu_name}. Think you're good enough to fight?"
                ]
            ],
            [
                "choice",
                [
                    "dialogue",
                    "",
                    "As if I'd ever not be.,Just hand me that weapon.,...I hope so.,...",
                    "",
                    "",
                    "center"
                ]
            ],
            [
                "speak",
                [
                    "MU",
                    "{var:dialogue}"
                ]
            ],
            [
                "speak",
                [
                    "Mikhail",
                    "That's... good.|We've got some spare weapons in the camp. Grab one."
                ]
            ],
            [
                "speak",
                [
                    "Feodor",
                    "Mikhail! {var:mu_name}! Let's crush these bastards!"
                ]
            ],
            [
                "multi_remove_portrait",
                [
                    "Feodor",
                    "Mikhail",
                    "MU"
                ]
            ],
            [
                "for",
                [
                    "item",
                    "[item.uid for item in unit.items]"
                ]
            ],
            [
                "remove_item",
                [
                    "Ezra (MU)",
                    "{item}",
                    "no_banner"
                ]
            ],
            [
                "endf",
                []
            ],
            [
                "if",
                [
                    "game.get_unit('MU').klass in ['Mercenary', 'Myrmidon']"
                ]
            ],
            [
                "give_item",
                [
                    "Ezra (MU)",
                    "Iron Sword"
                ]
            ],
            [
                "elif",
                [
                    "game.get_unit('MU').klass in ['Cavalier', 'Soldier', 'Lance_Knight', 'Pegasus_Knight', 'Wyvern Rider']"
                ]
            ],
            [
                "give_item",
                [
                    "Ezra (MU)",
                    "Iron Lance"
                ]
            ],
            [
                "elif",
                [
                    "game.get_unit('MU').klass in ['Fighter', 'Pirate', 'Brigand', 'Axe_Knight', 'Wyvern Rider (Axe)']"
                ]
            ],
            [
                "give_item",
                [
                    "Ezra (MU)",
                    "Iron Axe"
                ]
            ],
            [
                "elif",
                [
                    "game.get_unit('MU').klass in ['Archer']"
                ]
            ],
            [
                "give_item",
                [
                    "Ezra (MU)",
                    "Iron Bow"
                ]
            ],
            [
                "elif",
                [
                    "game.get_unit('MU').klass in ['Monk']"
                ]
            ],
            [
                "give_item",
                [
                    "Ezra (MU)",
                    "Lightning"
                ]
            ],
            [
                "elif",
                [
                    "game.get_unit('MU').klass in ['Mage']"
                ]
            ],
            [
                "give_item",
                [
                    "Ezra (MU)",
                    "Fire"
                ]
            ],
            [
                "elif",
                [
                    "game.get_unit('MU').klass in ['Shaman']"
                ]
            ],
            [
                "give_item",
                [
                    "Ezra (MU)",
                    "Flux"
                ]
            ],
            [
                "elif",
                [
                    "game.get_unit('MU').klass in ['Thief']"
                ]
            ],
            [
                "give_item",
                [
                    "Ezra (MU)",
                    "Iron Dagger"
                ]
            ],
            [
                "end",
                []
            ],
            [
                "give_skill",
                [
                    "Ezra (MU)",
                    "Providence (Providence)",
                    "FLAG(no_banner)"
                ]
            ],
            [
                "give_skill",
                [
                    "Ezra (MU)",
                    "Hit +30",
                    "FLAG(no_banner)"
                ]
            ],
            [
                "autolevel_to",
                [
                    "Ezra (MU)",
                    "10"
                ]
            ],
            [
                "change_music",
                [
                    "player_phase",
                    "Hollow Knight - Hornet"
                ]
            ],
            [
                "change_music",
                [
                    "enemy_phase",
                    "Hollow Knight - Hornet"
                ]
            ],
            [
                "change_music",
                [
                    "enemy2_phase",
                    "Hollow Knight - Hornet"
                ]
            ],
            [
                "change_music",
                [
                    "player_battle",
                    "Hollow Knight - Hornet"
                ]
            ],
            [
                "change_music",
                [
                    "enemy_battle",
                    "Hollow Knight - Hornet"
                ]
            ],
            [
                "change_music",
                [
                    "enemy2_battle",
                    "Hollow Knight - Hornet"
                ]
            ],
            [
                "change_objective_simple",
                [
                    "Defeat Ayla"
                ]
            ],
            [
                "change_objective_win",
                [
                    "Defeat Ayla"
                ]
            ],
            [
                "change_objective_loss",
                [
                    "Any unit falls"
                ]
            ],
            [
                "choice",
                [
                    "battle_save",
                    "Would you like to save?",
                    "Yes,No"
                ]
            ],
            [
                "if",
                [
                    "game.game_vars['battle_save'] == 'Yes'"
                ]
            ],
            [
                "battle_save",
                []
            ],
            [
                "end",
                []
            ]
        ],
        "only_once": false,
        "priority": 20
    }
]