[
    {
        "name": "Death Amada",
        "trigger": "combat_end",
        "level_nid": "6",
        "condition": "game.check_dead('Amada') and game.turncount < 11",
        "commands": [
            [
                "add_portrait",
                [
                    "Amada",
                    "Left"
                ]
            ],
            [
                "speak",
                [
                    "Amada",
                    "No... no...!|It was... a glorious dream...!|I'm not... I can't die yet!"
                ]
            ],
            [
                "expression",
                [
                    "Amada",
                    "HalfCloseEyes"
                ]
            ],
            [
                "speak",
                [
                    "Amada",
                    "Mother...!"
                ]
            ],
            [
                "remove_portrait",
                [
                    "Amada"
                ]
            ]
        ],
        "only_once": true,
        "priority": 20
    }
]