[
    {
        "name": "Death Ysbryd",
        "trigger": "combat_end",
        "level_nid": "6",
        "condition": "game.check_dead('Ysbryd')",
        "commands": [
            [
                "add_portrait",
                [
                    "Ysbryd",
                    "Left"
                ]
            ],
            [
                "speak",
                [
                    "Ysbryd",
                    "Nnh... The Heart remains out of our grasp once more.|Pray forgive me, Suzerain, but I must take my leave...|for now."
                ]
            ],
            [
                "remove_portrait",
                [
                    "Ysbryd"
                ]
            ]
        ],
        "only_once": true,
        "priority": 20
    }
]