[
    {
        "name": "FightSF Moore",
        "trigger": "combat_start",
        "level_nid": "6",
        "condition": "check_pair('Steel Fox', 'MooreP')",
        "commands": [
            [
                "add_portrait",
                [
                    "Steel Fox",
                    "Left"
                ]
            ],
            [
                "add_portrait",
                [
                    "Moore",
                    "Right"
                ]
            ],
            [
                "speak",
                [
                    "Steel Fox",
                    "Curious.|I expected to ride against militiamen and Connachta's guards,|not a common corsair."
                ]
            ],
            [
                "speak",
                [
                    "Moore",
                    "I'll have you know I'm no mere thief.|I'm a goddamn privateer!"
                ]
            ],
            [
                "speak",
                [
                    "Steel Fox",
                    "Under what crown?|Braghedunn? Tashtal? The Remnere Sultanate?|Do you even posess a letter of marque?"
                ]
            ],
            [
                "speak",
                [
                    "Moore",
                    "That's none of your business."
                ]
            ],
            [
                "speak",
                [
                    "Steel Fox",
                    "Privateers disgust me. You're nothing more than hired thugs.|A ruffian like you deserves no titles and no mercy.|Ready yourself, pirate!"
                ]
            ],
            [
                "speak",
                [
                    "Moore",
                    "Hah! Just try to chip the wood on my ship!"
                ]
            ],
            [
                "remove_portrait",
                [
                    "Steel Fox"
                ]
            ],
            [
                "remove_portrait",
                [
                    "Moore"
                ]
            ]
        ],
        "only_once": true,
        "priority": 20
    }
]