[
    {
        "name": "FightYs Abeni",
        "trigger": "combat_start",
        "level_nid": "6",
        "condition": "check_pair('Ysbryd', 'Abeni')",
        "commands": [
            [
                "add_portrait",
                [
                    "Ysbryd",
                    "Left"
                ]
            ],
            [
                "add_portrait",
                [
                    "Abeni",
                    "Right"
                ]
            ],
            [
                "speak",
                [
                    "Ysbryd",
                    "One of the four traitors..."
                ]
            ],
            [
                "speak",
                [
                    "Abeni",
                    "Priestess Ysbryd...!|For how long have you chased me?"
                ]
            ],
            [
                "speak",
                [
                    "Ysbryd",
                    "I've waited years for this!|The research you burned, the progress you wasted, when you turned on us...|If not for you, Abeni, the Rebuilding would be complete by now!"
                ]
            ],
            [
                "speak",
                [
                    "Abeni",
                    "What has the Suzerain given you, Priestess?|What have her chosen who remained loyal to her claimed?"
                ]
            ],
            [
                "speak",
                [
                    "Ysbryd",
                    "Preach your heresy no more.|There is only one punishment for one who abandons the Suzerain's radiance.|Immortal, I shall make you pray with all your heart|that you were still able to die."
                ]
            ],
            [
                "remove_portrait",
                [
                    "Ysbryd"
                ]
            ],
            [
                "remove_portrait",
                [
                    "Abeni"
                ]
            ]
        ],
        "only_once": true,
        "priority": 20
    }
]