[
    {
        "name": "FightCook",
        "trigger": "combat_start",
        "level_nid": "6",
        "condition": "((unit.nid == \"Cook\" and unit2.team == 'player') or (unit2.nid == \"Cook\" and unit.team == 'player') or (unit.nid == \"Cook\" and unit2.team == 'other') or (unit2.nid == \"Cook\" and unit.team == 'other'))",
        "commands": [
            [
                "add_portrait",
                [
                    "Cook",
                    "Left"
                ]
            ],
            [
                "speak",
                [
                    "Cook",
                    "Hehe!|I'll chop you up and make you into a stew!"
                ]
            ],
            [
                "remove_portrait",
                [
                    "Cook"
                ]
            ]
        ],
        "only_once": true,
        "priority": 19
    }
]