[
    {
        "name": "House TR Destroy",
        "trigger": "Destructible",
        "level_nid": "6",
        "condition": "region.nid == 'TR Destroy'",
        "commands": [
            [
                "flicker_cursor",
                [
                    "{position}"
                ]
            ],
            [
                "show_layer",
                [
                    "TRRuin"
                ]
            ],
            [
                "alert",
                [
                    "The village was destroyed!"
                ]
            ],
            [
                "wait",
                [
                    "500"
                ]
            ]
        ],
        "only_once": true,
        "priority": 20
    }
]