[
    {
        "name": "House BL Visit",
        "trigger": "Visit",
        "level_nid": "6",
        "condition": "region.nid == 'BL Visit'",
        "commands": [
            [
                "transition",
                [
                    "Close"
                ]
            ],
            [
                "change_background",
                [
                    "Village 2 Rainy"
                ]
            ],
            [
                "transition",
                [
                    "Open"
                ]
            ],
            [
                "add_portrait",
                [
                    "{unit}",
                    "Right",
                    "no_block"
                ]
            ],
            [
                "add_portrait",
                [
                    "Man1",
                    "Left"
                ]
            ],
            [
                "speak",
                [
                    "Man1",
                    "So Makki and Chez are out there, huh?|I've trained them since they were a wee lad and lass.|Not that the training helped much, mind you,|but I put in the effort!|Seeing anything happen to those kids would break my heart.|Do take this and keep them safe."
                ]
            ],
            [
                "transition",
                [
                    "Close"
                ]
            ],
            [
                "show_layer",
                [
                    "BLClose"
                ]
            ],
            [
                "change_background",
                []
            ],
            [
                "transition",
                [
                    "Open"
                ]
            ],
            [
                "give_item",
                [
                    "{unit}",
                    "Mana Robe"
                ]
            ],
            [
                "has_traded",
                [
                    "{unit}"
                ]
            ]
        ],
        "only_once": true,
        "priority": 20
    }
]