[
    {
        "name": "00. Intro",
        "trigger": "level_start",
        "level_nid": "7",
        "condition": "True",
        "commands": [
            [
                "chapter_title",
                []
            ],
            [
                "remove_all_units",
                []
            ],
            [
                "show_layer",
                [
                    "Phase1"
                ]
            ],
            [
                "show_layer",
                [
                    "Phase2"
                ]
            ],
            [
                "show_layer",
                [
                    "Phase3"
                ]
            ],
            [
                "comment",
                [
                    "#Begin Base"
                ]
            ],
            [
                "game_var",
                [
                    "_base_market",
                    "True"
                ]
            ],
            [
                "game_var",
                [
                    "_prep_market",
                    "True"
                ]
            ],
            [
                "add_market_item",
                [
                    "Steel Sword"
                ]
            ],
            [
                "add_market_item",
                [
                    "Steel Lance"
                ]
            ],
            [
                "add_market_item",
                [
                    "Steel Axe"
                ]
            ],
            [
                "add_market_item",
                [
                    "Steel Bow"
                ]
            ],
            [
                "add_market_item",
                [
                    "Steel Dagger"
                ]
            ],
            [
                "add_market_item",
                [
                    "Thunder"
                ]
            ],
            [
                "add_market_item",
                [
                    "Shine"
                ]
            ],
            [
                "add_base_convo",
                [
                    "Night Owls (!)"
                ]
            ],
            [
                "add_base_convo",
                [
                    "Different Strengths (!)"
                ]
            ],
            [
                "base",
                [
                    "Clearing",
                    "Therion"
                ]
            ],
            [
                "music_clear",
                []
            ],
            [
                "end_skip",
                []
            ],
            [
                "change_background",
                [
                    "BlackBackground"
                ]
            ],
            [
                "transition",
                []
            ],
            [
                "change_background",
                []
            ],
            [
                "change_tilemap",
                [
                    "Ch. 6"
                ]
            ],
            [
                "transition",
                []
            ],
            [
                "location_card",
                [
                    "Ratsbridge"
                ]
            ],
            [
                "center_cursor",
                [
                    "11,10"
                ]
            ],
            [
                "flicker_cursor",
                [
                    "11,10"
                ]
            ],
            [
                "transition",
                []
            ],
            [
                "change_background",
                [
                    "Inn"
                ]
            ],
            [
                "transition",
                []
            ],
            [
                "add_portrait",
                [
                    "Bronach",
                    "Left"
                ]
            ],
            [
                "expression",
                [
                    "Bronach",
                    "CloseEyes"
                ]
            ],
            [
                "speak",
                [
                    "Bronach",
                    "Ah...Amada...|I have nothing left...|Nothing..."
                ]
            ],
            [
                "transition",
                [
                    "close"
                ]
            ],
            [
                "change_background",
                [
                    "BlackBackground"
                ]
            ],
            [
                "music",
                [
                    "Rainy Save Room"
                ]
            ],
            [
                "speak_style",
                [
                    "P",
                    "",
                    "center",
                    "",
                    "",
                    "",
                    "",
                    "clear",
                    "FLAG(fit)"
                ]
            ],
            [
                "speak_style",
                [
                    "Bronach",
                    "",
                    "",
                    "",
                    "2.0",
                    "",
                    "",
                    "clear"
                ]
            ],
            [
                "transition",
                [
                    "open",
                    "2000",
                    "0,0,0"
                ]
            ],
            [
                "speak",
                [
                    "",
                    "Nothing left? Are you so sure?",
                    "",
                    "",
                    "P"
                ]
            ],
            [
                "speak",
                [
                    "",
                    "H-Huh?|Who said that?|Show yourself!",
                    "",
                    "",
                    "Bronach"
                ]
            ],
            [
                "speak",
                [
                    "",
                    "You've met with a great tragedy, haven't you?",
                    "",
                    "",
                    "P"
                ]
            ],
            [
                "speak",
                [
                    "",
                    "But there's still more for you to do.",
                    "",
                    "",
                    "P"
                ]
            ],
            [
                "speak",
                [
                    "",
                    "No, you're wrong!|I have nothing!",
                    "",
                    "",
                    "Bronach"
                ]
            ],
            [
                "speak",
                [
                    "",
                    "Surely you must know who's responsible for your daughter's death?",
                    "",
                    "",
                    "P"
                ]
            ],
            [
                "speak",
                [
                    "",
                    "In that case, you must do what's necessary.",
                    "",
                    "",
                    "P"
                ]
            ],
            [
                "speak",
                [
                    "",
                    "Take your revenge!",
                    "",
                    "",
                    "P"
                ]
            ],
            [
                "speak",
                [
                    "",
                    "Revenge...",
                    "",
                    "",
                    "Bronach"
                ]
            ],
            [
                "speak",
                [
                    "",
                    "I shall grant you power.",
                    "",
                    "",
                    "P"
                ]
            ],
            [
                "speak",
                [
                    "",
                    "Take it, and do what you must.",
                    "",
                    "",
                    "P"
                ]
            ],
            [
                "wait",
                [
                    "300"
                ]
            ],
            [
                "sound",
                [
                    "lightning strike"
                ]
            ],
            [
                "wait",
                [
                    "500"
                ]
            ],
            [
                "speak",
                [
                    "",
                    "W-What is... this... power!?",
                    "",
                    "",
                    "Bronach"
                ]
            ],
            [
                "speak",
                [
                    "",
                    "GRAAAGH!!",
                    "",
                    "",
                    "Bronach"
                ]
            ],
            [
                "speak",
                [
                    "",
                    "Ennis... Ennis... ENNIS!!",
                    "",
                    "",
                    "Bronach"
                ]
            ],
            [
                "speak",
                [
                    "",
                    "YOU SHALL DIE BY MY HAND!",
                    "",
                    "",
                    "Bronach"
                ]
            ],
            [
                "wait",
                [
                    "300"
                ]
            ],
            [
                "sound",
                [
                    "lightning strike"
                ]
            ],
            [
                "music_clear",
                []
            ],
            [
                "wait",
                [
                    "500"
                ]
            ],
            [
                "transition",
                []
            ],
            [
                "change_tilemap",
                [
                    "Ch. 7"
                ]
            ],
            [
                "show_layer",
                [
                    "Phase1"
                ]
            ],
            [
                "show_layer",
                [
                    "Phase2"
                ]
            ],
            [
                "show_layer",
                [
                    "Phase3"
                ]
            ],
            [
                "add_unit",
                [
                    "Cormorant (Cormorant)",
                    "22,21"
                ]
            ],
            [
                "add_unit",
                [
                    "Ennis (Ennis)",
                    "23,20"
                ]
            ],
            [
                "change_background",
                []
            ],
            [
                "transition",
                []
            ],
            [
                "end_skip",
                []
            ],
            [
                "location_card",
                [
                    "Bishop's Barrow...?"
                ]
            ],
            [
                "center_cursor",
                [
                    "Cormorant"
                ]
            ],
            [
                "flicker_cursor",
                [
                    "Cormorant (Cormorant)"
                ]
            ],
            [
                "transition",
                []
            ],
            [
                "music",
                [
                    "Radiant Dawn Tension - IS"
                ]
            ],
            [
                "change_background",
                [
                    "Clearing"
                ]
            ],
            [
                "transition",
                []
            ],
            [
                "add_portrait",
                [
                    "Cormorant",
                    "Right",
                    "FLAG(no_block)"
                ]
            ],
            [
                "add_portrait",
                [
                    "Kingfisher",
                    "MidLeft"
                ]
            ],
            [
                "speak",
                [
                    "Cormorant",
                    "Can't believe we decided where to go using a coin toss."
                ]
            ],
            [
                "speak",
                [
                    "Kingfisher",
                    "It's a fair method, if nothing else."
                ]
            ],
            [
                "speak",
                [
                    "Cormorant",
                    "That aside... hey, Ennis?"
                ]
            ],
            [
                "add_portrait",
                [
                    "Ennis",
                    "FarLeft"
                ]
            ],
            [
                "speak",
                [
                    "Ennis",
                    "What is it this time?|More complaining that we chose to go to Bishop's Barrow?"
                ]
            ],
            [
                "speak",
                [
                    "Cormorant",
                    "No, I've made my peace with that.|Now I'm just wondering when we'll get there.|You sure you know where we're going?"
                ]
            ],
            [
                "speak",
                [
                    "Ennis",
                    "...Surely we must be close by now."
                ]
            ],
            [
                "speak",
                [
                    "Cormorant",
                    "You don't know!?"
                ]
            ],
            [
                "speak",
                [
                    "Ennis",
                    "How should I?|Lim said it was in the Northmarch.|He wasn't exactly specific."
                ]
            ],
            [
                "speak",
                [
                    "Cormorant",
                    "Well now we definitely should have gone to|Mount Hollowhorn! At least we know where it is!"
                ]
            ],
            [
                "speak",
                [
                    "Kingfisher",
                    "So much for making your peace..."
                ]
            ],
            [
                "bop_portrait",
                [
                    "Ennis"
                ]
            ],
            [
                "speak",
                [
                    "Ennis",
                    "Look, this is clearly more important.|Bishop's Barrow may not be around|by the time we get there!"
                ]
            ],
            [
                "speak",
                [
                    "Cormorant",
                    "If we went to their base, perhaps|we could stop these plans before they even start!"
                ]
            ],
            [
                "speak",
                [
                    "Kingfisher",
                    "Here we go again..."
                ]
            ],
            [
                "multi_remove_portrait",
                [
                    "Cormorant",
                    "Ennis",
                    "Kingfisher"
                ]
            ],
            [
                "add_unit",
                [
                    "Goibniu_E",
                    "4,5"
                ]
            ],
            [
                "transition",
                []
            ],
            [
                "change_background",
                []
            ],
            [
                "transition",
                []
            ],
            [
                "end_skip",
                []
            ],
            [
                "move_cursor",
                [
                    "Goibniu (Goibniu_E)"
                ]
            ],
            [
                "flicker_cursor",
                [
                    "Goibniu (Goibniu_E)"
                ]
            ],
            [
                "transition",
                []
            ],
            [
                "change_background",
                [
                    "InsideCastle"
                ]
            ],
            [
                "transition",
                []
            ],
            [
                "music",
                [
                    "The Dark Forest - Professor Layton vs. Phoenix Wright - Ace Attorney"
                ]
            ],
            [
                "add_portrait",
                [
                    "Goibniu",
                    "Left"
                ]
            ],
            [
                "speak",
                [
                    "Goibniu",
                    "Hmm... so those are the folk Lim spoke of.|The Lady Connachta... I see the resemblance to her mother."
                ]
            ],
            [
                "add_portrait",
                [
                    "Caer3",
                    "Right"
                ]
            ],
            [
                "speak",
                [
                    "Caer3",
                    "U-Um, Sir Goibniu..."
                ]
            ],
            [
                "speak",
                [
                    "Goibniu",
                    "Ah, Caer. You're back.|And... not doing too well, it would seem.|Did you run into any trouble on the way back?"
                ]
            ],
            [
                "speak",
                [
                    "Caer3",
                    "I saw... a Fenian army.|About a day away."
                ]
            ],
            [
                "speak",
                [
                    "Goibniu",
                    "I see...|Any explosives with 'em?"
                ]
            ],
            [
                "speak",
                [
                    "Caer3",
                    "No...|Not that I saw."
                ]
            ],
            [
                "speak",
                [
                    "Goibniu",
                    "... Well, that's certainly odd, then."
                ]
            ],
            [
                "speak",
                [
                    "Caer3",
                    "Those people over there...|Who are they?"
                ]
            ],
            [
                "speak",
                [
                    "Goibniu",
                    "Just a few visitors.|You wouldn't know 'em.|I was thinking of messing with them a little.|See what they're made of.|Would be a good chance for you to let off|some steam as well."
                ]
            ],
            [
                "speak",
                [
                    "Caer3",
                    "You want to fight them?|Now?"
                ]
            ],
            [
                "speak",
                [
                    "Goibniu",
                    "It'll be safe.|I'll just pull 'em into Tirnanogue with us."
                ]
            ],
            [
                "speak",
                [
                    "Caer3",
                    "Into Tirnanogue?|Is that... truly wise?"
                ]
            ],
            [
                "speak",
                [
                    "Goibniu",
                    "Eh, wise or not, we gotta hide from the Fenians somehow."
                ]
            ],
            [
                "speak",
                [
                    "Caer3",
                    "You are...|Such a strange man."
                ]
            ],
            [
                "speak",
                [
                    "Goibniu",
                    "Strange?|Me?|Look in a mirror, lass.|You're far from normal yourself...|Anyway, let me give them the ol' meet and greet.|You pick a nice spot and... |try not to tear the place apart too much."
                ]
            ],
            [
                "multi_remove_portrait",
                [
                    "Goibniu",
                    "Caer3"
                ]
            ],
            [
                "end_skip",
                []
            ],
            [
                "transition",
                []
            ],
            [
                "change_background",
                []
            ],
            [
                "transition",
                []
            ],
            [
                "flicker_cursor",
                [
                    "Ennis"
                ]
            ],
            [
                "transition",
                []
            ],
            [
                "change_background",
                [
                    "Hill"
                ]
            ],
            [
                "transition",
                []
            ],
            [
                "multi_add_portrait",
                [
                    "Ennis",
                    "MidLeft",
                    "Cormorant",
                    "MidRight"
                ]
            ],
            [
                "speak",
                [
                    "Ennis",
                    "...and that is why we are here now.|We are to save Bishop's Barrow because it benefits us most,|and it is the just thing to do."
                ]
            ],
            [
                "change_background",
                [
                    "LavaCave",
                    "FLAG(keep_portraits)"
                ]
            ],
            [
                "sound",
                [
                    "lightning strike"
                ]
            ],
            [
                "music_clear",
                []
            ],
            [
                "speak",
                [
                    "Ennis",
                    "And another thing, we must make sure to-"
                ]
            ],
            [
                "speak",
                [
                    "Cormorant",
                    "W-W-What in blazes?"
                ]
            ],
            [
                "speak",
                [
                    "Ennis",
                    "Are you listening? We need to...|Wait, when did we get here?|Where is this, even?"
                ]
            ],
            [
                "add_portrait",
                [
                    "Goibniu",
                    "Left",
                    "FLAG(no_block)"
                ]
            ],
            [
                "sound",
                [
                    "Sword Whoosh"
                ]
            ],
            [
                "wait",
                [
                    "200"
                ]
            ],
            [
                "music",
                [
                    "Flouring With You be like"
                ]
            ],
            [
                "speak",
                [
                    "Goibniu",
                    "Heyo."
                ]
            ],
            [
                "speak",
                [
                    "Ennis",
                    "AH!"
                ]
            ],
            [
                "remove_portrait",
                [
                    "Ennis"
                ]
            ],
            [
                "add_portrait",
                [
                    "Ennis",
                    "FarRight"
                ]
            ],
            [
                "speak",
                [
                    "Ennis",
                    "W-Who are you?|How dare you sneak up on me!"
                ]
            ],
            [
                "speak",
                [
                    "Goibniu",
                    "You were looking for Bishop's Barrow, right?|Well look no further."
                ]
            ],
            [
                "wait",
                [
                    "1000"
                ]
            ],
            [
                "speak",
                [
                    "Cormorant",
                    "You're... kidding, right?|I imagined the place would look a bit... livelier."
                ]
            ],
            [
                "speak",
                [
                    "Goibniu",
                    "Well, I suppose this is only a small part of the place.|Just my forge, in fact.|And I may have done some... light remodeling."
                ]
            ],
            [
                "speak",
                [
                    "Ennis",
                    "I... find that hard to believe.|And you still haven't mentioned who you are."
                ]
            ],
            [
                "speak",
                [
                    "Goibniu",
                    "Ah, where are my manners.|I am known as Goibniu.|I'm a smith of some renown."
                ]
            ],
            [
                "speak",
                [
                    "Cormorant",
                    "So you're the guy-"
                ]
            ],
            [
                "speak",
                [
                    "Goibniu",
                    "You've been looking for, yes.|We can skip the chatter.|We both know why you're here.|But if you want my help, you'll need to prove your worth."
                ]
            ],
            [
                "speak",
                [
                    "Ennis",
                    "We didn't come here to take any tests,|we just want-"
                ]
            ],
            [
                "speak",
                [
                    "Goibniu",
                    "Nope, sorry, no can do.|Gotta pass my test."
                ]
            ],
            [
                "speak",
                [
                    "Ennis",
                    "But why though?"
                ]
            ],
            [
                "speak",
                [
                    "Goibniu",
                    "Because I said so!|YOU'RE asking ME for help, remember?|Grease my wheels at least a little bit, here.|Besides, test is simple.|<red>Defeat me within 12 hours.</>|That's all I can spare for ya.|You'll have to make your way through some monsters first, though."
                ]
            ],
            [
                "speak",
                [
                    "Cormorant",
                    "... Monsters?"
                ]
            ],
            [
                "speak",
                [
                    "Goibniu",
                    "Yea, Fomorians, they're called.|We use them to ward off attackers.|They're not so effective against Fenians these days, but...|Well, it doesn't matter.|Now, show me what you've got!"
                ]
            ],
            [
                "transition",
                []
            ],
            [
                "hide_layer",
                [
                    "Phase1"
                ]
            ],
            [
                "hide_layer",
                [
                    "Phase2"
                ]
            ],
            [
                "hide_layer",
                [
                    "Phase3"
                ]
            ],
            [
                "multi_remove_portrait",
                [
                    "Goibniu",
                    "Cormorant",
                    "Ennis"
                ]
            ],
            [
                "add_unit",
                [
                    "Caer_E",
                    "22,8"
                ]
            ],
            [
                "add_group",
                [
                    "monsters_start",
                    "starting",
                    "immediate"
                ]
            ],
            [
                "change_background",
                []
            ],
            [
                "move_unit",
                [
                    "Goibniu (Goibniu_E)",
                    "22,20",
                    "immediate"
                ]
            ],
            [
                "transition",
                []
            ],
            [
                "end_skip",
                []
            ],
            [
                "flicker_cursor",
                [
                    "Goibniu (Goibniu_E)"
                ]
            ],
            [
                "add_portrait",
                [
                    "Goibniu",
                    "Left"
                ]
            ],
            [
                "speak",
                [
                    "Goibniu",
                    "Oh, one more thing."
                ]
            ],
            [
                "center_cursor",
                [
                    "Caer (Caer_E)"
                ]
            ],
            [
                "flicker_cursor",
                [
                    "Caer (Caer_E)"
                ]
            ],
            [
                "speak",
                [
                    "Goibniu",
                    "See this lass here?"
                ]
            ],
            [
                "add_portrait",
                [
                    "Cormorant",
                    "OffscreenRight"
                ]
            ],
            [
                "speak",
                [
                    "Cormorant",
                    "L-Lass!?"
                ]
            ],
            [
                "remove_portrait",
                [
                    "Cormorant"
                ]
            ],
            [
                "speak",
                [
                    "Goibniu",
                    "Don't even consider fightin' her.|<red>If she dies, so do my chances</> <red>of helping you.</>|Just... keep your distance."
                ]
            ],
            [
                "remove_portrait",
                [
                    "Goibniu"
                ]
            ],
            [
                "center_cursor",
                [
                    "Goibniu (Goibniu_E)"
                ]
            ],
            [
                "move_unit",
                [
                    "Goibniu (Goibniu_E)",
                    "4,5",
                    "swoosh",
                    "FLAG(no_follow)"
                ]
            ],
            [
                "prep",
                [
                    "true",
                    "Pilgrimage"
                ]
            ]
        ],
        "only_once": false,
        "priority": 20
    }
]