[
    {
        "name": "04. Turn 3 but again",
        "trigger": "turn_change",
        "level_nid": "7",
        "condition": "'survival' in game.level_vars and game.level_vars.get('survival') == 2",
        "commands": [
            [
                "show_layer",
                [
                    "Phase2"
                ]
            ],
            [
                "center_cursor",
                [
                    "Ennis"
                ]
            ],
            [
                "flicker_cursor",
                [
                    "Ennis"
                ]
            ],
            [
                "add_portrait",
                [
                    "Ennis",
                    "Left",
                    "FLAG(no_block)"
                ]
            ],
            [
                "add_portrait",
                [
                    "Goibniu",
                    "Right"
                ]
            ],
            [
                "speak",
                [
                    "Ennis",
                    "What's going on?|Everything is... changing!?"
                ]
            ],
            [
                "speak",
                [
                    "Goibniu",
                    "We're being forced out of Tirnanogue, and not delicately.|The worlds are starting to... overlap a bit.|The environment doesn't always|match between the two, so watch your back."
                ]
            ],
            [
                "multi_remove_portrait",
                [
                    "Ennis",
                    "Goibniu"
                ]
            ],
            [
                "add_group",
                [
                    "zack_3",
                    "zack_3",
                    "fade",
                    "giveup",
                    "FLAG(create)"
                ]
            ],
            [
                "add_group",
                [
                    "zack_4",
                    "zack_4",
                    "fade",
                    "giveup",
                    "FLAG(create)"
                ]
            ]
        ],
        "only_once": false,
        "priority": 20
    }
]