[
    {
        "name": "06. Turn 5 but again",
        "trigger": "turn_change",
        "level_nid": "7",
        "condition": "'survival' in game.level_vars and game.level_vars.get('survival') == 4",
        "commands": [
            [
                "show_layer",
                [
                    "Phase3"
                ]
            ],
            [
                "add_region",
                [
                    "house",
                    "13,14",
                    "1,1",
                    "event",
                    "Visit"
                ]
            ],
            [
                "spawn_group",
                [
                    "Bronach",
                    "south",
                    "Bronach",
                    "",
                    "closest"
                ]
            ],
            [
                "center_cursor",
                [
                    "Bronach (Bronach_C7)"
                ]
            ],
            [
                "flicker_cursor",
                [
                    "Bronach (Bronach_C7)"
                ]
            ],
            [
                "add_portrait",
                [
                    "Bronach",
                    "Right"
                ]
            ],
            [
                "speak",
                [
                    "Bronach",
                    "Ennis!|Prepare to die, murderer!",
                    "",
                    "",
                    "noir"
                ]
            ],
            [
                "remove_portrait",
                [
                    "Bronach"
                ]
            ],
            [
                "center_cursor",
                [
                    "Ennis"
                ]
            ],
            [
                "flicker_cursor",
                [
                    "Ennis"
                ]
            ],
            [
                "add_portrait",
                [
                    "Ennis",
                    "MidLeft"
                ]
            ],
            [
                "speak",
                [
                    "Ennis",
                    "Oh, what now?|... Bronach?|What's she doing here?"
                ]
            ],
            [
                "add_portrait",
                [
                    "Goibniu",
                    "FarLeft"
                ]
            ],
            [
                "speak",
                [
                    "Goibniu",
                    "Careful, lass.|Something's off about that one.|Probably best to avoid her."
                ]
            ],
            [
                "speak",
                [
                    "Ennis",
                    "..."
                ]
            ],
            [
                "multi_remove_portrait",
                [
                    "Ennis",
                    "Goibniu"
                ]
            ],
            [
                "if",
                [
                    "game.check_alive('Pitta_C7')"
                ]
            ],
            [
                "center_cursor",
                [
                    "Pitta (Pitta_C7)"
                ]
            ],
            [
                "flicker_cursor",
                [
                    "Pitta (Pitta_C7)"
                ]
            ],
            [
                "add_portrait",
                [
                    "Pitta",
                    "Left"
                ]
            ],
            [
                "speak",
                [
                    "Pitta",
                    "Well, this is getting interesting now.|Guess I'll let this new intruder|deal with that Ennis girl.|Now then... time to settle the score."
                ]
            ],
            [
                "remove_portrait",
                [
                    "Pitta"
                ]
            ],
            [
                "change_ai",
                [
                    "Pitta (Pitta_C7)",
                    "Pursue_Cormorant"
                ]
            ],
            [
                "end",
                []
            ],
            [
                "add_group",
                [
                    "zack_5",
                    "zack_5",
                    "fade",
                    "giveup",
                    "FLAG(create)"
                ]
            ],
            [
                "add_group",
                [
                    "zack_4",
                    "zack_4",
                    "fade",
                    "giveup",
                    "FLAG(create)"
                ]
            ]
        ],
        "only_once": false,
        "priority": 20
    }
]