[
    {
        "name": "07. Outro",
        "trigger": "level_end",
        "level_nid": "7",
        "condition": "True",
        "commands": [
            [
                "transition",
                []
            ],
            [
                "change_background",
                [
                    "Hill"
                ]
            ],
            [
                "transition",
                []
            ],
            [
                "music",
                [
                    "Therion"
                ]
            ],
            [
                "add_portrait",
                [
                    "Ennis",
                    "MidRight",
                    "FLAG(no_block)"
                ]
            ],
            [
                "multi_add_portrait",
                [
                    "Cormorant",
                    "FarRight",
                    "Goibniu",
                    "MidLeft",
                    "Lim",
                    "FarLeft"
                ]
            ],
            [
                "speak",
                [
                    "Cormorant",
                    "Well, certainly didn't expect|half of what just went on."
                ]
            ],
            [
                "speak",
                [
                    "Goibniu",
                    "Bishop's Barrow is lost.|We've evacuated most of the citizens,|but losing the place is great loss."
                ]
            ],
            [
                "speak",
                [
                    "Ennis",
                    "Where will you go from here?"
                ]
            ],
            [
                "speak",
                [
                    "Goibniu",
                    "With you, of course!|Still gotta fix up that ring, after all.|A good opportunity for revenge, too.|What about you, Lim?"
                ]
            ],
            [
                "speak",
                [
                    "Lim",
                    "Alas, join you I cannot|For now my strength... serves me naught."
                ]
            ],
            [
                "remove_portrait",
                [
                    "Lim"
                ]
            ],
            [
                "speak",
                [
                    "Goibniu",
                    "He pushed himself too much.|Looks like he's... well enough, though.|I'll go find someone to help carry him."
                ]
            ],
            [
                "remove_portrait",
                [
                    "Goibniu"
                ]
            ],
            [
                "remove_portrait",
                [
                    "Cormorant"
                ]
            ],
            [
                "add_portrait",
                [
                    "Cormorant",
                    "MidLeft"
                ]
            ],
            [
                "speak",
                [
                    "Cormorant",
                    "So, Mount Hollowhorn next?|Fenians just gave us several good|reasons to pay 'em a visit."
                ]
            ],
            [
                "speak",
                [
                    "Ennis",
                    "We could, though we have other options available.|Some of the explosives went missing in Carthashire.|There could be leads there.|I'm also worried about Bronach.|Something wasn't right with her."
                ]
            ],
            [
                "speak",
                [
                    "Cormorant",
                    "Well, we sure as hell aren't flipping a coin again.|Though regardless of where we go,|we might be followed by Zackary's goons...|Let's gather the group and come to a consensus this time.|Nice and proper."
                ]
            ],
            [
                "speak",
                [
                    "Ennis",
                    "Oh, very well."
                ]
            ],
            [
                "multi_remove_portrait",
                [
                    "Ennis",
                    "Cormorant"
                ]
            ],
            [
                "if",
                [
                    "game.check_alive('Sionn') and game.check_alive('Caer')"
                ]
            ],
            [
                "end_skip",
                []
            ],
            [
                "transition",
                []
            ],
            [
                "change_background",
                [
                    "Clearing"
                ]
            ],
            [
                "transition",
                []
            ],
            [
                "add_portrait",
                [
                    "Sionn",
                    "Right",
                    "FLAG(no_block)"
                ]
            ],
            [
                "add_portrait",
                [
                    "Caer1",
                    "Left"
                ]
            ],
            [
                "speak",
                [
                    "Sionn",
                    "Heya.|You joining us as well?"
                ]
            ],
            [
                "speak",
                [
                    "Caer1",
                    "... Yes.|I will follow the bearer of the Lia F\u00e1l."
                ]
            ],
            [
                "speak",
                [
                    "Sionn",
                    "Glad to have ya aboard then... Shifter."
                ]
            ],
            [
                "speak",
                [
                    "Caer1",
                    "..."
                ]
            ],
            [
                "speak",
                [
                    "Sionn",
                    "Though I hafta say, never seen one quite like you.|Even I can't change into a dragon,|and I'd like to think I'm pretty good|at the whole shapeshifting thing."
                ]
            ],
            [
                "speak",
                [
                    "Caer1",
                    "... I am not like you.|I can only become a monster...|any other form is impossible."
                ]
            ],
            [
                "speak",
                [
                    "Sionn",
                    "That so?|Interesting...|And scary!|I can't imagine I'd have made it that far if|I threw a tantrum whenever I shifted.|What's that about?"
                ]
            ],
            [
                "expression",
                [
                    "Caer1",
                    "CloseEyes"
                ]
            ],
            [
                "speak",
                [
                    "Caer1",
                    "..."
                ]
            ],
            [
                "speak",
                [
                    "Sionn",
                    "Silent treatment, huh?|Well, that's fine then.|But if ya wanna talk about it, I'm here."
                ]
            ],
            [
                "remove_portrait",
                [
                    "Sionn"
                ]
            ],
            [
                "speak",
                [
                    "Caer1",
                    "I'm sorry..."
                ]
            ],
            [
                "remove_portrait",
                [
                    "Caer1"
                ]
            ],
            [
                "end",
                []
            ],
            [
                "end_skip",
                []
            ],
            [
                "transition",
                []
            ],
            [
                "change_background",
                [
                    "Hill"
                ]
            ],
            [
                "transition",
                []
            ],
            [
                "music",
                [
                    "Hollow Knight - Hornet"
                ]
            ],
            [
                "add_portrait",
                [
                    "Tiberius",
                    "Left",
                    "FLAG(no_block)"
                ]
            ],
            [
                "add_portrait",
                [
                    "Steel Fox",
                    "Right"
                ]
            ],
            [
                "speak",
                [
                    "Tiberius",
                    "You've returned.|How did the battle go?"
                ]
            ],
            [
                "speak",
                [
                    "Steel Fox",
                    "Most of the civilians fled.|They heeded our warning well, it would seem."
                ]
            ],
            [
                "speak",
                [
                    "Tiberius",
                    "So they did.|And what of Zackary?"
                ]
            ],
            [
                "speak",
                [
                    "Steel Fox",
                    "The young prince broke into Tirnanogue with ease.|Despite his attitude, he seems to|take his studies quite well."
                ]
            ],
            [
                "speak",
                [
                    "Tiberius",
                    "Did he finish the job?"
                ]
            ],
            [
                "speak",
                [
                    "Steel Fox",
                    "No.|Bishop's Barrow still stands, empty though it may be.|I suppose the young prince has no interest in destroying the place."
                ]
            ],
            [
                "speak",
                [
                    "Tiberius",
                    "He will never become King if|he cannot do what must be done.|Gather the explosives.|We have a message to send."
                ]
            ],
            [
                "speak",
                [
                    "Steel Fox",
                    "Yes... my liege."
                ]
            ],
            [
                "multi_remove_portrait",
                [
                    "Tiberius",
                    "Steel Fox"
                ]
            ],
            [
                "sound",
                [
                    "Forblaze1"
                ]
            ],
            [
                "sound",
                [
                    "Forblaze2"
                ]
            ],
            [
                "transition",
                [
                    "close",
                    "2000",
                    "128,0,0"
                ]
            ],
            [
                "add_lore",
                [
                    "Goibniu (Goibniu)"
                ]
            ],
            [
                "add_lore",
                [
                    "Caer (Caer)"
                ]
            ]
        ],
        "only_once": false,
        "priority": 20
    }
]