[
    {
        "name": "Armory",
        "trigger": "Armory",
        "level_nid": "7",
        "condition": "True",
        "commands": [
            [
                "transition",
                []
            ],
            [
                "change_background",
                [
                    "Armory"
                ]
            ],
            [
                "transition",
                []
            ],
            [
                "add_portrait",
                [
                    "Goibniu",
                    "Left",
                    "FLAG(no_block)"
                ]
            ],
            [
                "add_portrait",
                [
                    "{unit}",
                    "Right"
                ]
            ],
            [
                "speak",
                [
                    "Goibniu",
                    "Ah, so you managed to find my old armory!"
                ]
            ],
            [
                "speak",
                [
                    "{unit}",
                    "H-How did you-"
                ]
            ],
            [
                "speak",
                [
                    "Goibniu",
                    "Get here?|When I'm over yonder?|Don't worry about it.|Magic powers, comes with the territory.|Anyways, since you're here, why don't|you pick up a weapon?|Anything you see on the shelf over there."
                ]
            ],
            [
                "choice",
                [
                    "Weapon",
                    "Which do you choose?",
                    "Carnwennan|Shimmering Dagger,Gandiva|Splendid Bow,Short Axe|Rusty old Axe",
                    "",
                    "v",
                    "center",
                    "",
                    "",
                    "type_base_item"
                ]
            ],
            [
                "if",
                [
                    "game.game_vars['_last_choice'] == 'Carnwennan'"
                ]
            ],
            [
                "speak",
                [
                    "Goibniu",
                    "A beauty, that one is.|Allows you to zip all over a battlefield.|A fine choice!"
                ]
            ],
            [
                "give_item",
                [
                    "{unit}",
                    "Carnwennan (Carnwennan)"
                ]
            ],
            [
                "elif",
                [
                    "game.game_vars['_last_choice'] == 'Gandiva'"
                ]
            ],
            [
                "speak",
                [
                    "Goibniu",
                    "A keen eye you've got there!|That one's great for striking down hordes.|A fine choice!"
                ]
            ],
            [
                "give_item",
                [
                    "{unit}",
                    "Gandiva (Gandiva)"
                ]
            ],
            [
                "else",
                []
            ],
            [
                "speak",
                [
                    "Goibniu",
                    "You know, these are surprisingly hard to make.|Lots of people seem to hate them too.|I think they're neat though.|A fine choice!"
                ]
            ],
            [
                "give_item",
                [
                    "{unit}",
                    "Short Axe (Short Axe)"
                ]
            ],
            [
                "end",
                []
            ],
            [
                "multi_remove_portrait",
                [
                    "Goibniu",
                    "{unit}"
                ]
            ],
            [
                "change_background",
                []
            ],
            [
                "has_traded",
                [
                    "{unit}"
                ]
            ]
        ],
        "only_once": true,
        "priority": 20
    }
]