[
    {
        "name": "Death_Zackary",
        "trigger": "unit_death",
        "level_nid": "7",
        "condition": "unit.nid == 'Zackary_C7'",
        "commands": [
            [
                "add_portrait",
                [
                    "Zackary",
                    "Left"
                ]
            ],
            [
                "speak",
                [
                    "Zackary",
                    "Heck.|This wasn't supposed to happen!|I'm leaving now.|Consider yourself lucky!"
                ]
            ],
            [
                "remove_portrait",
                [
                    "Zackary"
                ]
            ]
        ],
        "only_once": false,
        "priority": 20
    }
]