[
    {
        "name": "Death_Caer_E",
        "trigger": "unit_death",
        "level_nid": "7",
        "condition": "unit.nid == 'Caer_E'",
        "commands": [
            [
                "add_portrait",
                [
                    "Caer4",
                    "FarLeft"
                ]
            ],
            [
                "speak",
                [
                    "Caer4",
                    "W-What?|What's...happening..."
                ]
            ],
            [
                "expression",
                [
                    "Caer4",
                    "CloseEyes"
                ]
            ],
            [
                "remove_portrait",
                [
                    "Caer4"
                ]
            ],
            [
                "remove_unit",
                [
                    "Caer_E"
                ]
            ],
            [
                "add_portrait",
                [
                    "Goibniu",
                    "Left"
                ]
            ],
            [
                "speak",
                [
                    "Goibniu",
                    "What the hell did I just tell you!?|You can forget our deal now, murderer!"
                ]
            ],
            [
                "remove_portrait",
                [
                    "Goibniu"
                ]
            ],
            [
                "lose_game",
                []
            ]
        ],
        "only_once": false,
        "priority": 20
    }
]