[
    {
        "name": "FightCaer_Sionn",
        "trigger": "combat_start",
        "level_nid": "7",
        "condition": "check_pair('Caer_E', 'Sionn')",
        "commands": [
            [
                "add_portrait",
                [
                    "Caer4",
                    "Left",
                    "FLAG(no_block)"
                ]
            ],
            [
                "add_portrait",
                [
                    "Sionn",
                    "Right"
                ]
            ],
            [
                "speak",
                [
                    "Sionn",
                    "Y'know, I tried shifting into a dragon once myself.|Didn't work so well,|maybe you could give me some pointers?"
                ]
            ],
            [
                "speak",
                [
                    "Caer4",
                    "..."
                ]
            ],
            [
                "speak",
                [
                    "Sionn",
                    "Er, not much of a talker, then?"
                ]
            ],
            [
                "multi_remove_portrait",
                [
                    "Caer4",
                    "Sionn"
                ]
            ]
        ],
        "only_once": true,
        "priority": 20
    }
]