[
    {
        "name": "FightZackary_Caer",
        "trigger": "combat_start",
        "level_nid": "7",
        "condition": "check_pair('Zackary_C7', 'Caer')",
        "commands": [
            [
                "add_portrait",
                [
                    "Zackary",
                    "Left",
                    "FLAG(no_block)"
                ]
            ],
            [
                "add_portrait",
                [
                    "Caer",
                    "Right"
                ]
            ],
            [
                "speak",
                [
                    "Zackary",
                    "I came to this place seeking relics, but...|Your stone will do nicely as well.|Hand it over, or die!"
                ]
            ],
            [
                "speak",
                [
                    "Caer",
                    "This stone brings...|Nothing but pain.|Even still... I cannot part with it."
                ]
            ],
            [
                "multi_remove_portrait",
                [
                    "Zackary",
                    "Caer"
                ]
            ]
        ],
        "only_once": true,
        "priority": 20
    }
]