[
    {
        "name": "FightGoibniu_Default",
        "trigger": "combat_start",
        "level_nid": "7",
        "condition": "check_default('Goibniu_E', ['Ennis', 'Cormorant'])",
        "commands": [
            [
                "add_portrait",
                [
                    "Goibniu_E",
                    "Left"
                ]
            ],
            [
                "speak",
                [
                    "Goibniu_E",
                    "So, you managed to reach me!|But the real challenge has only just begun!"
                ]
            ],
            [
                "remove_portrait",
                [
                    "Goibniu_E"
                ]
            ]
        ],
        "only_once": true,
        "priority": 20
    }
]