[
    {
        "name": "FightPitta_Cistia",
        "trigger": "combat_start",
        "level_nid": "7",
        "condition": "check_pair('Pitta_C7', 'Cistia')",
        "commands": [
            [
                "add_portrait",
                [
                    "Pitta",
                    "Left",
                    "FLAG(no_block)"
                ]
            ],
            [
                "add_portrait",
                [
                    "Cistia",
                    "Right"
                ]
            ],
            [
                "speak",
                [
                    "Cistia",
                    "Pitta!"
                ]
            ],
            [
                "speak",
                [
                    "Pitta",
                    "Oh, Tia... so you're with 'em too."
                ]
            ],
            [
                "speak",
                [
                    "Cistia",
                    "What is the meaning of this?|Does our shared past mean nothing to you?"
                ]
            ],
            [
                "speak",
                [
                    "Pitta",
                    "It's not about that, Tia.|You know I can't forgive Cor for what she did."
                ]
            ],
            [
                "speak",
                [
                    "Cistia",
                    "I know what happened to your|sister during the war was awful.|But you can't keep blaming Cor for that!|It wasn't her fault!"
                ]
            ],
            [
                "speak",
                [
                    "Pitta",
                    "Maybe it was, maybe it wasn't.|Doesn't matter now.|I can't change how I feel.|... I'm sorry."
                ]
            ],
            [
                "speak",
                [
                    "Cistia",
                    "Pitta..."
                ]
            ],
            [
                "multi_remove_portrait",
                [
                    "Pitta",
                    "Cistia"
                ]
            ]
        ],
        "only_once": true,
        "priority": 20
    }
]