[
    {
        "name": "FightBronach_Ennis",
        "trigger": "combat_start",
        "level_nid": "7",
        "condition": "check_pair('Bronach_C7', 'Ennis')",
        "commands": [
            [
                "add_portrait",
                [
                    "Bronach",
                    "Left",
                    "FLAG(no_block)"
                ]
            ],
            [
                "add_portrait",
                [
                    "Ennis",
                    "Right"
                ]
            ],
            [
                "speak",
                [
                    "Bronach",
                    "ENNIS!|I will have vengeance!|For Amada!"
                ]
            ],
            [
                "speak",
                [
                    "Ennis",
                    "Your daughter's death was indeed a tragedy...|But not one that I wrought.|Please, open your eyes!"
                ]
            ],
            [
                "multi_remove_portrait",
                [
                    "Bronach",
                    "Ennis"
                ]
            ]
        ],
        "only_once": true,
        "priority": 20
    }
]