[
    {
        "name": "FightGoibniu_Cormorant",
        "trigger": "combat_start",
        "level_nid": "7",
        "condition": "check_pair('Goibniu_E', 'Cormorant')",
        "commands": [
            [
                "add_portrait",
                [
                    "Goibniu_E",
                    "Left",
                    "FLAG(no_block)"
                ]
            ],
            [
                "add_portrait",
                [
                    "Cormorant",
                    "Right"
                ]
            ],
            [
                "speak",
                [
                    "Cormorant",
                    "I just gotta beat you down to win, right?"
                ]
            ],
            [
                "speak",
                [
                    "Goibniu_E",
                    "Indeed.|But you will find that I am no easy foe."
                ]
            ],
            [
                "speak",
                [
                    "Cormorant",
                    "Fine with me.|Oh, but none of your fancy magic crap!|Fight me fair and square!"
                ]
            ],
            [
                "speak",
                [
                    "Goibniu_E",
                    "Why, certainly."
                ]
            ],
            [
                "multi_remove_portrait",
                [
                    "Goibniu_E",
                    "Cormorant"
                ]
            ]
        ],
        "only_once": true,
        "priority": 20
    }
]