[
    {
        "name": "FightBronach_Default",
        "trigger": "combat_start",
        "level_nid": "7",
        "condition": "check_default('Bronach_C7', ['Ennis', 'Cormorant'])",
        "commands": [
            [
                "add_portrait",
                [
                    "Bronach",
                    "Left"
                ]
            ],
            [
                "speak",
                [
                    "Bronach",
                    "Stand aside!|I'm here for Ennis!|The rest of you are nothing!"
                ]
            ],
            [
                "remove_portrait",
                [
                    "Bronach"
                ]
            ]
        ],
        "only_once": true,
        "priority": 20
    }
]