[
    {
        "name": "FightZackary_Goibniu",
        "trigger": "combat_start",
        "level_nid": "7",
        "condition": "check_pair('Zackary_C7', 'Goibniu')",
        "commands": [
            [
                "add_portrait",
                [
                    "Zackary",
                    "Left",
                    "FLAG(no_block)"
                ]
            ],
            [
                "add_portrait",
                [
                    "Goibniu",
                    "Right"
                ]
            ],
            [
                "speak",
                [
                    "Goibniu",
                    "There are few who can so easily cross|the boundaries that separate our worlds.|You may be young, but you certainly do have talent."
                ]
            ],
            [
                "speak",
                [
                    "Zackary",
                    "But of course!|As the rightful king of the land, it is|no surprise that I possess such power."
                ]
            ],
            [
                "speak",
                [
                    "Goibniu",
                    "King?|You?|Gwa ha ha ha!"
                ]
            ],
            [
                "speak",
                [
                    "Zackary",
                    "S-Shut up, you Tuathan ape!|Don't you dare underestimate me!"
                ]
            ],
            [
                "multi_remove_portrait",
                [
                    "Zackary",
                    "Goibniu"
                ]
            ]
        ],
        "only_once": true,
        "priority": 20
    }
]