[
    {
        "name": "Select_Caer",
        "trigger": "unit_select",
        "level_nid": "7",
        "condition": "unit.nid == 'Caer'",
        "commands": [
            [
                "choice",
                [
                    "caer_tutorial",
                    "View Caer's tutorial?",
                    "Yes,No"
                ]
            ],
            [
                "if",
                [
                    "game.game_vars['caer_tutorial'] == 'Yes'"
                ]
            ],
            [
                "trigger_script",
                [
                    "Tutorial_Caer (7 Tutorial_Caer)"
                ]
            ],
            [
                "end",
                []
            ]
        ],
        "only_once": true,
        "priority": 20
    }
]