[
    {
        "name": "Tutorial_Caer",
        "trigger": null,
        "level_nid": "7",
        "condition": "True",
        "commands": [
            [
                "transition",
                []
            ],
            [
                "change_background",
                [
                    "InsideCastle"
                ]
            ],
            [
                "transition",
                []
            ],
            [
                "add_portrait",
                [
                    "Ennis",
                    "Right",
                    "FLAG(no_block)"
                ]
            ],
            [
                "add_portrait",
                [
                    "Caer",
                    "Left"
                ]
            ],
            [
                "speak",
                [
                    "Ennis",
                    "So, you're that Dragon from before.|Will you be alright?|You don't have to fight."
                ]
            ],
            [
                "speak",
                [
                    "Caer",
                    "It's... ok.|I will protect the Lia F\u00e1l."
                ]
            ],
            [
                "speak",
                [
                    "Ennis",
                    "I have questions about that,|but I suppose it can wait for now.|Er, how exactly will you be fighting?|Flame breath and claws?|Is that what Dragons do?"
                ]
            ],
            [
                "speak",
                [
                    "Caer",
                    "No... not exactly.|I try to keep my mana low, as having|too much can have... adverse effects."
                ]
            ],
            [
                "speak",
                [
                    "Ennis",
                    "So when a battle starts, we should expect you to have low mana?|Isn't that a bit troublesome for you?|How do you fight without it?"
                ]
            ],
            [
                "speak",
                [
                    "Caer",
                    "My Draconic Artes...|Whenever I use them, I will accumulate more mana.|I can only use one or two while my mana is low,|but once I'm at about half of my capacity,|I will have all of my powers available."
                ]
            ],
            [
                "speak",
                [
                    "Ennis",
                    "Interesting...|What kinds of powers are we talking about here?"
                ]
            ],
            [
                "speak",
                [
                    "Caer",
                    "I have a few offensive attacks.|They're similar to that Shaman's spells,|as they're aligned with the power of darkness."
                ]
            ],
            [
                "speak",
                [
                    "Ennis",
                    "Similar to Thrant?|Ah, so you're something of a Dark magic user, then?"
                ]
            ],
            [
                "speak",
                [
                    "Caer",
                    "I suppose that's the best way to put it...|But I also have some other spells.|They aren't used to defeat enemies.|They're more like... special spells."
                ]
            ],
            [
                "speak",
                [
                    "Ennis",
                    "Special spells...|So, like Staves?"
                ]
            ],
            [
                "speak",
                [
                    "Caer",
                    "Similar, yes.|I can put foes to sleep, grant flight to our allies...|I can even envelop the entire battlefield in fog."
                ]
            ],
            [
                "speak",
                [
                    "Ennis",
                    "Wow, that's quite a lot of power.|Think of all that we can do with those spells though!|With an entire army of fliers, we'll be unstoppable!"
                ]
            ],
            [
                "speak",
                [
                    "Caer",
                    "My power... has it's drawbacks though."
                ]
            ],
            [
                "speak",
                [
                    "Ennis",
                    "Oh?|What kinds of drawbacks?"
                ]
            ],
            [
                "speak",
                [
                    "Caer",
                    "If I use my abilities too much, and my mana exceeds my capacity...|I..."
                ]
            ],
            [
                "speak",
                [
                    "Ennis",
                    "Y-Yes, go on..."
                ]
            ],
            [
                "speak",
                [
                    "Caer",
                    "I will completely lose control of myself.|Much like what happened earlier."
                ]
            ],
            [
                "speak",
                [
                    "Ennis",
                    "..."
                ]
            ],
            [
                "speak",
                [
                    "Caer",
                    "So I can help all of us fly, but...|Well, when I'm too far gone,|I may try to hurt all of you.."
                ]
            ],
            [
                "speak",
                [
                    "Ennis",
                    "N-No, don't worry about it.|Only some of us need to fly.|No need to overexert yourself.|Really."
                ]
            ],
            [
                "speak",
                [
                    "Caer",
                    "If my mana starts to get too high,|my Dragonstone can be used to lower it.|It's... a good container for excess mana."
                ]
            ],
            [
                "speak",
                [
                    "Ennis",
                    "You have a lot of valuable tools...|But we'll need to be careful to|manage your mana appropriately.|Does that sum things up?"
                ]
            ],
            [
                "speak",
                [
                    "Caer",
                    "Yes..."
                ]
            ],
            [
                "speak",
                [
                    "Ennis",
                    "Ok then.|Glad to have you with us.|Now then, shall we retun to the battle?"
                ]
            ],
            [
                "multi_remove_portrait",
                [
                    "Ennis",
                    "Caer"
                ]
            ],
            [
                "transition",
                []
            ],
            [
                "change_background",
                []
            ],
            [
                "transition",
                []
            ]
        ],
        "only_once": false,
        "priority": 20
    }
]