[
    {
        "name": "BC Troublemaker",
        "trigger": "on_base_convo",
        "level_nid": "8",
        "condition": "unit == 'Troublemaker (!)'",
        "commands": [
            [
                "change_background",
                [
                    "Armory"
                ]
            ],
            [
                "music",
                [
                    "StreetFighting"
                ]
            ],
            [
                "add_portrait",
                [
                    "Lychee (Lychee)",
                    "Left",
                    "left"
                ]
            ],
            [
                "speak",
                [
                    "Lychee",
                    "Grahaha! I've got you now!"
                ]
            ],
            [
                "move_portrait",
                [
                    "Lychee (Lychee)",
                    "MidLeft"
                ]
            ],
            [
                "sound",
                [
                    "VillageDestroyed"
                ]
            ],
            [
                "add_portrait",
                [
                    "Accipiter (Accipiter)",
                    "Right"
                ]
            ],
            [
                "wait",
                [
                    "500"
                ]
            ],
            [
                "move_portrait",
                [
                    "Accipiter (Accipiter)",
                    "FarRight"
                ]
            ],
            [
                "speak",
                [
                    "Accipiter",
                    "D-damn!"
                ]
            ],
            [
                "mirror_portrait",
                [
                    "Accipiter (Accipiter)"
                ]
            ],
            [
                "move_portrait",
                [
                    "Accipiter (Accipiter)",
                    "OffscreenRight"
                ]
            ],
            [
                "wait",
                [
                    "200"
                ]
            ],
            [
                "speak",
                [
                    "Lychee",
                    "You aren't getting away!"
                ]
            ],
            [
                "move_portrait",
                [
                    "Lychee (Lychee)",
                    "OffscreenRight"
                ]
            ],
            [
                "music_clear",
                [
                    "2000"
                ]
            ],
            [
                "add_portrait",
                [
                    "Cistia (Cistia)",
                    "FarLeft",
                    "left"
                ]
            ],
            [
                "speak",
                [
                    "Cistia",
                    "What's gotten into them?{w}{br}Oh, Lychee dropped something!{w}{br}Is this... oh, that explains it."
                ]
            ],
            [
                "give_item",
                [
                    "Cistia (Cistia)",
                    "Special Drink"
                ]
            ]
        ],
        "only_once": false,
        "priority": 20
    }
]