[
    {
        "name": "Outro",
        "trigger": "level_end",
        "level_nid": "8",
        "condition": "True",
        "commands": [
            [
                "music_clear",
                []
            ],
            [
                "transition",
                [
                    "close"
                ]
            ],
            [
                "wait",
                [
                    "300"
                ]
            ],
            [
                "add_unit",
                [
                    "Fessian",
                    "0,0",
                    "immediate",
                    "closest",
                    "FLAG(no_warn)"
                ]
            ],
            [
                "resurrect",
                [
                    "Brandon (Brandon)"
                ]
            ],
            [
                "remove_skill",
                [
                    "Brandon (Brandon)",
                    "Raging Bull (Raging Bull)",
                    "FLAG(no_banner)"
                ]
            ],
            [
                "remove_tag",
                [
                    "Brandon (Brandon)",
                    "Boss"
                ]
            ],
            [
                "change_team",
                [
                    "Brandon (Brandon)",
                    "player"
                ]
            ],
            [
                "change_team",
                [
                    "Fessian (Fessian)",
                    "player"
                ]
            ],
            [
                "remove_unit",
                [
                    "Brandon",
                    "immediate"
                ]
            ],
            [
                "change_background",
                [
                    "Temple"
                ]
            ],
            [
                "music",
                [
                    "Therion"
                ]
            ],
            [
                "transition",
                [
                    "open"
                ]
            ],
            [
                "add_portrait",
                [
                    "Brandon (Brandon)",
                    "Right"
                ]
            ],
            [
                "add_portrait",
                [
                    "Remri (Remri)",
                    "MidRight",
                    "",
                    "FLAG(mirror)"
                ]
            ],
            [
                "speak",
                [
                    "Remri",
                    "Shhh... I'm here..."
                ]
            ],
            [
                "speak",
                [
                    "Brandon",
                    "...{w} I lost control again.{w}{br}I- I can't-"
                ]
            ],
            [
                "add_portrait",
                [
                    "Fessian (Fessian)",
                    "Left",
                    "left"
                ]
            ],
            [
                "speak",
                [
                    "Fessian",
                    "Happiness. Renewal. Hope.",
                    "",
                    "",
                    "noir"
                ]
            ],
            [
                "add_portrait",
                [
                    "Ennis (Ennis)",
                    "FarLeft",
                    "left"
                ]
            ],
            [
                "wait",
                [
                    "800"
                ]
            ],
            [
                "move_portrait",
                [
                    "Ennis (Ennis)",
                    "MidLeft"
                ]
            ],
            [
                "remove_portrait",
                [
                    "Fessian (Fessian)"
                ]
            ],
            [
                "speak",
                [
                    "Ennis",
                    "Remri, what was the point of these experiments?"
                ]
            ],
            [
                "mirror_portrait",
                [
                    "Remri (Remri)"
                ]
            ],
            [
                "speak",
                [
                    "Remri",
                    "To make us like you."
                ]
            ],
            [
                "speak",
                [
                    "Ennis",
                    "You mean... they were trying to create Immortals?"
                ]
            ],
            [
                "speak",
                [
                    "Remri",
                    "Yes."
                ]
            ],
            [
                "speak",
                [
                    "Brandon",
                    "They were never close.{w}{br}Each of us were failures."
                ]
            ],
            [
                "speak",
                [
                    "Remri",
                    "They believed the prisoners had to sacrifice in order to reach immortality.{w}{br}That's why they took Brandon's vision and Fess's speech."
                ]
            ],
            [
                "speak",
                [
                    "Ennis",
                    "That's horrible."
                ]
            ],
            [
                "speak",
                [
                    "Remri",
                    "It was her idea."
                ]
            ],
            [
                "add_portrait",
                [
                    "Abeni",
                    "FarLeft",
                    "left"
                ]
            ],
            [
                "speak",
                [
                    "Abeni",
                    "...",
                    "",
                    "",
                    "",
                    "",
                    "",
                    "",
                    "",
                    "3"
                ]
            ],
            [
                "mirror_portrait",
                [
                    "Ennis (Ennis)"
                ]
            ],
            [
                "speak",
                [
                    "Ennis",
                    "Abeni?"
                ]
            ],
            [
                "speak",
                [
                    "Abeni",
                    "I advised the cult on how it might be possible to create Immortals.{w}{br}I had no idea they were testing my hypotheses on unwilling prisoners."
                ]
            ],
            [
                "speak",
                [
                    "Remri",
                    "You visited us once."
                ]
            ],
            [
                "speak",
                [
                    "Brandon",
                    "Yes, I recognize your voice."
                ]
            ],
            [
                "speak",
                [
                    "Abeni",
                    "Right before I left the cult.{w}{br}Once I realized what was happening, I-"
                ]
            ],
            [
                "speak",
                [
                    "Remri",
                    "Abandoned us."
                ]
            ],
            [
                "speak",
                [
                    "Abeni",
                    "I didn't have a choice!"
                ]
            ],
            [
                "speak",
                [
                    "Remri",
                    "I don't believe you,{w} but this is a matter for later.{w}{br}The northern exit will place us in the heart of their fortress."
                ]
            ],
            [
                "speak",
                [
                    "Ennis",
                    "Which will begin our attack on Mount Hallowhorn.{w}{br}Once we're up there we'll need to gather information.{w}{br}We must uncover the leaders and goals of this organization."
                ]
            ],
            [
                "transition",
                [
                    "close",
                    "2000",
                    "128,0,0"
                ]
            ]
        ],
        "only_once": false,
        "priority": 20
    }
]