[
    {
        "name": "Rein1",
        "trigger": "turn_change",
        "level_nid": "8",
        "condition": "game.turncount == 4",
        "commands": [
            [
                "center_cursor",
                [
                    "9,0"
                ]
            ],
            [
                "wait",
                [
                    "300"
                ]
            ],
            [
                "add_unit",
                [
                    "Terrorist (116)",
                    "9,0"
                ]
            ],
            [
                "add_unit",
                [
                    "Terrorist (117)",
                    "10,0"
                ]
            ],
            [
                "wait",
                [
                    "500"
                ]
            ]
        ],
        "only_once": false,
        "priority": 20
    }
]