[
    {
        "name": "Warden dies",
        "trigger": "unit_death",
        "level_nid": "8",
        "condition": "unit.nid == '111'",
        "commands": [
            [
                "remove_map_anim",
                [
                    "OverchargeAura",
                    "Cult (111)",
                    "FLAG(no_warn)"
                ]
            ]
        ],
        "only_once": false,
        "priority": 20
    }
]