[
    {
        "name": "Intro",
        "trigger": "level_start",
        "level_nid": "9001",
        "condition": "True",
        "commands": [
            [
                "chapter_title",
                []
            ],
            [
                "change_background",
                [
                    "Village"
                ]
            ],
            [
                "remove_all_units",
                []
            ],
            [
                "add_unit",
                [
                    "Joshua",
                    "9,6",
                    "immediate"
                ]
            ],
            [
                "transition",
                [
                    "Open"
                ]
            ],
            [
                "add_portrait",
                [
                    "Joshua",
                    "Left"
                ]
            ],
            [
                "speak",
                [
                    "Joshua",
                    "Well, well. There's an arena in this town.|Perfect. My pocket's feeling a bit light."
                ]
            ],
            [
                "speak",
                [
                    "Joshua",
                    "Say, is that a cleric? It is!{br}And a gorgeous one at that."
                ]
            ],
            [
                "remove_portrait",
                [
                    "Joshua"
                ]
            ],
            [
                "transition",
                [
                    "Close"
                ]
            ],
            [
                "change_background",
                []
            ],
            [
                "center_cursor",
                [
                    "9,9",
                    "immediate"
                ]
            ],
            [
                "transition",
                [
                    "Open"
                ]
            ],
            [
                "comment",
                [
                    "# (Natasha runs past Joshua)"
                ]
            ],
            [
                "add_unit",
                [
                    "Natasha",
                    "9,16",
                    "immediate"
                ]
            ],
            [
                "move_unit",
                [
                    "Natasha",
                    "9,8"
                ]
            ],
            [
                "move_unit",
                [
                    "Joshua",
                    "9,7"
                ]
            ],
            [
                "flicker_cursor",
                [
                    "Joshua"
                ]
            ],
            [
                "transition",
                [
                    "Close"
                ]
            ],
            [
                "change_background",
                [
                    "Village"
                ]
            ],
            [
                "transition",
                [
                    "Open"
                ]
            ],
            [
                "add_portrait",
                [
                    "Natasha",
                    "Left"
                ]
            ],
            [
                "move_portrait",
                [
                    "Natasha",
                    "MidRight"
                ]
            ],
            [
                "add_portrait",
                [
                    "Joshua",
                    "Left"
                ]
            ],
            [
                "speak",
                [
                    "Joshua",
                    "Something amiss, Sister?{br}You look flustered."
                ]
            ],
            [
                "bop_portrait",
                [
                    "Natasha"
                ]
            ],
            [
                "speak",
                [
                    "Natasha",
                    "Ahhh!"
                ]
            ],
            [
                "remove_portrait",
                [
                    "Natasha"
                ]
            ],
            [
                "add_portrait",
                [
                    "Natasha",
                    "Right"
                ]
            ],
            [
                "speak",
                [
                    "Natasha",
                    "P-pardon me."
                ]
            ],
            [
                "speak",
                [
                    "Joshua",
                    "No, pardon me! I never meant to startle you.|May I offer my apologies...."
                ]
            ],
            [
                "speak",
                [
                    "Natasha",
                    "No, it's not necessary...{br}It was my fault.|Excuse me, I must be going...{br}Good day to you."
                ]
            ],
            [
                "comment",
                [
                    "# (Natasha leaves)"
                ]
            ],
            [
                "remove_portrait",
                [
                    "Natasha"
                ]
            ],
            [
                "speak",
                [
                    "Joshua",
                    "...And there she goes.|Not my lucky day...{br}She was quite the beauty, too.|Ah, such is life. I think I've time still to visit the arena, though."
                ]
            ],
            [
                "remove_portrait",
                [
                    "Joshua"
                ]
            ],
            [
                "transition",
                [
                    "Close"
                ]
            ],
            [
                "end_skip",
                []
            ],
            [
                "change_background",
                []
            ],
            [
                "remove_all_units",
                []
            ],
            [
                "comment",
                [
                    "# (View moves north, Glen is talking to Saar)"
                ]
            ],
            [
                "add_unit",
                [
                    "Saar",
                    "9,7",
                    "immediate"
                ]
            ],
            [
                "load_unit",
                [
                    "Cormag",
                    "enemy"
                ]
            ],
            [
                "add_unit",
                [
                    "Cormag",
                    "8,10",
                    "immediate"
                ]
            ],
            [
                "make_generic",
                [
                    "Glen",
                    "Wyvern Lord",
                    "1",
                    "enemy"
                ]
            ],
            [
                "add_unit",
                [
                    "Glen",
                    "9,9",
                    "immediate"
                ]
            ],
            [
                "transition",
                [
                    "Open"
                ]
            ],
            [
                "flicker_cursor",
                [
                    "Glen"
                ]
            ],
            [
                "transition",
                [
                    "Close"
                ]
            ],
            [
                "change_background",
                [
                    "Village"
                ]
            ],
            [
                "transition",
                [
                    "Open"
                ]
            ],
            [
                "add_portrait",
                [
                    "Saar",
                    "Left",
                    "no_block"
                ]
            ],
            [
                "add_portrait",
                [
                    "Glen",
                    "Right"
                ]
            ],
            [
                "speak",
                [
                    "Glen",
                    "Captain Saar of the Serafew Border Guard. How fare you?|I bring orders from His Majesty.|Rumor has it that Princess Eirika of Renais is making her way to Grado.|You are to find her and to place her in custody immediately."
                ]
            ],
            [
                "speak",
                [
                    "Saar",
                    "Yes, sir!"
                ]
            ],
            [
                "speak",
                [
                    "Glen",
                    "One more thing...|A traitor to the empire has fled Castle Grado.|We've received reports she is hiding somewhere here in Serafew.|I don't care if you have to tear this town apart. Find the turncoat."
                ]
            ],
            [
                "speak",
                [
                    "Saar",
                    "Yes, sir, General Glen!|If she resists, do we have permission to execute her?"
                ]
            ],
            [
                "speak",
                [
                    "Glen",
                    "...Yes. Permission granted."
                ]
            ],
            [
                "speak",
                [
                    "Saar",
                    "Understood! Grado's will be done.|The Grado Empire will repay the debt of betrayal with blood!"
                ]
            ],
            [
                "speak",
                [
                    "Glen",
                    "...His Majesty relies upon you, Captain. Be sure his trust is not misplaced.|That is all."
                ]
            ],
            [
                "speak",
                [
                    "Saar",
                    "Yes, sir!"
                ]
            ],
            [
                "remove_portrait",
                [
                    "Saar",
                    "no_block"
                ]
            ],
            [
                "remove_portrait",
                [
                    "Glen"
                ]
            ],
            [
                "transition",
                [
                    "Close"
                ]
            ],
            [
                "change_background",
                []
            ],
            [
                "transition",
                [
                    "Open"
                ]
            ],
            [
                "comment",
                [
                    "# (Saar leaves, Cormag comes)"
                ]
            ],
            [
                "move_unit",
                [
                    "Saar",
                    "9,2",
                    "no_follow"
                ]
            ],
            [
                "remove_unit",
                [
                    "Saar",
                    "immediate"
                ]
            ],
            [
                "move_unit",
                [
                    "Cormag",
                    "8,9"
                ]
            ],
            [
                "flicker_cursor",
                [
                    "Glen"
                ]
            ],
            [
                "transition",
                [
                    "Close"
                ]
            ],
            [
                "change_background",
                [
                    "Village"
                ]
            ],
            [
                "transition",
                [
                    "Open"
                ]
            ],
            [
                "add_portrait",
                [
                    "Cormag",
                    "Left",
                    "no_block"
                ]
            ],
            [
                "add_portrait",
                [
                    "Glen",
                    "Right"
                ]
            ],
            [
                "speak",
                [
                    "Glen",
                    "Such loyalty to the crown.|If only I could hold such conviction in the righteousness of our emperor."
                ]
            ],
            [
                "speak",
                [
                    "Cormag",
                    "Something troubling you, Brother?"
                ]
            ],
            [
                "speak",
                [
                    "Glen",
                    "No...Pay no mind to me.|Come, Cormag. Let's go.|From here, we ride northeast, back to the fort."
                ]
            ],
            [
                "speak",
                [
                    "Cormag",
                    "Very well."
                ]
            ],
            [
                "multi_remove_portrait",
                [
                    "Cormag",
                    "Glen"
                ]
            ],
            [
                "transition",
                [
                    "Close"
                ]
            ],
            [
                "change_background",
                []
            ],
            [
                "transition",
                [
                    "Open"
                ]
            ],
            [
                "comment",
                [
                    "# (They fly off, replaces by Seth and Eirika, outside the town)"
                ]
            ],
            [
                "move_unit",
                [
                    "Glen",
                    "14,5",
                    "no_block",
                    "no_follow"
                ]
            ],
            [
                "move_unit",
                [
                    "Cormag",
                    "14,4",
                    "no_follow"
                ]
            ],
            [
                "remove_unit",
                [
                    "Glen"
                ]
            ],
            [
                "remove_unit",
                [
                    "Cormag"
                ]
            ],
            [
                "transition",
                [
                    "Close"
                ]
            ],
            [
                "change_background",
                [
                    "VillageGate"
                ]
            ],
            [
                "transition",
                [
                    "Open"
                ]
            ],
            [
                "multi_add_portrait",
                [
                    "Eirika",
                    "Left",
                    "Seth",
                    "Right"
                ]
            ],
            [
                "speak",
                [
                    "Eirika",
                    "It's been so long since I last visited Serafew.|My brother and I used to pass through here en route to Grado.|I remember the harmony in which the people of both countries lived.|No walls divided our borders. No soldiers stood guard in high towers.|The border town... It was to me a symbol of the trust between Grado and Renais."
                ]
            ],
            [
                "speak",
                [
                    "Seth",
                    "...And now, it is firmly under the thumb of Grado's emperor."
                ]
            ],
            [
                "speak",
                [
                    "Eirika",
                    "The peace I remember in this city...|It seems like something from another time. It seems lost now... Forever."
                ]
            ],
            [
                "speak",
                [
                    "Seth",
                    "...The city doesn't seem to be very heavily patrolled.|They must feel it's not worth guarding with Castle Renais under their control.|We must try to not draw attention to ourselves. The west gate is undermanned...."
                ]
            ],
            [
                "add_portrait",
                [
                    "Saleh",
                    "OffscreenRight",
                    "immediate"
                ]
            ],
            [
                "speak",
                [
                    "Saleh",
                    "Pardon me, may I ask you a question?"
                ]
            ],
            [
                "comment",
                [
                    "# (Saleh appears)"
                ]
            ],
            [
                "remove_portrait",
                [
                    "Seth"
                ]
            ],
            [
                "move_portrait",
                [
                    "Eirika",
                    "FarLeft"
                ]
            ],
            [
                "add_portrait",
                [
                    "Seth",
                    "MidLeft"
                ]
            ],
            [
                "move_portrait",
                [
                    "Saleh",
                    "Right"
                ]
            ],
            [
                "speak",
                [
                    "Eirika",
                    "What is it?"
                ]
            ],
            [
                "speak",
                [
                    "Saleh",
                    "I'm looking for someone.|Have you seen a young girl with indigo hair?"
                ]
            ],
            [
                "speak",
                [
                    "Eirika",
                    "Indigo hair?|No...Sorry."
                ]
            ],
            [
                "speak",
                [
                    "Saleh",
                    "Hmmm...|Thank you. Sorry to intrude."
                ]
            ],
            [
                "comment",
                [
                    "# (Saleh leaves)"
                ]
            ],
            [
                "multi_remove_portrait",
                [
                    "Saleh",
                    "Eirika",
                    "Seth"
                ]
            ],
            [
                "multi_add_portrait",
                [
                    "Seth",
                    "FarLeft",
                    "Eirika",
                    "MidLeft"
                ]
            ],
            [
                "speak",
                [
                    "Eirika",
                    "There was something very odd about that man, wouldn't you say?"
                ]
            ],
            [
                "speak",
                [
                    "Seth",
                    "He did seem unusual. He didn't strike me as a Grado spy, but..."
                ]
            ],
            [
                "add_portrait",
                [
                    "SoldierRed",
                    "OffscreenRight",
                    "immediate"
                ]
            ],
            [
                "speak",
                [
                    "SoldierRed",
                    "Catch her! Don't let her escape!"
                ]
            ],
            [
                "speak",
                [
                    "SoldierRed",
                    "That way! She went that way!"
                ]
            ],
            [
                "speak",
                [
                    "Eirika",
                    "What's that?"
                ]
            ],
            [
                "speak",
                [
                    "Seth",
                    "It's coming from over there."
                ]
            ],
            [
                "speak",
                [
                    "Eirika",
                    "Let's see what the commotion is."
                ]
            ],
            [
                "multi_remove_portrait",
                [
                    "Seth",
                    "Eirika"
                ]
            ],
            [
                "transition",
                [
                    "Close"
                ]
            ],
            [
                "end_skip",
                []
            ],
            [
                "change_background",
                []
            ],
            [
                "remove_all_units",
                []
            ],
            [
                "transition",
                [
                    "Open"
                ]
            ],
            [
                "add_unit",
                [
                    "Natasha",
                    "10,3",
                    "immediate"
                ]
            ],
            [
                "move_unit",
                [
                    "Natasha",
                    "9,12"
                ]
            ],
            [
                "center_cursor",
                [
                    "9,10"
                ]
            ],
            [
                "add_group",
                [
                    "ThreeEnemies",
                    "ThreeEnemies",
                    "immediate"
                ]
            ],
            [
                "move_group",
                [
                    "ThreeEnemies",
                    "Starting",
                    "no_follow"
                ]
            ],
            [
                "multi_add_portrait",
                [
                    "Natasha",
                    "Left",
                    "SoldierRed",
                    "Right"
                ]
            ],
            [
                "comment",
                [
                    "# (Screen goes to town, there are some soldiers surrounding Natasha)"
                ]
            ],
            [
                "speak",
                [
                    "SoldierRed",
                    "Traitor Natasha!{br}Surrender peacefully.|Come quietly, and you may have the chance to explain yourself before His Majesty."
                ]
            ],
            [
                "speak",
                [
                    "Natasha",
                    "Wait, please.{br}You must listen to me!"
                ]
            ],
            [
                "speak",
                [
                    "SoldierRed",
                    "Take her."
                ]
            ],
            [
                "speak",
                [
                    "Natasha",
                    "No, you must believe me!|The emperor is not himself. You MUST be able to see that!"
                ]
            ],
            [
                "speak",
                [
                    "SoldierRed",
                    "Impugn the emperor at your peril!|We've been ordered to execute you if you offer any resistance.|But your words condemn you!"
                ]
            ],
            [
                "multi_remove_portrait",
                [
                    "Natasha",
                    "SoldierRed"
                ]
            ],
            [
                "end_skip",
                []
            ],
            [
                "spawn_group",
                [
                    "EnemyTeam",
                    "North",
                    "Starting",
                    "",
                    "stack"
                ]
            ],
            [
                "center_cursor",
                [
                    "7,14"
                ]
            ],
            [
                "add_unit",
                [
                    "Eirika",
                    "0,16",
                    "immediate"
                ]
            ],
            [
                "add_unit",
                [
                    "Seth",
                    "0,15",
                    "immediate"
                ]
            ],
            [
                "move_unit",
                [
                    "Seth",
                    "5,15",
                    "no_block"
                ]
            ],
            [
                "move_unit",
                [
                    "Eirika",
                    "6,16"
                ]
            ],
            [
                "flicker_cursor",
                [
                    "Seth"
                ]
            ],
            [
                "multi_add_portrait",
                [
                    "Seth",
                    "FarLeft",
                    "Eirika",
                    "MidLeft"
                ]
            ],
            [
                "speak",
                [
                    "Eirika",
                    "That cleric is a traitor to the throne of Grado?|What madness is this?"
                ]
            ],
            [
                "multi_remove_portrait",
                [
                    "Seth",
                    "Eirika"
                ]
            ],
            [
                "comment",
                [
                    "# (Natasha runs up to Eirika)"
                ]
            ],
            [
                "move_unit",
                [
                    "Natasha",
                    "6,15"
                ]
            ],
            [
                "flicker_cursor",
                [
                    "Eirika"
                ]
            ],
            [
                "multi_add_portrait",
                [
                    "Natasha",
                    "Left",
                    "Eirika",
                    "Right"
                ]
            ],
            [
                "speak",
                [
                    "Natasha",
                    "Ah..."
                ]
            ],
            [
                "speak",
                [
                    "Eirika",
                    "Are you all right?"
                ]
            ],
            [
                "speak",
                [
                    "Natasha",
                    "Who are you?"
                ]
            ],
            [
                "speak",
                [
                    "Eirika",
                    "I'm from Renais. Why are these Grado men after you?"
                ]
            ],
            [
                "speak",
                [
                    "Natasha",
                    "You're from Renais... Oh!|I have something I must tell you. It's about Grado--"
                ]
            ],
            [
                "speak",
                [
                    "Eirika",
                    "Wait--Grado soldiers are coming this way.|We'll have to talk later.{br}Now we must fight!"
                ]
            ],
            [
                "multi_remove_portrait",
                [
                    "Natasha",
                    "Eirika"
                ]
            ],
            [
                "transition",
                [
                    "Close"
                ]
            ],
            [
                "move_unit",
                [
                    "Eirika",
                    "",
                    "immediate"
                ]
            ],
            [
                "move_unit",
                [
                    "Natasha",
                    "",
                    "immediate"
                ]
            ],
            [
                "remove_unit",
                [
                    "Seth",
                    "immediate"
                ]
            ],
            [
                "center_cursor",
                [
                    "Eirika",
                    "immediate"
                ]
            ],
            [
                "transition",
                [
                    "Open"
                ]
            ],
            [
                "end_skip",
                []
            ],
            [
                "prep",
                [
                    "1"
                ]
            ],
            [
                "comment",
                [
                    "# After prep, have Joshua appear"
                ]
            ],
            [
                "center_cursor",
                [
                    "12,6"
                ]
            ],
            [
                "flicker_cursor",
                [
                    "12,6"
                ]
            ],
            [
                "add_unit",
                [
                    "Joshua",
                    "12,6"
                ]
            ],
            [
                "move_unit",
                [
                    "Joshua"
                ]
            ],
            [
                "flicker_cursor",
                [
                    "Joshua"
                ]
            ],
            [
                "add_portrait",
                [
                    "Joshua",
                    "Right"
                ]
            ],
            [
                "speak",
                [
                    "Joshua",
                    "So much for my dreams of making my fortune here...|First the girl, now the gold.{br}It really isn't my lucky day."
                ]
            ],
            [
                "add_portrait",
                [
                    "SoldierRed",
                    "Left"
                ]
            ],
            [
                "speak",
                [
                    "SoldierRed",
                    "You there! Mercenary! What are you doing here at the arena?|Get back to the staging area now!"
                ]
            ],
            [
                "speak",
                [
                    "Joshua",
                    "C'mon, why don't we both hit the arena?{br}It'll be good training.|If you're going to risk your life anyway, you may as well try to earn some gold."
                ]
            ],
            [
                "speak",
                [
                    "SoldierRed",
                    "I'm reporting you to the captain! You'll be lucky if he just docks your pay!|Don't forget--You can be replaced in an eyeblink, you filthy sellsword!"
                ]
            ],
            [
                "remove_portrait",
                [
                    "SoldierRed"
                ]
            ],
            [
                "speak",
                [
                    "Joshua",
                    "Don't worry, little man.{br}I won't forget.|Work's work, but I don't like fighting women...|Now then, what's the rest of the day got in store for me?{w}{clear}...Tails huh? That's nothing but bad luck and more bad luck..."
                ]
            ],
            [
                "remove_portrait",
                [
                    "Joshua"
                ]
            ],
            [
                "flicker_cursor",
                [
                    "Natasha"
                ]
            ],
            [
                "add_portrait",
                [
                    "Natasha",
                    "Left"
                ]
            ],
            [
                "speak",
                [
                    "Natasha",
                    "They may not want to hear what I have to say, but...|I must speak with one of the Grado soldiers.|Oh, if only one of them will listen to my words...|Please! Grant me strength."
                ]
            ],
            [
                "remove_portrait",
                [
                    "Natasha"
                ]
            ],
            [
                "comment",
                [
                    "# Now actually start!"
                ]
            ],
            [
                "add_talk",
                [
                    "Natasha",
                    "Joshua"
                ]
            ]
        ],
        "only_once": false,
        "priority": 20
    }
]