[
    {
        "name": "Defeat Boss",
        "trigger": "combat_end",
        "level_nid": "9001",
        "condition": "game.check_dead(\"Saar\")",
        "commands": [
            [
                "win_game",
                []
            ]
        ],
        "only_once": false,
        "priority": 20
    }
]