[
    {
        "name": "00.0 - Intro 2",
        "trigger": "level_start",
        "level_nid": "9",
        "condition": "True",
        "commands": [
            [
                "add_portrait",
                [
                    "Abeni",
                    "Right"
                ]
            ],
            [
                "speak",
                [
                    "Abeni",
                    "\u2028So I'll need to use <red>Diplomacy</>\u2028against Isador, is that it?{w}\u2028We'll have to be careful not\u2028to kill him by accident..."
                ]
            ],
            [
                "remove_portrait",
                [
                    "Abeni"
                ]
            ]
        ],
        "only_once": false,
        "priority": 10
    }
]