[
    {
        "name": "01.1 - Bluejay Calamity Proc",
        "trigger": "combat_start",
        "level_nid": "9",
        "condition": "unit.nid == 'Bluejay' and game.get_unit('Bluejay').get_mana() >= 13",
        "commands": [
            [
                "add_portrait",
                [
                    "Bluejay",
                    "FarLeft"
                ]
            ],
            [
                "speak",
                [
                    "Bluejay",
                    "\u2028You didn't think I'd\u2028hold back here, right?{w}\u2028It's Calamity time!"
                ]
            ],
            [
                "give_skill",
                [
                    "Bluejay (Bluejay)",
                    "Ill Omen+ (Calamity_Aura)",
                    "FLAG(no_banner)"
                ]
            ],
            [
                "set_current_mana",
                [
                    "Bluejay (Bluejay)",
                    "{eval:game.get_unit('Bluejay').get_mana()-13}"
                ]
            ],
            [
                "remove_portrait",
                [
                    "Bluejay"
                ]
            ]
        ],
        "only_once": false,
        "priority": 50
    }
]