[
    {
        "name": "01.2 - Bluejay Death",
        "trigger": "unit_death",
        "level_nid": "9",
        "condition": "game.check_dead('Bluejay')",
        "commands": [
            [
                "add_portrait",
                [
                    "Bluejay",
                    "FarLeft"
                ]
            ],
            [
                "speak",
                [
                    "Bluejay",
                    "\u2028Heh...shame.{w}\u2028Quelea, it's up to you.{w}"
                ]
            ],
            [
                "expression",
                [
                    "Bluejay",
                    "CloseEyes"
                ]
            ],
            [
                "remove_portrait",
                [
                    "Bluejay"
                ]
            ]
        ],
        "only_once": true,
        "priority": 20
    }
]