[
    {
        "name": "02.3 - AI Change 3",
        "trigger": "turn_change",
        "level_nid": "9",
        "condition": "game.turncount == 6",
        "commands": [
            [
                "if",
                [
                    "not game.check_dead('Steel Fox_C9')"
                ]
            ],
            [
                "flicker_cursor",
                [
                    "Steel Fox (Steel Fox_C9)"
                ]
            ],
            [
                "add_portrait",
                [
                    "Steel Fox",
                    "Left"
                ]
            ],
            [
                "speak",
                [
                    "Steel Fox",
                    "House Connachta is testing our hospitality now.|I will go see them out myself."
                ]
            ],
            [
                "change_ai",
                [
                    "107",
                    "Pursue"
                ]
            ],
            [
                "change_ai",
                [
                    "108",
                    "Pursue"
                ]
            ],
            [
                "change_ai",
                [
                    "109",
                    "Pursue"
                ]
            ],
            [
                "change_ai",
                [
                    "110",
                    "Pursue"
                ]
            ],
            [
                "change_ai",
                [
                    "111",
                    "Pursue"
                ]
            ],
            [
                "change_ai",
                [
                    "112",
                    "Pursue"
                ]
            ],
            [
                "change_ai",
                [
                    "Steel Fox (Steel Fox_C9)",
                    "Pursue"
                ]
            ],
            [
                "end",
                []
            ]
        ],
        "only_once": false,
        "priority": 20
    }
]