[
    {
        "name": "03.9 - Reinforcement End",
        "trigger": "turn_change",
        "level_nid": "9",
        "condition": "game.turncount == 10 and game.get_unit('Brandon').position",
        "commands": [
            [
                "flicker_cursor",
                [
                    "Brandon (Brandon)"
                ]
            ],
            [
                "add_portrait",
                [
                    "Brandon",
                    "Right"
                ]
            ],
            [
                "add_portrait",
                [
                    "Fiachra",
                    "Left"
                ]
            ],
            [
                "speak",
                [
                    "Brandon",
                    "\u2028The footsteps stopped.{w}\u2028Maybe no one is left."
                ]
            ],
            [
                "speak",
                [
                    "Fiachra",
                    "\u2028Or perhaps they're taking\u2028defensive positions further in.{w}\u2028Regardless, we should take this\u2028opportunity to clean up here."
                ]
            ],
            [
                "multi_remove_portrait",
                [
                    "Brandon",
                    "Fiachra"
                ]
            ]
        ],
        "only_once": false,
        "priority": 20
    }
]