[
    {
        "name": "03.5 - Reinforcement 3 - Foreshadowing",
        "trigger": "turn_change",
        "level_nid": "9",
        "condition": "game.turncount == 6 and game.get_unit('Brandon').position",
        "commands": [
            [
                "flicker_cursor",
                [
                    "Brandon (Brandon)"
                ]
            ],
            [
                "add_portrait",
                [
                    "Brandon",
                    "Right"
                ]
            ],
            [
                "speak",
                [
                    "Brandon",
                    "\u2028More Fenians are coming from\u2028the middle of the hallway."
                ]
            ],
            [
                "remove_portrait",
                [
                    "Brandon"
                ]
            ]
        ],
        "only_once": false,
        "priority": 20
    }
]