[
    {
        "name": "04.3 - Steel Fox Battle - Farl",
        "trigger": "combat_start",
        "level_nid": "9",
        "condition": "check_pair('Steel Fox_C9', 'Farl')",
        "commands": [
            [
                "add_portrait",
                [
                    "Farl",
                    "FarRight"
                ]
            ],
            [
                "speak",
                [
                    "Farl",
                    "\u2028Bad luck to you, dirty Fenian!{w}\u2028You've come before the Voice\u2028of Thunder, Farl of Ratsbridge!"
                ]
            ],
            [
                "remove_portrait",
                [
                    "Farl"
                ]
            ],
            [
                "add_portrait",
                [
                    "Steel Fox",
                    "FarLeft"
                ]
            ],
            [
                "speak",
                [
                    "Steel Fox",
                    "\u2028Oh? And does a mere minstrel\u2028hope to avenge his people?"
                ]
            ],
            [
                "remove_portrait",
                [
                    "Steel Fox"
                ]
            ],
            [
                "add_portrait",
                [
                    "Farl",
                    "FarRight"
                ]
            ],
            [
                "speak",
                [
                    "Farl",
                    "\u2028Fighting's never been my\u2028strong suit.{w}\u2028Song is the weapon of\u2028true men.{w}\u2028However, even I have\u2028my own way of fighting.{w}\u2028For example, if I were to\u2028sing of your true name,{w}\u2028Je-"
                ]
            ],
            [
                "remove_portrait",
                [
                    "Farl"
                ]
            ],
            [
                "add_portrait",
                [
                    "Steel Fox",
                    "FarLeft"
                ]
            ],
            [
                "speak",
                [
                    "Steel Fox",
                    "\u2028If you wanted to die,{w}\u2028you need only have asked."
                ]
            ],
            [
                "remove_portrait",
                [
                    "Steel Fox"
                ]
            ]
        ],
        "only_once": true,
        "priority": 20
    }
]