[
    {
        "name": "05.3 - Ayla Battle - Abeni",
        "trigger": "combat_start",
        "level_nid": "9",
        "condition": "check_pair('Ayla_C9', 'Abeni')",
        "commands": [
            [
                "add_portrait",
                [
                    "Ayla",
                    "FarLeft"
                ]
            ],
            [
                "speak",
                [
                    "Ayla",
                    "\u2028Who are you?{w}\u2028Another Tuathan?{w}\u2028No, that's not right..."
                ]
            ],
            [
                "remove_portrait",
                [
                    "Ayla"
                ]
            ],
            [
                "add_portrait",
                [
                    "Abeni",
                    "FarRight"
                ]
            ],
            [
                "speak",
                [
                    "Abeni",
                    "\u2028You do not know the\u2028powers you contend with."
                ]
            ],
            [
                "remove_portrait",
                [
                    "Abeni"
                ]
            ],
            [
                "add_portrait",
                [
                    "Ayla",
                    "FarLeft"
                ]
            ],
            [
                "speak",
                [
                    "Ayla",
                    "\u2028Unfortunately for you,\u2028I hardly care.{w}\u2028I only seek to fulfill\u2028my goals as Priestess,{w}\u2028and right now that means\u2028erasing you from my sight."
                ]
            ],
            [
                "remove_portrait",
                [
                    "Ayla"
                ]
            ]
        ],
        "only_once": true,
        "priority": 20
    }
]