[
    {
        "name": "06.1 - Kevin Battle - Default",
        "trigger": "combat_start",
        "level_nid": "9",
        "condition": "check_default('Kevin', ['Remri', 'Brandon','Fessian'])",
        "commands": [
            [
                "add_portrait",
                [
                    "Kevin",
                    "FarLeft"
                ]
            ],
            [
                "speak",
                [
                    "Kevin",
                    "\u2028You must think you're smart,\u2028closing in on an archer.{w}\u2028The poison seepin' through\u2028my sweat will consume you!"
                ]
            ],
            [
                "remove_portrait",
                [
                    "Kevin"
                ]
            ]
        ],
        "only_once": true,
        "priority": 20
    }
]