[
    {
        "name": "07.2 - Isador Death",
        "trigger": "unit_death",
        "level_nid": "9",
        "condition": "game.check_dead('Isador_C9')",
        "commands": [
            [
                "add_portrait",
                [
                    "Isador",
                    "FarLeft"
                ]
            ],
            [
                "speak",
                [
                    "Isador",
                    "\u2028Such resistance, even in\u2028a situation like this.{w}\u2028Perhaps it would be better\u2028to accelerate my plans.{w}\u2028Taking to the battlefield\u2028is not doing my any favors."
                ]
            ],
            [
                "remove_portrait",
                [
                    "Isador"
                ]
            ]
        ],
        "only_once": true,
        "priority": 20
    }
]