[
    {
        "name": "08.3 - Exposition 3",
        "trigger": "turn_change",
        "level_nid": "9",
        "condition": "game.turncount == 4 and not game.check_dead('Bluejay')",
        "commands": [
            [
                "flicker_cursor",
                [
                    "Bluejay (Bluejay)"
                ]
            ],
            [
                "add_portrait",
                [
                    "Bluejay",
                    "Left"
                ]
            ],
            [
                "add_portrait",
                [
                    "Cormorant",
                    "Right"
                ]
            ],
            [
                "speak",
                [
                    "Cormorant",
                    "\u2028Fine, let's say I believe\u2028that ridiculous story.{w}\u2028Why are you all with\u2028the cult now?"
                ]
            ],
            [
                "speak",
                [
                    "Bluejay",
                    "\u2028After the war, the 'pieces'\u2028used to create a god scattered.{w}\u2028The Priela cult seeks to unite\u2028these pieces again,{w}\u2028and thus rebuild the power\u2028of their god."
                ]
            ],
            [
                "speak",
                [
                    "Cormorant",
                    "\u2028And you're interested in that?"
                ]
            ],
            [
                "speak",
                [
                    "Bluejay",
                    "\u2028Heavens, no!{w}\u2028But you must understand that\u2028no organization is a monolith.{w}\u2028Why, even among us mercenaries,\u2028there's a lot of dissent.{w}\u2028Speaking of which, have\u2028you seen Pitta yet?"
                ]
            ],
            [
                "speak",
                [
                    "Cormorant",
                    "\u2028Pitta was...healthy."
                ]
            ],
            [
                "speak",
                [
                    "Bluejay",
                    "\u2028Hah, what an answer!{w}\u2028I bet you still don't even\u2028what you're fighting over.{w}\u2028Not that I care, of course.{w}\u2028Cor's Cor, same as always.{w}\u2028The cult's like that too,\u2028they're not of one mind.{w}\u2028There's a faction that\u2028seeks to create a new god.{w}\u2028I, and the rest, would throw\u2028our lot in with that faction.{w}\u2028Think about it, just a little.{w}\u2028With a god's power, we could\u2028fix everything that went wrong.{w}\u2028Pitta's sister, your-"
                ]
            ],
            [
                "speak",
                [
                    "Cormorant",
                    "\u2028Stop!{w} That's enough!{w}\u2028You've...you've all gone mad,\u2028lost yourselves in fantasy.{w}\u2028Creating a god?{w} Really?"
                ]
            ],
            [
                "remove_portrait",
                [
                    "Bluejay"
                ]
            ],
            [
                "add_portrait",
                [
                    "Ayla",
                    "Left"
                ]
            ],
            [
                "speak",
                [
                    "Ayla",
                    "\u2028Believe what you wish,\u2028but I will take the Heart.{w}\u2028Our plans require me to maintain\u2028my position in the cult.{w}\u2028I will have the Suzerain's\u2028ring from you, one way or another."
                ]
            ],
            [
                "multi_remove_portrait",
                [
                    "Ayla",
                    "Cormorant"
                ]
            ]
        ],
        "only_once": false,
        "priority": 50
    }
]