[
    {
        "name": "Item_TheHermit_On_Hit",
        "trigger": null,
        "level_nid": null,
        "condition": "True",
        "commands": [
            [
                "has_attacked",
                [
                    "{unit2}"
                ]
            ]
        ],
        "only_once": false,
        "priority": 20
    }
]