[
    {
        "name": "Ability_Rummage",
        "trigger": null,
        "level_nid": null,
        "condition": "True",
        "commands": [
            [
                "choice",
                [
                    "RummageItem",
                    "",
                    "Chest Key,Door Key,Herb,Egg Bomb,Ballista",
                    "",
                    "",
                    "bottom_left",
                    "FLAG(no_bg)"
                ]
            ],
            [
                "if",
                [
                    "'{var:RummageItem}' == 'Chest Key'"
                ]
            ],
            [
                "give_item",
                [
                    "MooreP",
                    "Chest Key"
                ]
            ],
            [
                "end",
                []
            ],
            [
                "if",
                [
                    "'{var:RummageItem}' == 'Door Key'"
                ]
            ],
            [
                "give_item",
                [
                    "MooreP",
                    "Door Key"
                ]
            ],
            [
                "end",
                []
            ],
            [
                "if",
                [
                    "'{var:RummageItem}' == 'Herb'"
                ]
            ],
            [
                "give_item",
                [
                    "MooreP",
                    "Herb"
                ]
            ],
            [
                "end",
                []
            ],
            [
                "if",
                [
                    "'{var:RummageItem}' == 'Egg Bomb'"
                ]
            ],
            [
                "give_item",
                [
                    "MooreP",
                    "Egg Bomb"
                ]
            ],
            [
                "end",
                []
            ],
            [
                "if",
                [
                    "'{var:RummageItem}' == 'Ballista'"
                ]
            ],
            [
                "give_item",
                [
                    "MooreP",
                    "RummageBallista"
                ]
            ],
            [
                "end",
                []
            ]
        ],
        "only_once": false,
        "priority": 20
    }
]