[
    {
        "name": "Death21: Striga",
        "trigger": "unit_death",
        "level_nid": null,
        "condition": "unit.nid == \"Striga\"",
        "commands": [
            [
                "add_portrait",
                [
                    "Striga",
                    "FarRight"
                ]
            ],
            [
                "expression",
                [
                    "Striga",
                    "CloseEyes"
                ]
            ],
            [
                "if",
                [
                    "not game.get_unit('Luan').dead"
                ]
            ],
            [
                "speak",
                [
                    "Striga",
                    "\u2028...So soon...?{w} Luan... it\u2028all rests on you now..."
                ]
            ],
            [
                "else",
                []
            ],
            [
                "speak",
                [
                    "Striga",
                    "\u2028...I will see you again,\u2028Luan."
                ]
            ],
            [
                "end",
                []
            ],
            [
                "remove_portrait",
                [
                    "Striga"
                ]
            ]
        ],
        "only_once": false,
        "priority": 20
    }
]