[
    {
        "name": "Ability_TetherUpkeep",
        "trigger": "unit_death",
        "level_nid": null,
        "condition": "any(skill.nid in ['Tether_Child', 'Tether_Parent'] for skill in unit.skills)",
        "commands": [
            [
                "comment",
                [
                    "#If Goibniu died, remove all tethers"
                ]
            ],
            [
                "if",
                [
                    "unit.nid == 'Goibniu'"
                ]
            ],
            [
                "for",
                [
                    "party_unit",
                    "[unit.nid for unit in game.get_units_in_party()]"
                ]
            ],
            [
                "remove_skill",
                [
                    "{party_unit}",
                    "Tethered (Tether_Child)",
                    "FLAG(no_banner)"
                ]
            ],
            [
                "endf",
                []
            ],
            [
                "else",
                []
            ],
            [
                "comment",
                [
                    "#If someone else died, remove tether and check for ANY tethers. If there are none, untether Goibniu"
                ]
            ],
            [
                "remove_skill",
                [
                    "{unit}",
                    "Tethered (Tether_Child)",
                    "FLAG(no_banner)"
                ]
            ],
            [
                "for",
                [
                    "party_unit",
                    "[unit.nid for unit in game.get_units_in_party()]"
                ]
            ],
            [
                "if",
                [
                    "any(skill.nid in ['Tether_Child'] for skill in game.get_unit('{party_unit}').skills)"
                ]
            ],
            [
                "finish",
                []
            ],
            [
                "end",
                []
            ],
            [
                "endf",
                []
            ],
            [
                "remove_skill",
                [
                    "Goibniu (Goibniu)",
                    "Tethered (Tether_Parent)",
                    "FLAG(no_banner)"
                ]
            ],
            [
                "end",
                []
            ]
        ],
        "only_once": false,
        "priority": 20
    }
]