[
    {
        "name": "Item_Judgement_Chapter_End",
        "trigger": null,
        "level_nid": null,
        "condition": "True",
        "commands": [
            [
                "set_stats",
                [
                    "Lim",
                    "HP,{eval:game.get_unit('Lim').get_max_hp() + game.game_vars['judgement_hp']}",
                    "FLAG(immediate)"
                ]
            ],
            [
                "add_tag",
                [
                    "Lim",
                    "Judgement"
                ]
            ]
        ],
        "only_once": false,
        "priority": 20
    }
]