[
    {
        "name": "Item_25ExpCrest",
        "trigger": null,
        "level_nid": null,
        "condition": "True",
        "commands": [
            [
                "give_exp",
                [
                    "{unit}",
                    "25"
                ]
            ]
        ],
        "only_once": false,
        "priority": 20
    }
]