[
    {
        "name": "Ability_GaleForceUpkeep",
        "trigger": "turn_change",
        "level_nid": null,
        "condition": "True",
        "commands": [
            [
                "for",
                [
                    "unit_nid",
                    "[unit.nid for unit in game.get_all_units()]"
                ]
            ],
            [
                "set_unit_field",
                [
                    "{unit_nid}",
                    "refreshed",
                    "0"
                ]
            ],
            [
                "endf",
                []
            ]
        ],
        "only_once": false,
        "priority": 20
    }
]