[
    {
        "name": "Ability_LockTime_Refresh",
        "trigger": "combat_end",
        "level_nid": null,
        "condition": "unit.nid == 'Ennis' and item.nid == 'Lock Time'",
        "commands": [
            [
                "if",
                [
                    "game.game_vars.get('TimeLockCountdown', 0) == 1"
                ]
            ],
            [
                "wait",
                [
                    "2000"
                ]
            ],
            [
                "map_anim",
                [
                    "Chrono",
                    "{unit}",
                    "FLAG(permanent)"
                ]
            ],
            [
                "reset",
                [
                    "Ennis"
                ]
            ],
            [
                "end",
                []
            ]
        ],
        "only_once": false,
        "priority": 20
    }
]