[
    {
        "name": "CombatArtShareThrant",
        "trigger": "combat_start",
        "level_nid": null,
        "condition": "unit.nid == 'Thrant' and game.get_unit('Yarrow').position",
        "commands": [
            [
                "comment",
                [
                    "# Used to share the combat art with Yarrow"
                ]
            ],
            [
                "if",
                [
                    "any([skill.nid == 'Darkest Sun_child' for skill in game.get_unit('Thrant').skills])"
                ]
            ],
            [
                "give_skill",
                [
                    "Yarrow",
                    "Darkest Sun (Darkest Sun_child)",
                    "FLAG(no_banner)"
                ]
            ],
            [
                "end",
                []
            ]
        ],
        "only_once": false,
        "priority": 20
    }
]