[
    {
        "name": "Death23: Jarze",
        "trigger": "unit_death",
        "level_nid": null,
        "condition": "unit.nid == \"Jarze\"",
        "commands": [
            [
                "add_portrait",
                [
                    "Jarze",
                    "FarRight"
                ]
            ],
            [
                "expression",
                [
                    "Jarze",
                    "Smile,CloseEyes"
                ]
            ],
            [
                "speak",
                [
                    "Jarze",
                    "Agh! |Looks like I overextended a little bit... |Be sure to take this one for me!"
                ]
            ],
            [
                "remove_portrait",
                [
                    "Jarze"
                ]
            ]
        ],
        "only_once": false,
        "priority": 20
    }
]