[
    {
        "name": "Ability_DragonheartWound",
        "trigger": "level_start",
        "level_nid": null,
        "condition": "True",
        "commands": [
            [
                "set_current_hp",
                [
                    "Jarze",
                    "30"
                ]
            ]
        ],
        "only_once": false,
        "priority": 20
    }
]