[
    {
        "name": "Death24: Seliche",
        "trigger": "unit_death",
        "level_nid": null,
        "condition": "unit.nid == \"Seliche\"",
        "commands": [
            [
                "add_portrait",
                [
                    "Seliche",
                    "FarRight"
                ]
            ],
            [
                "speak",
                [
                    "Seliche",
                    "No... |If I die now... I can't protect you... |Please be careful."
                ]
            ],
            [
                "expression",
                [
                    "Seliche",
                    "CloseEyes"
                ]
            ],
            [
                "remove_portrait",
                [
                    "Seliche"
                ]
            ],
            [
                "remove_unit",
                [
                    "Seliche"
                ]
            ]
        ],
        "only_once": false,
        "priority": 20
    }
]