[
    {
        "name": "Ability_SelicheAttach",
        "trigger": null,
        "level_nid": null,
        "condition": "True",
        "commands": [
            [
                "comment",
                [
                    "#pair Seliche to target unit"
                ]
            ],
            [
                "pair_up",
                [
                    "{unit1}",
                    "{unit2}"
                ]
            ]
        ],
        "only_once": false,
        "priority": 20
    }
]