[
    {
        "name": "Ability_Diplomat",
        "trigger": null,
        "level_nid": null,
        "condition": "True",
        "commands": [
            [
                "if",
                [
                    "'Boss' in unit2.tags"
                ]
            ],
            [
                "add_portrait",
                [
                    "Abeni",
                    "FarRight"
                ]
            ],
            [
                "speak",
                [
                    "Abeni",
                    "There's no way this person will join us."
                ]
            ],
            [
                "remove_portrait",
                [
                    "Abeni"
                ]
            ],
            [
                "elif",
                [
                    "unit2.get_hp() < 6"
                ]
            ],
            [
                "change_team",
                [
                    "{unit2}",
                    "other"
                ]
            ],
            [
                "change_ai",
                [
                    "{unit2}",
                    "Abeni Green Units"
                ]
            ],
            [
                "set_current_hp",
                [
                    "{unit2}",
                    "100",
                    "FLAG(no_warn)"
                ]
            ],
            [
                "else",
                []
            ],
            [
                "add_portrait",
                [
                    "Abeni",
                    "FarRight"
                ]
            ],
            [
                "speak",
                [
                    "Abeni",
                    "This person is still confident they will win.|We should decrease their health if we want them to join us."
                ]
            ],
            [
                "remove_portrait",
                [
                    "Abeni"
                ]
            ],
            [
                "end",
                []
            ]
        ],
        "only_once": false,
        "priority": 18
    }
]