[
    {
        "name": "Ability_SummonClones 3",
        "trigger": "level_end",
        "level_nid": null,
        "condition": "True",
        "commands": [
            [
                "kill_unit",
                [
                    "LanceBert",
                    "FLAG(immediate)"
                ]
            ],
            [
                "kill_unit",
                [
                    "AxeBert (AxeBert)",
                    "FLAG(immediate)"
                ]
            ],
            [
                "kill_unit",
                [
                    "Swordbert (Swordbert)",
                    "FLAG(immediate)"
                ]
            ]
        ],
        "only_once": false,
        "priority": 19
    }
]