[
    {
        "name": "Death11: Accipiter",
        "trigger": "unit_death",
        "level_nid": null,
        "condition": "unit.nid == 'Accipiter'",
        "commands": [
            [
                "add_portrait",
                [
                    "Accipiter",
                    "FarRight"
                ]
            ],
            [
                "speak",
                [
                    "Accipiter",
                    "I.. should've thought this one through.."
                ]
            ],
            [
                "remove_portrait",
                [
                    "Accipiter"
                ]
            ]
        ],
        "only_once": false,
        "priority": 20
    }
]