[
    {
        "name": "Item_TheChariot_Upkeep",
        "trigger": "turn_change",
        "level_nid": null,
        "condition": "True",
        "commands": [
            [
                "for",
                [
                    "PARTY_UNIT",
                    "[unit.nid for unit in game.get_units_in_party()]"
                ]
            ],
            [
                "if",
                [
                    "'Mounted' in game.get_unit('{PARTY_UNIT}').tags and 'Mounted' not in game.get_klass('{PARTY_UNIT}').tags"
                ]
            ],
            [
                "remove_tag",
                [
                    "{PARTY_UNIT}",
                    "Mounted"
                ]
            ],
            [
                "remove_tag",
                [
                    "{PARTY_UNIT}",
                    "Horse"
                ]
            ],
            [
                "end",
                []
            ],
            [
                "endf",
                []
            ]
        ],
        "only_once": false,
        "priority": 20
    }
]