[
    {
        "name": "Death04: Kingfisher",
        "trigger": "unit_death",
        "level_nid": null,
        "condition": "unit.nid == \"Kingfisher\"",
        "commands": [
            [
                "add_portrait",
                [
                    "Kingfisher",
                    "CenterRight"
                ]
            ],
            [
                "expression",
                [
                    "Kingfisher",
                    "CloseEyes"
                ]
            ],
            [
                "speak",
                [
                    "Kingfisher",
                    "\u2028That's it.{w} That's everything I have ...{w}\u2028I'll never fight again.{w}. I'm ... {w} I'm free."
                ]
            ],
            [
                "add_portrait",
                [
                    "Cormorant",
                    "FarRight"
                ]
            ],
            [
                "speak",
                [
                    "Cormorant",
                    "\u2028Free?{w} Maybe.{w} Done?{w}\u2028No.{w} Not til I'm done.{w}\u2028You don't die before\u2028your commander."
                ]
            ],
            [
                "move_portrait",
                [
                    "Cormorant",
                    "OffscreenRight",
                    "FLAG(no_block)"
                ]
            ],
            [
                "move_portrait",
                [
                    "Kingfisher",
                    "OffscreenRight",
                    "FLAG(no_block)"
                ]
            ],
            [
                "wait",
                [
                    "1000"
                ]
            ]
        ],
        "only_once": false,
        "priority": 20
    }
]