[
    {
        "name": "Item_TheChariot_On_Hit",
        "trigger": null,
        "level_nid": null,
        "condition": "True",
        "commands": [
            [
                "add_tag",
                [
                    "{unit2}",
                    "Horse"
                ]
            ],
            [
                "add_tag",
                [
                    "{unit2}",
                    "Mounted"
                ]
            ]
        ],
        "only_once": false,
        "priority": 20
    }
]