[
    {
        "name": "Death19: Fessian",
        "trigger": "unit_death",
        "level_nid": null,
        "condition": "unit.nid == \"Fessian\"",
        "commands": [
            [
                "add_portrait",
                [
                    "Fessian (Fessian)",
                    "Left"
                ]
            ],
            [
                "speak",
                [
                    "Fessian",
                    "Fear. Grief. Acceptance.",
                    "",
                    "",
                    "noir"
                ]
            ],
            [
                "remove_portrait",
                [
                    "Fessian (Fessian)"
                ]
            ]
        ],
        "only_once": false,
        "priority": 20
    }
]