[
    {
        "name": "Death08: Cistia",
        "trigger": "unit_death",
        "level_nid": null,
        "condition": "unit.nid == 'Cistia'",
        "commands": [
            [
                "add_portrait",
                [
                    "Cistia",
                    "FarRight"
                ]
            ],
            [
                "speak",
                [
                    "Cistia",
                    "It's getting dark..."
                ]
            ],
            [
                "expression",
                [
                    "Cistia",
                    "CloseEyes"
                ]
            ],
            [
                "speak",
                [
                    "Cistia",
                    "Guess this retirement is permanent, huh."
                ]
            ],
            [
                "remove_portrait",
                [
                    "Cistia"
                ]
            ]
        ],
        "only_once": false,
        "priority": 20
    }
]