[
    {
        "name": "Death_ImmortalStatLoss",
        "trigger": "unit_death",
        "level_nid": null,
        "condition": "'Immortal' in [skill.nid for skill in unit.skills] and unit.team == 'player' ",
        "commands": [
            [
                "comment",
                [
                    "#resurrect;{unit}"
                ]
            ],
            [
                "comment",
                [
                    "#change_stats;{unit};HP,-1,STR,-1,MAG,-1,SKL,-1,SPD,-1,LCK,-1,DEF,-1,RES,-1"
                ]
            ],
            [
                "comment",
                [
                    "## immortal death counter"
                ]
            ],
            [
                "comment",
                [
                    "#if;unit.get_field(\"ImmortalDeaths\")"
                ]
            ],
            [
                "comment",
                [
                    "#    set_unit_field;{unit};ImmortalDeaths;1;FLAG(increment_mode)"
                ]
            ],
            [
                "comment",
                [
                    "#else"
                ]
            ],
            [
                "comment",
                [
                    "#    set_unit_field;{unit};ImmortalDeaths;1"
                ]
            ],
            [
                "comment",
                [
                    "#end"
                ]
            ],
            [
                "resurrect",
                [
                    "{unit}"
                ]
            ],
            [
                "if",
                [
                    " unit.nid == 'Jarze'"
                ]
            ],
            [
                "change_stats",
                [
                    "{unit}",
                    "STR,-1,MAG,-1,SKL,-1,SPD,-1,LCK,-1,DEF,-1,RES,-1"
                ]
            ],
            [
                "comment",
                [
                    "# immortal death counter"
                ]
            ],
            [
                "if",
                [
                    "unit.get_field(\"ImmortalDeaths\")"
                ]
            ],
            [
                "set_unit_field",
                [
                    "{unit}",
                    "ImmortalDeaths",
                    "1",
                    "FLAG(increment_mode)"
                ]
            ],
            [
                "else",
                []
            ],
            [
                "set_unit_field",
                [
                    "{unit}",
                    "ImmortalDeaths",
                    "1"
                ]
            ],
            [
                "end",
                []
            ],
            [
                "else",
                []
            ],
            [
                "change_stats",
                [
                    "{unit}",
                    "HP,-1,STR,-1,MAG,-1,SKL,-1,SPD,-1,LCK,-1,DEF,-1,RES,-1"
                ]
            ],
            [
                "comment",
                [
                    "# immortal death counter"
                ]
            ],
            [
                "if",
                [
                    "unit.get_field(\"ImmortalDeaths\")"
                ]
            ],
            [
                "set_unit_field",
                [
                    "{unit}",
                    "ImmortalDeaths",
                    "1",
                    "FLAG(increment_mode)"
                ]
            ],
            [
                "else",
                []
            ],
            [
                "set_unit_field",
                [
                    "{unit}",
                    "ImmortalDeaths",
                    "1"
                ]
            ],
            [
                "end",
                []
            ],
            [
                "end",
                []
            ]
        ],
        "only_once": false,
        "priority": 19
    }
]