[
    {
        "name": "Death13: Moore",
        "trigger": "unit_death",
        "level_nid": null,
        "condition": "unit.nid == 'MooreP'",
        "commands": [
            [
                "add_portrait",
                [
                    "Moore",
                    "FarRight"
                ]
            ],
            [
                "speak",
                [
                    "Moore",
                    "I'm sorry, my boy... Seems I've gotten rusty..."
                ]
            ],
            [
                "expression",
                [
                    "Moore",
                    "CloseEyes"
                ]
            ],
            [
                "speak",
                [
                    "Moore",
                    "Guess all I'm the captain of...|is a hunk... of dead... wood..."
                ]
            ],
            [
                "remove_portrait",
                [
                    "Moore"
                ]
            ]
        ],
        "only_once": false,
        "priority": 20
    }
]