[
    {
        "name": "Global_CaerUpkeep",
        "trigger": "unit_wait",
        "level_nid": null,
        "condition": "game.get_unit('Caer').position",
        "commands": [
            [
                "comment",
                [
                    "#Controls Caer's item access"
                ]
            ],
            [
                "if",
                [
                    "game.get_unit('Caer').get_mana() < 4"
                ]
            ],
            [
                "remove_item_from_multiitem",
                [
                    "Caer (Caer)",
                    "Draconic Artes (Draconic Artes)",
                    "Shackle (Shackle)",
                    "FLAG(no_warn)"
                ]
            ],
            [
                "remove_item_from_multiitem",
                [
                    "Caer (Caer)",
                    "Draconic Artes (Draconic Artes)",
                    "Swan Flight (Swan Flight)",
                    "FLAG(no_warn)"
                ]
            ],
            [
                "remove_item_from_multiitem",
                [
                    "Caer (Caer)",
                    "Draconic Artes (Draconic Artes)",
                    "Swan Song (Swan Song)",
                    "FLAG(no_warn)"
                ]
            ],
            [
                "remove_item_from_multiitem",
                [
                    "Caer (Caer)",
                    "Draconic Artes (Draconic Artes)",
                    "Samhain (Samhain)",
                    "FLAG(no_warn)"
                ]
            ],
            [
                "elif",
                [
                    "8 > game.get_unit('Caer').get_mana() >= 4"
                ]
            ],
            [
                "if",
                [
                    "not any(any(itm.nid == 'Shackle' for itm in item.subitems) for item in game.get_unit('Caer').items)"
                ]
            ],
            [
                "add_item_to_multiitem",
                [
                    "Caer (Caer)",
                    "Draconic Artes (Draconic Artes)",
                    "Shackle (Shackle)",
                    "FLAG(no_warn)"
                ]
            ],
            [
                "end",
                []
            ],
            [
                "remove_item_from_multiitem",
                [
                    "Caer (Caer)",
                    "Draconic Artes (Draconic Artes)",
                    "Swan Flight (Swan Flight)",
                    "FLAG(no_warn)"
                ]
            ],
            [
                "remove_item_from_multiitem",
                [
                    "Caer (Caer)",
                    "Draconic Artes (Draconic Artes)",
                    "Swan Song (Swan Song)",
                    "FLAG(no_warn)"
                ]
            ],
            [
                "remove_item_from_multiitem",
                [
                    "Caer (Caer)",
                    "Draconic Artes (Draconic Artes)",
                    "Samhain (Samhain)",
                    "FLAG(no_warn)"
                ]
            ],
            [
                "elif",
                [
                    "10 > game.get_unit('Caer').get_mana() >= 8"
                ]
            ],
            [
                "if",
                [
                    "not any(any(itm.nid == 'Shackle' for itm in item.subitems) for item in game.get_unit('Caer').items)"
                ]
            ],
            [
                "add_item_to_multiitem",
                [
                    "Caer (Caer)",
                    "Draconic Artes (Draconic Artes)",
                    "Shackle (Shackle)",
                    "FLAG(no_warn)"
                ]
            ],
            [
                "end",
                []
            ],
            [
                "if",
                [
                    "not any(any(itm.nid == 'Swan Flight' for itm in item.subitems) for item in game.get_unit('Caer').items)"
                ]
            ],
            [
                "add_item_to_multiitem",
                [
                    "Caer (Caer)",
                    "Draconic Artes (Draconic Artes)",
                    "Swan Flight (Swan Flight)",
                    "FLAG(no_warn)"
                ]
            ],
            [
                "end",
                []
            ],
            [
                "remove_item_from_multiitem",
                [
                    "Caer (Caer)",
                    "Draconic Artes (Draconic Artes)",
                    "Swan Song (Swan Song)",
                    "FLAG(no_warn)"
                ]
            ],
            [
                "remove_item_from_multiitem",
                [
                    "Caer (Caer)",
                    "Draconic Artes (Draconic Artes)",
                    "Samhain (Samhain)",
                    "FLAG(no_warn)"
                ]
            ],
            [
                "elif",
                [
                    "game.get_unit('Caer').get_mana() >= 10"
                ]
            ],
            [
                "if",
                [
                    "not any(any(itm.nid == 'Shackle' for itm in item.subitems) for item in game.get_unit('Caer').items)"
                ]
            ],
            [
                "add_item_to_multiitem",
                [
                    "Caer (Caer)",
                    "Draconic Artes (Draconic Artes)",
                    "Shackle (Shackle)",
                    "FLAG(no_warn)"
                ]
            ],
            [
                "end",
                []
            ],
            [
                "if",
                [
                    "not any(any(itm.nid == 'Swan Flight' for itm in item.subitems) for item in game.get_unit('Caer').items)"
                ]
            ],
            [
                "add_item_to_multiitem",
                [
                    "Caer (Caer)",
                    "Draconic Artes (Draconic Artes)",
                    "Swan Flight (Swan Flight)",
                    "FLAG(no_warn)"
                ]
            ],
            [
                "end",
                []
            ],
            [
                "if",
                [
                    "not any(any(itm.nid == 'Swan Song' for itm in item.subitems) for item in game.get_unit('Caer').items)"
                ]
            ],
            [
                "add_item_to_multiitem",
                [
                    "Caer (Caer)",
                    "Draconic Artes (Draconic Artes)",
                    "Swan Song (Swan Song)",
                    "FLAG(no_warn)"
                ]
            ],
            [
                "end",
                []
            ],
            [
                "if",
                [
                    "not any(any(itm.nid == 'Samhain' for itm in item.subitems) for item in game.get_unit('Caer').items)"
                ]
            ],
            [
                "add_item_to_multiitem",
                [
                    "Caer (Caer)",
                    "Draconic Artes (Draconic Artes)",
                    "Samhain (Samhain)",
                    "FLAG(no_warn)"
                ]
            ],
            [
                "end",
                []
            ],
            [
                "end",
                []
            ],
            [
                "comment",
                [
                    "#For funny portrait stuff"
                ]
            ],
            [
                "if",
                [
                    "'Draconic Ire' not in [skill.nid for skill in game.get_unit('Caer').skills]"
                ]
            ],
            [
                "if",
                [
                    "game.get_unit('Caer').get_mana() >= 20"
                ]
            ],
            [
                "change_portrait",
                [
                    "Caer (Caer)",
                    "Caer4"
                ]
            ],
            [
                "give_skill",
                [
                    "Caer (Caer)",
                    "Draconic Ire (Draconic Ire)",
                    "FLAG(no_banner)"
                ]
            ],
            [
                "center_cursor",
                [
                    "Caer"
                ]
            ],
            [
                "flicker_cursor",
                [
                    "Caer"
                ]
            ],
            [
                "map_anim",
                [
                    "AOE_Mend",
                    "Caer"
                ]
            ],
            [
                "elif",
                [
                    "game.get_unit('Caer').get_mana() >= 15"
                ]
            ],
            [
                "change_portrait",
                [
                    "Caer (Caer)",
                    "Caer3"
                ]
            ],
            [
                "elif",
                [
                    "game.get_unit('Caer').get_mana() >= 10"
                ]
            ],
            [
                "change_portrait",
                [
                    "Caer (Caer)",
                    "Caer2"
                ]
            ],
            [
                "elif",
                [
                    "game.get_unit('Caer').get_mana() >= 0"
                ]
            ],
            [
                "change_portrait",
                [
                    "Caer (Caer)",
                    "Caer1"
                ]
            ],
            [
                "end",
                []
            ],
            [
                "end",
                []
            ],
            [
                "comment",
                [
                    "#Just in case"
                ]
            ],
            [
                "change_ai",
                [
                    "Caer (Caer)",
                    "None"
                ]
            ]
        ],
        "only_once": false,
        "priority": 99
    }
]