[
    {
        "name": "Ability_BattleCry",
        "trigger": null,
        "level_nid": null,
        "condition": "True",
        "commands": [
            [
                "give_skill",
                [
                    "{unit}",
                    "Battle Cry_Child",
                    "FLAG(no_banner)"
                ]
            ]
        ],
        "only_once": false,
        "priority": 20
    }
]