[
    {
        "name": "Ability_SummonClones",
        "trigger": null,
        "level_nid": null,
        "condition": "True",
        "commands": [
            [
                "choice",
                [
                    "Bert",
                    "Weapon?",
                    "Sword,Lance,Axe"
                ]
            ],
            [
                "if",
                [
                    "game.game_vars['_last_choice'] == 'Sword'"
                ]
            ],
            [
                "if",
                [
                    "game.check_alive('Swordbert')"
                ]
            ],
            [
                "flicker_cursor",
                [
                    "Swordbert"
                ]
            ],
            [
                "add_portrait",
                [
                    "SwordBert (Swordbert)",
                    "Left"
                ]
            ],
            [
                "speak",
                [
                    "Swordbert",
                    "Sir! I'm already fighting for you!|You will have to call another clone."
                ]
            ],
            [
                "game_var",
                [
                    "NoClone",
                    "True"
                ]
            ],
            [
                "else",
                []
            ],
            [
                "resurrect",
                [
                    "Swordbert (Swordbert)",
                    "FLAG(no_warn)"
                ]
            ],
            [
                "load_unit",
                [
                    "Swordbert (Swordbert)",
                    "player",
                    "FLAG(no_warn)"
                ]
            ],
            [
                "if",
                [
                    "'Canto' in [skill.nid for skill in unit.skills]"
                ]
            ],
            [
                "change_class",
                [
                    "SwordBert (Swordbert)",
                    "",
                    "FLAG(silent)"
                ]
            ],
            [
                "give_skill",
                [
                    "SwordBert (Swordbert)",
                    "Canto (Canto)",
                    "FLAG(no_banner)"
                ]
            ],
            [
                "else",
                []
            ],
            [
                "end",
                []
            ],
            [
                "autolevel_to",
                [
                    "Swordbert",
                    "{eval:unit.level}"
                ]
            ],
            [
                "set_stats",
                [
                    "Swordbert",
                    "STR,{eval:unit.stats['STR']}",
                    "FLAG(immediate)"
                ]
            ],
            [
                "set_stats",
                [
                    "Swordbert",
                    "SKL,{eval:unit.stats['SKL']}",
                    "FLAG(immediate)"
                ]
            ],
            [
                "set_stats",
                [
                    "Swordbert",
                    "MAG,{eval:unit.stats['MAG']}",
                    "FLAG(immediate)"
                ]
            ],
            [
                "set_stats",
                [
                    "Swordbert",
                    "SPD,{eval:unit.stats['SPD']}",
                    "FLAG(immediate)"
                ]
            ],
            [
                "set_stats",
                [
                    "Swordbert",
                    "LCK,{eval:unit.stats['LCK']}",
                    "FLAG(immediate)"
                ]
            ],
            [
                "set_stats",
                [
                    "Swordbert",
                    "DEF,{eval:unit.stats['DEF']}",
                    "FLAG(immediate)"
                ]
            ],
            [
                "set_stats",
                [
                    "Swordbert",
                    "RES,{eval:unit.stats['RES']}",
                    "FLAG(immediate)"
                ]
            ],
            [
                "add_unit",
                [
                    "Swordbert",
                    "{eval:region}",
                    "warp"
                ]
            ],
            [
                "wait",
                [
                    "200"
                ]
            ],
            [
                "end",
                []
            ],
            [
                "elif",
                [
                    "game.game_vars['_last_choice'] == 'Lance'"
                ]
            ],
            [
                "if",
                [
                    "game.check_alive('LanceBert')"
                ]
            ],
            [
                "flicker_cursor",
                [
                    "LanceBert"
                ]
            ],
            [
                "add_portrait",
                [
                    "LanceBert (LanceBert)",
                    "Left"
                ]
            ],
            [
                "speak",
                [
                    "LanceBert",
                    "You already called me boss!|Maybe another clone can help you."
                ]
            ],
            [
                "game_var",
                [
                    "NoClone",
                    "True"
                ]
            ],
            [
                "else",
                []
            ],
            [
                "resurrect",
                [
                    "LanceBert",
                    "FLAG(no_warn)"
                ]
            ],
            [
                "load_unit",
                [
                    "LanceBert",
                    "player",
                    "FLAG(no_warn)"
                ]
            ],
            [
                "if",
                [
                    "'Canto' in [skill.nid for skill in unit.skills]"
                ]
            ],
            [
                "change_class",
                [
                    "LanceBert",
                    "",
                    "FLAG(silent)"
                ]
            ],
            [
                "give_skill",
                [
                    "LanceBert",
                    "Canto (Canto)",
                    "FLAG(no_banner)"
                ]
            ],
            [
                "else",
                []
            ],
            [
                "end",
                []
            ],
            [
                "autolevel_to",
                [
                    "LanceBert",
                    "{eval:unit.level}"
                ]
            ],
            [
                "set_stats",
                [
                    "LanceBert",
                    "STR,{eval:unit.stats['STR']}",
                    "FLAG(immediate)"
                ]
            ],
            [
                "set_stats",
                [
                    "LanceBert",
                    "SKL,{eval:unit.stats['SKL']}",
                    "FLAG(immediate)"
                ]
            ],
            [
                "set_stats",
                [
                    "LanceBert",
                    "MAG,{eval:unit.stats['MAG']}",
                    "FLAG(immediate)"
                ]
            ],
            [
                "set_stats",
                [
                    "LanceBert",
                    "SPD,{eval:unit.stats['SPD']}",
                    "FLAG(immediate)"
                ]
            ],
            [
                "set_stats",
                [
                    "LanceBert",
                    "LCK,{eval:unit.stats['LCK']}",
                    "FLAG(immediate)"
                ]
            ],
            [
                "set_stats",
                [
                    "LanceBert",
                    "DEF,{eval:unit.stats['DEF']}",
                    "FLAG(immediate)"
                ]
            ],
            [
                "set_stats",
                [
                    "LanceBert",
                    "RES,{eval:unit.stats['RES']}",
                    "FLAG(immediate)"
                ]
            ],
            [
                "add_unit",
                [
                    "LanceBert",
                    "{eval:region}",
                    "warp"
                ]
            ],
            [
                "wait",
                [
                    "200"
                ]
            ],
            [
                "end",
                []
            ],
            [
                "elif",
                [
                    "game.game_vars['_last_choice'] == 'Axe'"
                ]
            ],
            [
                "if",
                [
                    "game.check_alive('AxeBert')"
                ]
            ],
            [
                "flicker_cursor",
                [
                    "AxeBert"
                ]
            ],
            [
                "add_portrait",
                [
                    "AxeBert",
                    "Left"
                ]
            ],
            [
                "speak",
                [
                    "AxeBert",
                    "Hey! Stop calling me, I'm busy!|Call someone else."
                ]
            ],
            [
                "game_var",
                [
                    "NoClone",
                    "True"
                ]
            ],
            [
                "else",
                []
            ],
            [
                "resurrect",
                [
                    "AxeBert",
                    "FLAG(no_warn)"
                ]
            ],
            [
                "load_unit",
                [
                    "AxeBert",
                    "player",
                    "FLAG(no_warn)"
                ]
            ],
            [
                "if",
                [
                    "'Canto' in [skill.nid for skill in unit.skills]"
                ]
            ],
            [
                "change_class",
                [
                    "AxeBert",
                    "",
                    "FLAG(silent)"
                ]
            ],
            [
                "give_skill",
                [
                    "AxeBert",
                    "Canto (Canto)",
                    "FLAG(no_banner)"
                ]
            ],
            [
                "else",
                []
            ],
            [
                "end",
                []
            ],
            [
                "autolevel_to",
                [
                    "AxeBert",
                    "{eval:unit.level}"
                ]
            ],
            [
                "set_stats",
                [
                    "AxeBert",
                    "STR,{eval:unit.stats['STR']}",
                    "FLAG(immediate)"
                ]
            ],
            [
                "set_stats",
                [
                    "AxeBert",
                    "SKL,{eval:unit.stats['SKL']}",
                    "FLAG(immediate)"
                ]
            ],
            [
                "set_stats",
                [
                    "AxeBert",
                    "MAG,{eval:unit.stats['MAG']}",
                    "FLAG(immediate)"
                ]
            ],
            [
                "set_stats",
                [
                    "AxeBert",
                    "SPD,{eval:unit.stats['SPD']}",
                    "FLAG(immediate)"
                ]
            ],
            [
                "set_stats",
                [
                    "AxeBert",
                    "LCK,{eval:unit.stats['LCK']}",
                    "FLAG(immediate)"
                ]
            ],
            [
                "set_stats",
                [
                    "AxeBert",
                    "DEF,{eval:unit.stats['DEF']}",
                    "FLAG(immediate)"
                ]
            ],
            [
                "set_stats",
                [
                    "AxeBert",
                    "RES,{eval:unit.stats['RES']}",
                    "FLAG(immediate)"
                ]
            ],
            [
                "add_unit",
                [
                    "AxeBert",
                    "{eval:region}",
                    "warp"
                ]
            ],
            [
                "wait",
                [
                    "200"
                ]
            ],
            [
                "end",
                []
            ],
            [
                "end",
                []
            ]
        ],
        "only_once": false,
        "priority": 20
    }
]