[
    {
        "name": "0. Character Creation",
        "trigger": "level_start",
        "level_nid": "Prologue",
        "condition": "True",
        "commands": [
            [
                "comment",
                [
                    "# bookkeeping"
                ]
            ],
            [
                "speak_style",
                [
                    "MU",
                    "",
                    "",
                    "",
                    "5.5",
                    "white",
                    "",
                    "None",
                    "",
                    "f",
                    "f"
                ]
            ],
            [
                "speak_style",
                [
                    "P",
                    "",
                    "center",
                    "",
                    "5.5",
                    "white",
                    "",
                    "None",
                    "",
                    "f",
                    "f",
                    "FLAG(fit)"
                ]
            ],
            [
                "set_name",
                [
                    "MU",
                    "Wanderer"
                ]
            ],
            [
                "comment",
                [
                    "#"
                ]
            ],
            [
                "comment",
                [
                    "#"
                ]
            ],
            [
                "comment",
                [
                    "#"
                ]
            ],
            [
                "comment",
                [
                    "#"
                ]
            ],
            [
                "comment",
                [
                    "# midnight; the sound of rain"
                ]
            ],
            [
                "change_background",
                [
                    "BlackBackground"
                ]
            ],
            [
                "music",
                [
                    "rain"
                ]
            ],
            [
                "wait",
                [
                    "2000"
                ]
            ],
            [
                "comment",
                [
                    "# flashes of thunder"
                ]
            ],
            [
                "speak",
                [
                    "",
                    "... It's dark...",
                    "",
                    "",
                    "MU",
                    "FLAG(hold)"
                ]
            ],
            [
                "wait",
                [
                    "500"
                ]
            ],
            [
                "unhold",
                [
                    "MU"
                ]
            ],
            [
                "change_background",
                [
                    "WhiteBackground"
                ]
            ],
            [
                "wait",
                [
                    "200"
                ]
            ],
            [
                "change_background",
                [
                    "BlackBackground"
                ]
            ],
            [
                "wait",
                [
                    "300"
                ]
            ],
            [
                "sound",
                [
                    "lightning strike"
                ]
            ],
            [
                "wait",
                [
                    "500"
                ]
            ],
            [
                "speak",
                [
                    "",
                    "Where ... am I?",
                    "",
                    "",
                    "MU",
                    "FLAG(hold)"
                ]
            ],
            [
                "wait",
                [
                    "500"
                ]
            ],
            [
                "unhold",
                [
                    "MU"
                ]
            ],
            [
                "speak",
                [
                    "",
                    "It's so cold...",
                    "",
                    "",
                    "MU",
                    "FLAG(hold)"
                ]
            ],
            [
                "wait",
                [
                    "500"
                ]
            ],
            [
                "unhold",
                [
                    "MU"
                ]
            ],
            [
                "speak",
                [
                    "",
                    "I need to get out of this rain!",
                    "",
                    "",
                    "MU",
                    "FLAG(hold)"
                ]
            ],
            [
                "wait",
                [
                    "500"
                ]
            ],
            [
                "unhold",
                [
                    "MU"
                ]
            ],
            [
                "change_background",
                [
                    "haunted_house"
                ]
            ],
            [
                "wait",
                [
                    "200"
                ]
            ],
            [
                "change_background",
                [
                    "BlackBackground"
                ]
            ],
            [
                "wait",
                [
                    "300"
                ]
            ],
            [
                "sound",
                [
                    "lightning_strike_2"
                ]
            ],
            [
                "wait",
                [
                    "500"
                ]
            ],
            [
                "speak",
                [
                    "",
                    "A house?",
                    "",
                    "",
                    "MU",
                    "FLAG(hold)"
                ]
            ],
            [
                "wait",
                [
                    "500"
                ]
            ],
            [
                "unhold",
                [
                    "MU"
                ]
            ],
            [
                "change_background",
                [
                    "WhiteBackground"
                ]
            ],
            [
                "wait",
                [
                    "200"
                ]
            ],
            [
                "change_background",
                [
                    "BlackBackground"
                ]
            ],
            [
                "wait",
                [
                    "300"
                ]
            ],
            [
                "sound",
                [
                    "lightning strike"
                ]
            ],
            [
                "wait",
                [
                    "500"
                ]
            ],
            [
                "speak",
                [
                    "",
                    "Ack!{w} Hope they're home.",
                    "",
                    "",
                    "MU"
                ]
            ],
            [
                "sound",
                [
                    "Heavy Foot Steps 1"
                ]
            ],
            [
                "wait",
                [
                    "3000"
                ]
            ],
            [
                "sound",
                [
                    "knocking"
                ]
            ],
            [
                "wait",
                [
                    "2000"
                ]
            ],
            [
                "speak",
                [
                    "",
                    "Anyone in there?{w}",
                    "",
                    "",
                    "MU"
                ]
            ],
            [
                "sound",
                [
                    "door unlocking"
                ]
            ],
            [
                "wait",
                [
                    "1500"
                ]
            ],
            [
                "sound",
                [
                    "door creaking"
                ]
            ],
            [
                "wait",
                [
                    "1500"
                ]
            ],
            [
                "music_clear",
                [
                    "3000"
                ]
            ],
            [
                "music",
                [
                    "Rainy Save Room",
                    "3000"
                ]
            ],
            [
                "wait",
                [
                    "6000"
                ]
            ],
            [
                "speak",
                [
                    "",
                    "So. The wanderer finds the way.",
                    "",
                    "",
                    "P"
                ]
            ],
            [
                "speak",
                [
                    "",
                    "W-who are you?",
                    "",
                    "",
                    "MU"
                ]
            ],
            [
                "speak",
                [
                    "",
                    "Oh, you know who I am.",
                    "",
                    "",
                    "P"
                ]
            ],
            [
                "speak",
                [
                    "",
                    "I've been waiting.",
                    "",
                    "",
                    "P",
                    "",
                    "FLAG(hold)"
                ]
            ],
            [
                "end_skip",
                []
            ],
            [
                "choice",
                [
                    "dialogue",
                    "",
                    "You were expecting me?",
                    "",
                    "",
                    "bottom_left",
                    "FLAG(no_bg)"
                ]
            ],
            [
                "speak",
                [
                    "",
                    "{var:dialogue}",
                    "",
                    "",
                    "MU"
                ]
            ],
            [
                "unhold",
                [
                    "P"
                ]
            ],
            [
                "speak",
                [
                    "",
                    "In a way.",
                    "",
                    "",
                    "P"
                ]
            ],
            [
                "speak",
                [
                    "",
                    "Everyone comes to me for the same reason.",
                    "",
                    "",
                    "P"
                ]
            ],
            [
                "speak",
                [
                    "",
                    "They have a wish.",
                    "",
                    "",
                    "P"
                ]
            ],
            [
                "speak",
                [
                    "",
                    "They want a Blessing.",
                    "",
                    "",
                    "P"
                ]
            ],
            [
                "speak",
                [
                    "",
                    "What is it that you desire?",
                    "",
                    "",
                    "P",
                    "FLAG(hold)"
                ]
            ],
            [
                "end_skip",
                []
            ],
            [
                "choice",
                [
                    "dialogue",
                    "",
                    "\u2028I'm not sure.,\u2028I want...\u2028",
                    "",
                    "",
                    "bottom_left",
                    "FLAG(no_bg)"
                ]
            ],
            [
                "unhold",
                [
                    "P"
                ]
            ],
            [
                "speak",
                [
                    "",
                    "{var:dialogue}",
                    "",
                    "",
                    "MU"
                ]
            ],
            [
                "if",
                [
                    "\"{var:dialogue}\" == \"I'm not sure.\""
                ]
            ],
            [
                "speak",
                [
                    "",
                    "Some come here without a wish in their hearts.",
                    "",
                    "",
                    "P"
                ]
            ],
            [
                "speak",
                [
                    "",
                    "But when they leave, they always have it.",
                    "",
                    "",
                    "P"
                ]
            ],
            [
                "speak",
                [
                    "",
                    "Let's talk some more.",
                    "",
                    "",
                    "P"
                ]
            ],
            [
                "speak",
                [
                    "",
                    "Maybe you'll think of something.",
                    "",
                    "",
                    "P"
                ]
            ],
            [
                "else",
                []
            ],
            [
                "speak",
                [
                    "",
                    "Wait. I'd like to know you, first.",
                    "",
                    "",
                    "P"
                ]
            ],
            [
                "end",
                []
            ],
            [
                "speak",
                [
                    "",
                    "Come closer.",
                    "",
                    "",
                    "P"
                ]
            ],
            [
                "speak",
                [
                    "",
                    "Let me see your face.",
                    "",
                    "",
                    "P"
                ]
            ],
            [
                "comment",
                [
                    "##########################"
                ]
            ],
            [
                "comment",
                [
                    "### Portrait selection ###"
                ]
            ],
            [
                "comment",
                [
                    "##########################"
                ]
            ],
            [
                "transition",
                [
                    "close"
                ]
            ],
            [
                "change_background",
                [
                    "default_background"
                ]
            ],
            [
                "table",
                [
                    "portrait",
                    "game.game_vars.get('Portrait_choice_hover', 'Ezra1')",
                    "",
                    "",
                    "",
                    "bottom",
                    "menu_bg_brown (menu_bg_brown)",
                    "type_portrait",
                    "",
                    "FLAG(expression)"
                ]
            ],
            [
                "transition",
                [
                    "open"
                ]
            ],
            [
                "end_skip",
                []
            ],
            [
                "choice",
                [
                    "Portrait",
                    "",
                    "\u2028Ezra1|Who am I?,\u2028Ezra2|Who am I?,\u2028Ezra3|Who am I?,\u2028Ezra4|Who am I?,\u2028Ezra5|Who am I?,\u2028Ezra6|Who am I?\u2028",
                    "120",
                    "horiz",
                    "top",
                    "",
                    "",
                    "",
                    "1,1",
                    "center",
                    "FLAG(no_bg)",
                    "FLAG(no_cursor)",
                    "FLAG(arrows)"
                ]
            ],
            [
                "transition",
                [
                    "close"
                ]
            ],
            [
                "remove_table",
                [
                    "portrait"
                ]
            ],
            [
                "change_background",
                [
                    "BlackBackground"
                ]
            ],
            [
                "change_portrait",
                [
                    "Ezra (MU)",
                    "{var:Portrait}"
                ]
            ],
            [
                "transition",
                [
                    "open"
                ]
            ],
            [
                "speak",
                [
                    "",
                    "What an adorable thing you are.",
                    "",
                    "",
                    "P"
                ]
            ],
            [
                "speak",
                [
                    "",
                    "But you're soaked from the rain.",
                    "",
                    "",
                    "P"
                ]
            ],
            [
                "speak",
                [
                    "",
                    "You must have come a long way.",
                    "",
                    "",
                    "P"
                ]
            ],
            [
                "speak",
                [
                    "",
                    "How did you make your way here?",
                    "",
                    "",
                    "P",
                    "FLAG(hold)"
                ]
            ],
            [
                "comment",
                [
                    "##########################"
                ]
            ],
            [
                "comment",
                [
                    "### Class selection    ###"
                ]
            ],
            [
                "comment",
                [
                    "##########################"
                ]
            ],
            [
                "end_skip",
                []
            ],
            [
                "choice",
                [
                    "dialogue",
                    "",
                    "I...",
                    "",
                    "",
                    "bottom_left",
                    "FLAG(no_bg)"
                ]
            ],
            [
                "speak",
                [
                    "",
                    "{var:dialogue}",
                    "",
                    "",
                    "MU"
                ]
            ],
            [
                "transition",
                [
                    "close"
                ]
            ],
            [
                "unhold",
                [
                    "P"
                ]
            ],
            [
                "transition",
                [
                    "open"
                ]
            ],
            [
                "promote",
                [
                    "Ezra (MU)"
                ]
            ],
            [
                "transition",
                [
                    "close"
                ]
            ],
            [
                "wait",
                [
                    "1000"
                ]
            ],
            [
                "transition",
                [
                    "open"
                ]
            ],
            [
                "if",
                [
                    "game.get_klass('MU').movement_group == 'Fliers'"
                ]
            ],
            [
                "speak",
                [
                    "",
                    "... I flew across the sea.",
                    "",
                    "",
                    "MU"
                ]
            ],
            [
                "elif",
                [
                    "'Cav' in game.get_klass('MU').movement_group"
                ]
            ],
            [
                "speak",
                [
                    "",
                    "... I rode across mountain and valley.",
                    "",
                    "",
                    "MU"
                ]
            ],
            [
                "else",
                []
            ],
            [
                "speak",
                [
                    "",
                    "... I walked the long road.",
                    "",
                    "",
                    "MU"
                ]
            ],
            [
                "end",
                []
            ],
            [
                "speak",
                [
                    "",
                    "What a journey that must have been.",
                    "",
                    "",
                    "P"
                ]
            ],
            [
                "speak",
                [
                    "",
                    "Many have made the same journey to me.",
                    "",
                    "",
                    "P"
                ]
            ],
            [
                "speak",
                [
                    "",
                    "I've met people of all kinds.",
                    "",
                    "",
                    "P"
                ]
            ],
            [
                "speak",
                [
                    "",
                    "Kings and paupers alike.",
                    "",
                    "",
                    "P"
                ]
            ],
            [
                "speak",
                [
                    "",
                    "But I can tell you're neither of those.",
                    "",
                    "",
                    "P"
                ]
            ],
            [
                "speak",
                [
                    "",
                    "May I ask what your peers call you?",
                    "",
                    "",
                    "P",
                    "FLAG(hold)"
                ]
            ],
            [
                "comment",
                [
                    "##########################"
                ]
            ],
            [
                "comment",
                [
                    "#### Gender Selection ####"
                ]
            ],
            [
                "comment",
                [
                    "##########################"
                ]
            ],
            [
                "end_skip",
                []
            ],
            [
                "choice",
                [
                    "Gender",
                    "",
                    "\u2028m|My men call me Lord.,\u2028f|They know I am their Lady.,\u2028n|I don't need a title. They know who I am.\u2028",
                    "",
                    "",
                    "bottom_left",
                    "FLAG(no_bg)"
                ]
            ],
            [
                "unhold",
                [
                    "P"
                ]
            ],
            [
                "if",
                [
                    "'{var:Gender}' == 'm'"
                ]
            ],
            [
                "game_var",
                [
                    "nom_p",
                    "\"he\""
                ]
            ],
            [
                "game_var",
                [
                    "acc_p",
                    "\"him\""
                ]
            ],
            [
                "game_var",
                [
                    "con_p",
                    "\"s\""
                ]
            ],
            [
                "speak",
                [
                    "",
                    "Many noble lords have sought my favor.",
                    "",
                    "",
                    "P"
                ]
            ],
            [
                "speak",
                [
                    "",
                    "It's an honour each time.",
                    "",
                    "",
                    "P"
                ]
            ],
            [
                "elif",
                [
                    "'{var:Gender}' == 'f'"
                ]
            ],
            [
                "game_var",
                [
                    "nom_p",
                    "\"she\""
                ]
            ],
            [
                "game_var",
                [
                    "acc_p",
                    "\"her\""
                ]
            ],
            [
                "game_var",
                [
                    "con_p",
                    "\"s\""
                ]
            ],
            [
                "give_skill",
                [
                    "Ezra (MU)",
                    "AnimationVariantFemale (AnimationVariantFemale)",
                    "FLAG(no_banner)"
                ]
            ],
            [
                "speak",
                [
                    "",
                    "Many fair ladies have charmed me.",
                    "",
                    "",
                    "P"
                ]
            ],
            [
                "else",
                []
            ],
            [
                "game_var",
                [
                    "nom_p",
                    "\"they\""
                ]
            ],
            [
                "game_var",
                [
                    "acc_p",
                    "\"them\""
                ]
            ],
            [
                "game_var",
                [
                    "con_p",
                    "\"\""
                ]
            ],
            [
                "speak",
                [
                    "",
                    "Is that so? How ... confident.",
                    "",
                    "",
                    "P"
                ]
            ],
            [
                "speak",
                [
                    "",
                    "I like it.",
                    "",
                    "",
                    "P"
                ]
            ],
            [
                "speak",
                [
                    "",
                    "I've met many like you, too.",
                    "",
                    "",
                    "P"
                ]
            ],
            [
                "end",
                []
            ],
            [
                "speak",
                [
                    "",
                    "All the same, but all different.",
                    "",
                    "",
                    "P"
                ]
            ],
            [
                "speak",
                [
                    "",
                    "Wanting different things,",
                    "",
                    "",
                    "P"
                ]
            ],
            [
                "speak",
                [
                    "",
                    "Or different means to familiar ends.",
                    "",
                    "",
                    "P"
                ]
            ],
            [
                "speak",
                [
                    "",
                    "Everyone has their own wish.",
                    "",
                    "",
                    "P"
                ]
            ],
            [
                "speak",
                [
                    "",
                    "Everyone has something new.",
                    "",
                    "",
                    "P"
                ]
            ],
            [
                "speak",
                [
                    "",
                    "I never tire of you humans.",
                    "",
                    "",
                    "P"
                ]
            ],
            [
                "speak",
                [
                    "",
                    "What about you?",
                    "",
                    "",
                    "P"
                ]
            ],
            [
                "speak",
                [
                    "",
                    "What's so special about you?",
                    "",
                    "",
                    "P"
                ]
            ],
            [
                "comment",
                [
                    "######################################"
                ]
            ],
            [
                "comment",
                [
                    "#### Future Accessory Selection   ####"
                ]
            ],
            [
                "comment",
                [
                    "######################################"
                ]
            ],
            [
                "end_skip",
                []
            ],
            [
                "choice",
                [
                    "Perk",
                    "I don't like to brag, but...",
                    "\u2028ReflexRing|I'm faster than everyone else.,\u2028RingOfForce|I don't get tired easily.,\u2028WitchRing|I'm always there for others.,\u2028TrustRing|I can make friends with anyone.\u2028",
                    "",
                    "",
                    "bottom_left",
                    "FLAG(no_bg)"
                ]
            ],
            [
                "speak",
                [
                    "",
                    "That's not really what I meant.",
                    "",
                    "",
                    "P"
                ]
            ],
            [
                "speak",
                [
                    "",
                    "But it's cute that you took it that way.",
                    "",
                    "",
                    "P"
                ]
            ],
            [
                "speak",
                [
                    "",
                    "What's your name, wanderer?",
                    "",
                    "",
                    "P"
                ]
            ],
            [
                "speak",
                [
                    "",
                    "I want to remember you.",
                    "",
                    "",
                    "P",
                    "FLAG(hold)"
                ]
            ],
            [
                "end_skip",
                []
            ],
            [
                "choice",
                [
                    "_",
                    "",
                    "My name is...",
                    "",
                    "",
                    "bottom_left",
                    "FLAG(no_bg)"
                ]
            ],
            [
                "transition",
                [
                    "close"
                ]
            ],
            [
                "unhold",
                [
                    "P"
                ]
            ],
            [
                "transition",
                [
                    "open"
                ]
            ],
            [
                "text_entry",
                [
                    "mu_name",
                    "My name is...",
                    "",
                    "FLAG(force_entry)"
                ]
            ],
            [
                "if",
                [
                    "not game.game_vars['mu_name']"
                ]
            ],
            [
                "game_var",
                [
                    "mu_name",
                    "'Ezra'"
                ]
            ],
            [
                "end",
                []
            ],
            [
                "set_name",
                [
                    "Ezra (MU)",
                    "{var:mu_name}"
                ]
            ],
            [
                "speak",
                [
                    "",
                    "My name is {eval:game.get_unit('MU').name}.",
                    "",
                    "",
                    "MU"
                ]
            ],
            [
                "speak",
                [
                    "",
                    "I'll think fondly of you, {var:mu_name}.",
                    "",
                    "",
                    "P"
                ]
            ],
            [
                "speak",
                [
                    "",
                    "So, you've had some time to think.",
                    "",
                    "",
                    "P"
                ]
            ],
            [
                "speak",
                [
                    "",
                    "Although I already know ...",
                    "",
                    "",
                    "P"
                ]
            ],
            [
                "speak",
                [
                    "",
                    "I wonder if you understand yourself.",
                    "",
                    "",
                    "P"
                ]
            ],
            [
                "comment",
                [
                    "# end music"
                ]
            ],
            [
                "speak",
                [
                    "",
                    "Tell me.",
                    "",
                    "",
                    "P"
                ]
            ],
            [
                "speak",
                [
                    "",
                    "What do you desire?",
                    "",
                    "",
                    "P"
                ]
            ],
            [
                "speak",
                [
                    "",
                    "What ... do I want?",
                    "",
                    "",
                    "MU"
                ]
            ],
            [
                "speak",
                [
                    "",
                    "What ... am I doing here?",
                    "",
                    "",
                    "MU"
                ]
            ],
            [
                "end_skip",
                []
            ],
            [
                "choice",
                [
                    "_",
                    "I want...",
                    "?????????",
                    "",
                    "",
                    "center",
                    "FLAG(no_bg)"
                ]
            ],
            [
                "speak",
                [
                    "",
                    "Very well. So you shall be Blessed.",
                    "",
                    "",
                    "P"
                ]
            ],
            [
                "speak",
                [
                    "",
                    "Close your eyes. Take a deep breath.",
                    "",
                    "",
                    "P"
                ]
            ],
            [
                "speak",
                [
                    "",
                    "It will be over soon.",
                    "",
                    "",
                    "P"
                ]
            ],
            [
                "speak",
                [
                    "",
                    "..............",
                    "",
                    "",
                    "P"
                ]
            ],
            [
                "speak",
                [
                    "",
                    "But what a strange wish.",
                    "",
                    "",
                    "P"
                ]
            ],
            [
                "speak",
                [
                    "",
                    "To tell you the truth...",
                    "",
                    "",
                    "P"
                ]
            ],
            [
                "speak",
                [
                    "",
                    "I already knew your story.",
                    "",
                    "",
                    "P"
                ]
            ],
            [
                "speak",
                [
                    "",
                    "From the very beginning.",
                    "",
                    "",
                    "P"
                ]
            ],
            [
                "speak",
                [
                    "",
                    "There's just one thing I don't understand.",
                    "",
                    "",
                    "P"
                ]
            ],
            [
                "speak",
                [
                    "",
                    "Tell me, wanderer, how is it ...",
                    "",
                    "",
                    "P"
                ]
            ],
            [
                "speak",
                [
                    "",
                    "... that you ended up in this dirty work?",
                    "",
                    "",
                    "P"
                ]
            ],
            [
                "music_clear",
                [
                    "100"
                ]
            ],
            [
                "speak",
                [
                    "",
                    "At the end of your life, so soon?",
                    "",
                    "",
                    "P"
                ]
            ],
            [
                "end_skip",
                []
            ],
            [
                "wait",
                [
                    "500"
                ]
            ],
            [
                "sound",
                [
                    "heartbeat"
                ]
            ],
            [
                "speak",
                [
                    "",
                    "... Huh?",
                    "",
                    "",
                    "MU",
                    "FLAG(hold)",
                    "FLAG(no_block)"
                ]
            ],
            [
                "wait",
                [
                    "2000"
                ]
            ],
            [
                "change_background",
                [
                    "WhiteBackground"
                ]
            ],
            [
                "wait",
                [
                    "200"
                ]
            ],
            [
                "change_background",
                [
                    "BlackBackground"
                ]
            ],
            [
                "wait",
                [
                    "300"
                ]
            ],
            [
                "sound",
                [
                    "lightning_strike_2"
                ]
            ],
            [
                "unhold",
                [
                    "MU"
                ]
            ],
            [
                "speak",
                [
                    "",
                    "What do you mean?",
                    "",
                    "",
                    "MU",
                    "FLAG(hold)",
                    "FLAG(no_block)"
                ]
            ],
            [
                "wait",
                [
                    "1000"
                ]
            ],
            [
                "sound",
                [
                    "heartbeat"
                ]
            ],
            [
                "wait",
                [
                    "1000"
                ]
            ],
            [
                "change_background",
                [
                    "WhiteBackground"
                ]
            ],
            [
                "wait",
                [
                    "200"
                ]
            ],
            [
                "change_background",
                [
                    "BlackBackground"
                ]
            ],
            [
                "wait",
                [
                    "300"
                ]
            ],
            [
                "sound",
                [
                    "lightning_strike_2"
                ]
            ],
            [
                "unhold",
                [
                    "MU"
                ]
            ],
            [
                "speak",
                [
                    "",
                    "Wait -",
                    "",
                    "",
                    "MU",
                    "FLAG(hold)",
                    "FLAG(no_block)"
                ]
            ],
            [
                "transition",
                [
                    "close",
                    "2000",
                    "255,255,255"
                ]
            ],
            [
                "unhold",
                [
                    "MU"
                ]
            ],
            [
                "transition",
                [
                    "close"
                ]
            ],
            [
                "wait",
                [
                    "1000"
                ]
            ],
            [
                "change_team",
                [
                    "MU",
                    "enemy"
                ]
            ],
            [
                "win_game",
                []
            ]
        ],
        "only_once": false,
        "priority": 20
    }
]