[
    {
        "nid": "Bael",
        "name": "Bael",
        "desc": "Giant poison spiders. They roam the mountains, attacking with deadly venom.",
        "tier": 1,
        "movement_group": "Regular",
        "promotes_from": null,
        "turns_into": [
            "Elder Bael"
        ],
        "tags": [
            "Monster",
            "All"
        ],
        "max_level": 20,
        "bases": {
            "HP": 25,
            "STR": 6,
            "MAG": 2,
            "SKL": 3,
            "SPD": 3,
            "LCK": 0,
            "DEF": 6,
            "RES": 1,
            "CON": 12,
            "MOV": 5
        },
        "growths": {
            "HP": 82,
            "STR": 50,
            "MAG": 10,
            "SKL": 30,
            "SPD": 20,
            "LCK": 15,
            "DEF": 18,
            "RES": 13,
            "CON": 0,
            "MOV": 0
        },
        "growth_bonus": {
            "HP": 0,
            "STR": 0,
            "MAG": 0,
            "SKL": 0,
            "SPD": 0,
            "LCK": 0,
            "DEF": 0,
            "RES": 0,
            "CON": 0,
            "MOV": 0
        },
        "promotion": {
            "HP": 0,
            "STR": 0,
            "MAG": 0,
            "SKL": 0,
            "SPD": 0,
            "LCK": 0,
            "DEF": 0,
            "RES": 0,
            "CON": 0,
            "MOV": 0
        },
        "max_stats": {
            "HP": 60,
            "STR": 20,
            "MAG": 20,
            "SKL": 20,
            "SPD": 20,
            "LCK": 30,
            "DEF": 20,
            "RES": 20,
            "CON": 20,
            "MOV": 15
        },
        "learned_skills": [],
        "wexp_gain": {
            "Dagger": [
                false,
                0
            ],
            "Sword": [
                false,
                0
            ],
            "Lance": [
                0,
                0
            ],
            "Axe": [
                0,
                0
            ],
            "Bow": [
                false,
                0
            ],
            "Staff": [
                false,
                0
            ],
            "Light": [
                false,
                0
            ],
            "Anima": [
                false,
                0
            ],
            "Dark": [
                false,
                0
            ],
            "Default": [
                false,
                0
            ]
        },
        "icon_nid": "Bael {IS}",
        "icon_index": [
            0,
            0
        ],
        "map_sprite_nid": "Bael (U) {IS}-stand",
        "combat_anim_nid": "Bael",
        "fields": []
    }
]