[
    {
        "nid": "Bishop",
        "name": "Bishop",
        "desc": "Mages gifted with visions of the future.",
        "tier": 2,
        "movement_group": "Mages",
        "promotes_from": "Cleric",
        "turns_into": [],
        "tags": [
            "Magic",
            "All"
        ],
        "max_level": 20,
        "bases": {
            "HP": 21,
            "STR": 0,
            "MAG": 4,
            "SKL": 5,
            "SPD": 4,
            "LCK": 0,
            "DEF": 3,
            "RES": 9,
            "CON": 7,
            "MOV": 6
        },
        "growths": {
            "HP": 45,
            "STR": 0,
            "MAG": 35,
            "SKL": 25,
            "SPD": 22,
            "LCK": 40,
            "DEF": 8,
            "RES": 50,
            "CON": 0,
            "MOV": 0
        },
        "growth_bonus": {
            "HP": 0,
            "STR": 0,
            "MAG": 0,
            "SKL": 0,
            "SPD": 0,
            "LCK": 0,
            "DEF": 0,
            "RES": 0,
            "CON": 0,
            "MOV": 0
        },
        "promotion": {
            "HP": 3,
            "STR": 0,
            "MAG": 2,
            "SKL": 2,
            "SPD": 1,
            "LCK": 0,
            "DEF": 3,
            "RES": 2,
            "CON": 2,
            "MOV": -99
        },
        "max_stats": {
            "HP": 60,
            "STR": 20,
            "MAG": 25,
            "SKL": 26,
            "SPD": 26,
            "LCK": 30,
            "DEF": 22,
            "RES": 30,
            "CON": 20,
            "MOV": 15
        },
        "learned_skills": [
            [
                1,
                "Slayer"
            ]
        ],
        "wexp_gain": {
            "Dagger": [
                false,
                0
            ],
            "Sword": [
                false,
                0
            ],
            "Lance": [
                false,
                0
            ],
            "Axe": [
                false,
                0
            ],
            "Bow": [
                false,
                0
            ],
            "Staff": [
                true,
                0
            ],
            "Light": [
                true,
                0
            ],
            "Anima": [
                false,
                0
            ],
            "Dark": [
                false,
                0
            ],
            "Default": [
                false,
                0
            ]
        },
        "icon_nid": "Generic_Portrait_Bishop",
        "icon_index": [
            0,
            0
        ],
        "map_sprite_nid": "Bishop",
        "combat_anim_nid": "Bishop",
        "fields": []
    }
]