[
    {
        "nid": "Clone(Sword)",
        "name": "Sword Clone",
        "desc": "A clone of Osbert that wields a sword.",
        "tier": 1,
        "movement_group": "Light Foot",
        "promotes_from": null,
        "turns_into": [],
        "tags": [],
        "max_level": 20,
        "bases": {
            "HP": 0,
            "STR": 0,
            "MAG": 0,
            "SKL": 0,
            "SPD": 0,
            "LCK": 0,
            "DEF": 0,
            "RES": 0,
            "CON": 0,
            "MOV": 0
        },
        "growths": {
            "HP": 0,
            "STR": 0,
            "MAG": 0,
            "SKL": 0,
            "SPD": 0,
            "LCK": 0,
            "DEF": 0,
            "RES": 0,
            "CON": 0,
            "MOV": 0
        },
        "growth_bonus": {
            "HP": 0,
            "STR": 0,
            "MAG": 0,
            "SKL": 0,
            "SPD": 0,
            "LCK": 0,
            "DEF": 0,
            "RES": 0,
            "CON": 0,
            "MOV": 0
        },
        "promotion": {
            "HP": 0,
            "STR": 0,
            "MAG": 0,
            "SKL": 0,
            "SPD": 0,
            "LCK": 0,
            "DEF": 0,
            "RES": 0,
            "CON": 0,
            "MOV": 0
        },
        "max_stats": {
            "HP": 60,
            "STR": 30,
            "MAG": 30,
            "SKL": 30,
            "SPD": 30,
            "LCK": 30,
            "DEF": 30,
            "RES": 30,
            "CON": 25,
            "MOV": 15
        },
        "learned_skills": [],
        "wexp_gain": {
            "Dagger": [
                false,
                0
            ],
            "Sword": [
                2,
                0
            ],
            "Lance": [
                false,
                0
            ],
            "Axe": [
                false,
                0
            ],
            "Bow": [
                false,
                0
            ],
            "Staff": [
                false,
                0
            ],
            "Light": [
                false,
                0
            ],
            "Anima": [
                false,
                0
            ],
            "Dark": [
                false,
                0
            ],
            "Default": [
                false,
                0
            ]
        },
        "icon_nid": "",
        "icon_index": [
            0,
            0
        ],
        "map_sprite_nid": "Lord (M) Ephraim Sword {Teraspark}-stand",
        "combat_anim_nid": "BertSquad",
        "fields": []
    }
]