[
    {
        "nid": "Deathgoyle",
        "name": "Deathgoyle",
        "desc": "Gargoyles enhanced by magic. They surpass their lesser brethren in speed and brutality.",
        "tier": 2,
        "movement_group": "Fliers",
        "promotes_from": "Gargoyle",
        "turns_into": [],
        "tags": [
            "Flying",
            "Monster",
            "All"
        ],
        "max_level": 20,
        "bases": {
            "HP": 23,
            "STR": 8,
            "MAG": 4,
            "SKL": 5,
            "SPD": 8,
            "LCK": 0,
            "DEF": 9,
            "RES": 1,
            "CON": 11,
            "MOV": 7
        },
        "growths": {
            "HP": 75,
            "STR": 40,
            "MAG": 5,
            "SKL": 30,
            "SPD": 25,
            "LCK": 10,
            "DEF": 20,
            "RES": 17,
            "CON": 0,
            "MOV": 0
        },
        "growth_bonus": {
            "HP": 0,
            "STR": 0,
            "MAG": 0,
            "SKL": 0,
            "SPD": 0,
            "LCK": 0,
            "DEF": 0,
            "RES": 0,
            "CON": 0,
            "MOV": 0
        },
        "promotion": {
            "HP": 0,
            "STR": 0,
            "MAG": 0,
            "SKL": 0,
            "SPD": 0,
            "LCK": 0,
            "DEF": 0,
            "RES": 0,
            "CON": 0,
            "MOV": 0
        },
        "max_stats": {
            "HP": 60,
            "STR": 27,
            "MAG": 25,
            "SKL": 25,
            "SPD": 23,
            "LCK": 30,
            "DEF": 28,
            "RES": 22,
            "CON": 25,
            "MOV": 15
        },
        "learned_skills": [],
        "wexp_gain": {
            "Dagger": [
                false,
                0
            ],
            "Sword": [
                false,
                0
            ],
            "Lance": [
                2,
                0
            ],
            "Axe": [
                false,
                0
            ],
            "Bow": [
                false,
                0
            ],
            "Staff": [
                false,
                0
            ],
            "Light": [
                false,
                0
            ],
            "Anima": [
                false,
                0
            ],
            "Dark": [
                false,
                0
            ],
            "Default": [
                false,
                0
            ]
        },
        "icon_nid": "Gargoyle Deathgoyle Lance {IS}",
        "icon_index": [
            0,
            0
        ],
        "map_sprite_nid": "Goyle (U) T2 Lance {IS}-stand",
        "combat_anim_nid": "Gargoyle",
        "fields": []
    }
]