[
    {
        "nid": "Eirika_Lord",
        "name": "Lord",
        "desc": "The princess of Renais. A sword fighter on an important mission.",
        "tier": 1,
        "movement_group": "Light Foot",
        "promotes_from": null,
        "turns_into": [
            "Eirika_Great_Lord"
        ],
        "tags": [
            "Sword",
            "All"
        ],
        "max_level": 20,
        "bases": {
            "HP": 16,
            "STR": 4,
            "MAG": 2,
            "SKL": 8,
            "SPD": 9,
            "LCK": 0,
            "DEF": 3,
            "CON": 5,
            "MOV": 5,
            "RES": 0
        },
        "growths": {
            "HP": 90,
            "STR": 45,
            "MAG": 22,
            "SKL": 40,
            "SPD": 45,
            "LCK": 40,
            "DEF": 15,
            "CON": 0,
            "MOV": 0,
            "RES": 20
        },
        "growth_bonus": {
            "HP": 0,
            "STR": 0,
            "MAG": 35,
            "SKL": 0,
            "SPD": 0,
            "LCK": 0,
            "DEF": 0,
            "CON": 0,
            "MOV": 0,
            "RES": 0
        },
        "promotion": {
            "HP": 0,
            "STR": 0,
            "MAG": 0,
            "SKL": 0,
            "SPD": 0,
            "LCK": 0,
            "DEF": 0,
            "CON": 0,
            "MOV": 0,
            "RES": 0
        },
        "max_stats": {
            "HP": 60,
            "STR": 20,
            "MAG": 20,
            "SKL": 20,
            "SPD": 20,
            "LCK": 30,
            "DEF": 20,
            "CON": 20,
            "MOV": 15,
            "RES": 20
        },
        "learned_skills": [],
        "wexp_gain": {
            "Dagger": [
                false,
                0
            ],
            "Sword": [
                true,
                0
            ],
            "Lance": [
                false,
                0
            ],
            "Axe": [
                false,
                0
            ],
            "Bow": [
                false,
                0
            ],
            "Staff": [
                false,
                0
            ],
            "Light": [
                false,
                0
            ],
            "Anima": [
                false,
                0
            ],
            "Dark": [
                false,
                0
            ],
            "Default": [
                false,
                0
            ]
        },
        "icon_nid": "Generic_Portrait_Citizen",
        "icon_index": [
            0,
            0
        ],
        "map_sprite_nid": "EirikaLord",
        "combat_anim_nid": "Eirika Lord",
        "fields": []
    }
]