[
    {
        "nid": "Hero",
        "name": "Hero",
        "desc": "The finest of all mercenary warriors. Expert in all fields of combat.",
        "tier": 2,
        "movement_group": "Light Foot",
        "promotes_from": "Mercenary",
        "turns_into": [],
        "tags": [
            "Sword",
            "All"
        ],
        "max_level": 20,
        "bases": {
            "HP": 22,
            "STR": 6,
            "MAG": 1,
            "SKL": 10,
            "SPD": 11,
            "LCK": 0,
            "DEF": 8,
            "RES": 3,
            "CON": 11,
            "MOV": 6
        },
        "growths": {
            "HP": 75,
            "STR": 30,
            "MAG": 5,
            "SKL": 30,
            "SPD": 20,
            "LCK": 25,
            "DEF": 20,
            "RES": 20,
            "CON": 0,
            "MOV": 0
        },
        "growth_bonus": {
            "HP": 0,
            "STR": 0,
            "MAG": 0,
            "SKL": 0,
            "SPD": 0,
            "LCK": 0,
            "DEF": 0,
            "RES": 0,
            "CON": 0,
            "MOV": 0
        },
        "promotion": {
            "HP": 4,
            "STR": 2,
            "MAG": 0,
            "SKL": 2,
            "SPD": 2,
            "LCK": 0,
            "DEF": 2,
            "RES": 2,
            "CON": 2,
            "MOV": -99
        },
        "max_stats": {
            "HP": 60,
            "STR": 25,
            "MAG": 20,
            "SKL": 30,
            "SPD": 26,
            "LCK": 30,
            "DEF": 25,
            "RES": 24,
            "CON": 25,
            "MOV": 15
        },
        "learned_skills": [],
        "wexp_gain": {
            "Dagger": [
                false,
                0
            ],
            "Sword": [
                2,
                0
            ],
            "Lance": [
                false,
                0
            ],
            "Axe": [
                2,
                0
            ],
            "Bow": [
                false,
                0
            ],
            "Staff": [
                false,
                0
            ],
            "Light": [
                false,
                0
            ],
            "Anima": [
                false,
                0
            ],
            "Dark": [
                false,
                0
            ],
            "Default": [
                false,
                0
            ]
        },
        "icon_nid": "Generic_Portrait_Vanguard",
        "icon_index": [
            0,
            0
        ],
        "map_sprite_nid": "Hero",
        "combat_anim_nid": "Vanguard",
        "fields": []
    }
]