[
    {
        "nid": "Maelduin",
        "name": "Maelduin",
        "desc": "Creatures of great strength and speed. They pursue their prey with axes and bows.",
        "tier": 2,
        "movement_group": "Light Cav",
        "promotes_from": "Tarvos",
        "turns_into": [],
        "tags": [
            "Horse",
            "Mounted",
            "Monster",
            "All"
        ],
        "max_level": 20,
        "bases": {
            "HP": 25,
            "STR": 8,
            "MAG": 3,
            "SKL": 4,
            "SPD": 7,
            "LCK": 0,
            "DEF": 9,
            "RES": 3,
            "CON": 12,
            "MOV": 8
        },
        "growths": {
            "HP": 75,
            "STR": 30,
            "MAG": 5,
            "SKL": 30,
            "SPD": 18,
            "LCK": 10,
            "DEF": 13,
            "RES": 20,
            "CON": 0,
            "MOV": 0
        },
        "growth_bonus": {
            "HP": 0,
            "STR": 0,
            "MAG": 0,
            "SKL": 0,
            "SPD": 0,
            "LCK": 0,
            "DEF": 0,
            "RES": 0,
            "CON": 0,
            "MOV": 0
        },
        "promotion": {
            "HP": 0,
            "STR": 0,
            "MAG": 0,
            "SKL": 0,
            "SPD": 0,
            "LCK": 0,
            "DEF": 0,
            "RES": 0,
            "CON": 0,
            "MOV": -99
        },
        "max_stats": {
            "HP": 60,
            "STR": 25,
            "MAG": 20,
            "SKL": 26,
            "SPD": 24,
            "LCK": 30,
            "DEF": 25,
            "RES": 25,
            "CON": 25,
            "MOV": 15
        },
        "learned_skills": [],
        "wexp_gain": {
            "Dagger": [
                false,
                0
            ],
            "Sword": [
                false,
                0
            ],
            "Lance": [
                0,
                0
            ],
            "Axe": [
                2,
                0
            ],
            "Bow": [
                2,
                0
            ],
            "Staff": [
                false,
                0
            ],
            "Light": [
                false,
                0
            ],
            "Anima": [
                false,
                0
            ],
            "Dark": [
                false,
                0
            ],
            "Default": [
                false,
                0
            ]
        },
        "icon_nid": "Tarvos (M) Maelduin Axe {IS}",
        "icon_index": [
            0,
            0
        ],
        "map_sprite_nid": "Tarvos (M) Maelduin Axe {IS}-stand",
        "combat_anim_nid": "Tarvos",
        "fields": []
    }
]