[
    {
        "nid": "Pegasus_Knight",
        "name": "Peg. Knight",
        "desc": "Knights who soar through the skies.",
        "tier": 1,
        "movement_group": "Fliers",
        "promotes_from": null,
        "turns_into": [
            "Falcoknight",
            "Wyvern Knight"
        ],
        "tags": [
            "Mounted",
            "Flying",
            "All"
        ],
        "max_level": 20,
        "bases": {
            "HP": 14,
            "STR": 4,
            "MAG": 2,
            "SKL": 5,
            "SPD": 5,
            "LCK": 0,
            "DEF": 3,
            "RES": 2,
            "CON": 5,
            "MOV": 7
        },
        "growths": {
            "HP": 65,
            "STR": 35,
            "MAG": 17,
            "SKL": 40,
            "SPD": 40,
            "LCK": 35,
            "DEF": 12,
            "RES": 35,
            "CON": 0,
            "MOV": 0
        },
        "growth_bonus": {
            "HP": 0,
            "STR": 0,
            "MAG": 0,
            "SKL": 0,
            "SPD": 0,
            "LCK": 0,
            "DEF": 0,
            "RES": 0,
            "CON": 0,
            "MOV": 0
        },
        "promotion": {
            "HP": -1,
            "STR": -4,
            "MAG": -3,
            "SKL": 5,
            "SPD": 2,
            "LCK": 6,
            "DEF": -5,
            "RES": 5,
            "CON": -3,
            "MOV": -99
        },
        "max_stats": {
            "HP": 60,
            "STR": 20,
            "MAG": 20,
            "SKL": 20,
            "SPD": 20,
            "LCK": 30,
            "DEF": 20,
            "RES": 20,
            "CON": 25,
            "MOV": 15
        },
        "learned_skills": [
            [
                1,
                "Flying"
            ],
            [
                1,
                "Canto"
            ]
        ],
        "wexp_gain": {
            "Dagger": [
                false,
                0
            ],
            "Sword": [
                false,
                0
            ],
            "Lance": [
                true,
                0
            ],
            "Axe": [
                false,
                0
            ],
            "Bow": [
                false,
                0
            ],
            "Staff": [
                false,
                0
            ],
            "Light": [
                false,
                0
            ],
            "Anima": [
                false,
                0
            ],
            "Dark": [
                false,
                0
            ],
            "Default": [
                false,
                0
            ]
        },
        "icon_nid": "Generic_Portrait_Pegasus_Knight",
        "icon_index": [
            0,
            0
        ],
        "map_sprite_nid": "PegasusKnight",
        "combat_anim_nid": "PegasusKnight",
        "fields": []
    }
]