[
    {
        "nid": "SadhbhMage",
        "name": "Mage",
        "desc": "Curious practioners of anima magic.",
        "tier": 1,
        "movement_group": "Mages",
        "promotes_from": "Pupil",
        "turns_into": [
            "Mage Knight"
        ],
        "tags": [
            "Magic",
            "All"
        ],
        "max_level": 20,
        "bases": {
            "HP": 16,
            "STR": 0,
            "MAG": 1,
            "SKL": 3,
            "SPD": 3,
            "LCK": 0,
            "DEF": 3,
            "RES": 4,
            "CON": 5,
            "MOV": 5
        },
        "growths": {
            "HP": 55,
            "STR": 0,
            "MAG": 55,
            "SKL": 40,
            "SPD": 35,
            "LCK": 20,
            "DEF": 5,
            "RES": 40,
            "CON": 0,
            "MOV": 0
        },
        "growth_bonus": {
            "HP": 0,
            "STR": 0,
            "MAG": 0,
            "SKL": 0,
            "SPD": 0,
            "LCK": 0,
            "DEF": 0,
            "RES": 0,
            "CON": 0,
            "MOV": 0
        },
        "promotion": {
            "HP": 2,
            "STR": 0,
            "MAG": 1,
            "SKL": 2,
            "SPD": 2,
            "LCK": 0,
            "DEF": 1,
            "RES": 1,
            "CON": 0,
            "MOV": -99
        },
        "max_stats": {
            "HP": 60,
            "STR": 20,
            "MAG": 20,
            "SKL": 20,
            "SPD": 20,
            "LCK": 30,
            "DEF": 20,
            "RES": 20,
            "CON": 20,
            "MOV": 15
        },
        "learned_skills": [],
        "wexp_gain": {
            "Dagger": [
                false,
                0
            ],
            "Sword": [
                false,
                0
            ],
            "Lance": [
                false,
                0
            ],
            "Axe": [
                false,
                0
            ],
            "Bow": [
                false,
                0
            ],
            "Staff": [
                false,
                0
            ],
            "Light": [
                false,
                0
            ],
            "Anima": [
                true,
                0
            ],
            "Dark": [
                false,
                0
            ],
            "Default": [
                false,
                0
            ]
        },
        "icon_nid": "Generic_Portrait_Mage (1)",
        "icon_index": [
            0,
            0
        ],
        "map_sprite_nid": "MageFemale",
        "combat_anim_nid": "MageFemale",
        "fields": []
    }
]