[
    {
        "nid": "Sword_Bonewalker",
        "name": "Bonewalker",
        "desc": "A summoned phantom.",
        "tier": 1,
        "movement_group": "Light Foot",
        "promotes_from": null,
        "turns_into": [
            "Sword_Wight"
        ],
        "tags": [
            "Monster",
            "All"
        ],
        "max_level": 20,
        "bases": {
            "HP": 20,
            "STR": 4,
            "MAG": 2,
            "SKL": 2,
            "SPD": 3,
            "LCK": 0,
            "DEF": 3,
            "RES": 0,
            "CON": 7,
            "MOV": 5
        },
        "growths": {
            "HP": 80,
            "STR": 50,
            "MAG": 25,
            "SKL": 30,
            "SPD": 20,
            "LCK": 10,
            "DEF": 12,
            "RES": 15,
            "CON": 0,
            "MOV": 0
        },
        "growth_bonus": {
            "HP": 0,
            "STR": 0,
            "MAG": 0,
            "SKL": 0,
            "SPD": 0,
            "LCK": 0,
            "DEF": 0,
            "RES": 0,
            "CON": 0,
            "MOV": 0
        },
        "promotion": {
            "HP": 0,
            "STR": 0,
            "MAG": 0,
            "SKL": 0,
            "SPD": 0,
            "LCK": 0,
            "DEF": 0,
            "RES": 0,
            "CON": 0,
            "MOV": 0
        },
        "max_stats": {
            "HP": 60,
            "STR": 20,
            "MAG": 20,
            "SKL": 20,
            "SPD": 20,
            "LCK": 30,
            "DEF": 20,
            "RES": 20,
            "CON": 20,
            "MOV": 15
        },
        "learned_skills": [],
        "wexp_gain": {
            "Dagger": [
                false,
                0
            ],
            "Sword": [
                true,
                0
            ],
            "Lance": [
                true,
                0
            ],
            "Axe": [
                false,
                0
            ],
            "Bow": [
                false,
                0
            ],
            "Staff": [
                false,
                0
            ],
            "Light": [
                false,
                0
            ],
            "Anima": [
                false,
                0
            ],
            "Dark": [
                false,
                0
            ],
            "Default": [
                false,
                0
            ]
        },
        "icon_nid": "Generic_Portrait_Sword_Bonewalker",
        "icon_index": [
            0,
            0
        ],
        "map_sprite_nid": "Sword_Bonewalker",
        "combat_anim_nid": "Bonewalker",
        "fields": []
    }
]