[
    {
        "nid": "Swordmaster",
        "name": "Swordmaster",
        "desc": "Swordfighters with superior speed and skill.",
        "tier": 2,
        "movement_group": "Light Foot",
        "promotes_from": "Myrmidon",
        "turns_into": [],
        "tags": [
            "Sword",
            "All"
        ],
        "max_level": 20,
        "bases": {
            "HP": 21,
            "STR": 6,
            "MAG": 4,
            "SKL": 11,
            "SPD": 12,
            "LCK": 0,
            "DEF": 5,
            "RES": 3,
            "CON": 9,
            "MOV": 6
        },
        "growths": {
            "HP": 65,
            "STR": 25,
            "MAG": 15,
            "SKL": 30,
            "SPD": 30,
            "LCK": 25,
            "DEF": 15,
            "RES": 22,
            "CON": 0,
            "MOV": 0
        },
        "growth_bonus": {
            "HP": 0,
            "STR": 0,
            "MAG": 0,
            "SKL": 0,
            "SPD": 0,
            "LCK": 0,
            "DEF": 0,
            "RES": 0,
            "CON": 0,
            "MOV": 0
        },
        "promotion": {
            "HP": 5,
            "STR": 2,
            "MAG": 1,
            "SKL": 1,
            "SPD": 0,
            "LCK": 0,
            "DEF": 2,
            "RES": 1,
            "CON": 2,
            "MOV": -99
        },
        "max_stats": {
            "HP": 60,
            "STR": 24,
            "MAG": 22,
            "SKL": 29,
            "SPD": 30,
            "LCK": 30,
            "DEF": 22,
            "RES": 25,
            "CON": 20,
            "MOV": 15
        },
        "learned_skills": [
            [
                1,
                "Crit +15"
            ]
        ],
        "wexp_gain": {
            "Dagger": [
                false,
                0
            ],
            "Sword": [
                2,
                0
            ],
            "Lance": [
                false,
                0
            ],
            "Axe": [
                false,
                0
            ],
            "Bow": [
                false,
                0
            ],
            "Staff": [
                false,
                0
            ],
            "Light": [
                false,
                0
            ],
            "Anima": [
                false,
                0
            ],
            "Dark": [
                false,
                0
            ],
            "Default": [
                false,
                0
            ]
        },
        "icon_nid": "Generic_Portrait_Swordmaster",
        "icon_index": [
            0,
            0
        ],
        "map_sprite_nid": "Swordmaster",
        "combat_anim_nid": "Swordmaster",
        "fields": []
    }
]