[
    {
        "nid": "Troubadour",
        "name": "Troubadour",
        "desc": "Mounted healers whose sacred staves aid allies. They are swift but will not fight.",
        "tier": 1,
        "movement_group": "Heavy Cav",
        "promotes_from": null,
        "turns_into": [
            "Valkyrie"
        ],
        "tags": [
            "Horse",
            "Mounted",
            "Magic",
            "All"
        ],
        "max_level": 20,
        "bases": {
            "HP": 15,
            "STR": 0,
            "MAG": 1,
            "SKL": 1,
            "SPD": 3,
            "LCK": 0,
            "DEF": 2,
            "RES": 5,
            "CON": 5,
            "MOV": 6
        },
        "growths": {
            "HP": 50,
            "STR": 0,
            "MAG": 25,
            "SKL": 35,
            "SPD": 55,
            "LCK": 45,
            "DEF": 12,
            "RES": 40,
            "CON": 0,
            "MOV": 0
        },
        "growth_bonus": {
            "HP": 0,
            "STR": 0,
            "MAG": 0,
            "SKL": 0,
            "SPD": 0,
            "LCK": 0,
            "DEF": 0,
            "RES": 0,
            "CON": 0,
            "MOV": 0
        },
        "promotion": {
            "HP": 0,
            "STR": 0,
            "MAG": 0,
            "SKL": 0,
            "SPD": 0,
            "LCK": 0,
            "DEF": 0,
            "RES": 0,
            "CON": 0,
            "MOV": 0
        },
        "max_stats": {
            "HP": 60,
            "STR": 20,
            "MAG": 20,
            "SKL": 20,
            "SPD": 20,
            "LCK": 30,
            "DEF": 20,
            "RES": 20,
            "CON": 25,
            "MOV": 15
        },
        "learned_skills": [
            [
                1,
                "Canto"
            ]
        ],
        "wexp_gain": {
            "Dagger": [
                false,
                0
            ],
            "Sword": [
                false,
                0
            ],
            "Lance": [
                false,
                0
            ],
            "Axe": [
                false,
                0
            ],
            "Bow": [
                false,
                0
            ],
            "Staff": [
                true,
                0
            ],
            "Light": [
                false,
                0
            ],
            "Anima": [
                false,
                0
            ],
            "Dark": [
                false,
                0
            ],
            "Default": [
                false,
                0
            ]
        },
        "icon_nid": "Generic_Portrait_Troubadour",
        "icon_index": [
            0,
            0
        ],
        "map_sprite_nid": "TroubadourFemale",
        "combat_anim_nid": "Troubadour",
        "fields": []
    }
]