[
    {
        "nid": "Wyvern Rider (Axe)",
        "name": "Wyvern Rider",
        "desc": "Dextrous soldiers mounted atop a powerful wyvern.",
        "tier": 1,
        "movement_group": "Fliers",
        "promotes_from": null,
        "turns_into": [
            "Wyvern Lord",
            "Wyvern Knight"
        ],
        "tags": [
            "Mounted",
            "Dragon",
            "Flying",
            "All"
        ],
        "max_level": 20,
        "bases": {
            "HP": 20,
            "STR": 7,
            "MAG": 0,
            "SKL": 5,
            "SPD": 5,
            "LCK": 0,
            "DEF": 8,
            "RES": 0,
            "CON": 10,
            "MOV": 7
        },
        "growths": {
            "HP": 80,
            "STR": 45,
            "MAG": 5,
            "SKL": 35,
            "SPD": 30,
            "LCK": 25,
            "DEF": 25,
            "RES": 17,
            "CON": 0,
            "MOV": 0
        },
        "growth_bonus": {
            "HP": 0,
            "STR": 0,
            "MAG": 0,
            "SKL": 0,
            "SPD": 0,
            "LCK": 0,
            "DEF": 0,
            "RES": 0,
            "CON": 0,
            "MOV": 0
        },
        "promotion": {
            "HP": 2,
            "STR": -2,
            "MAG": -5,
            "SKL": -1,
            "SPD": -5,
            "LCK": 0,
            "DEF": 1,
            "RES": -7,
            "CON": 2,
            "MOV": -99
        },
        "max_stats": {
            "HP": 60,
            "STR": 20,
            "MAG": 20,
            "SKL": 20,
            "SPD": 20,
            "LCK": 30,
            "DEF": 20,
            "RES": 20,
            "CON": 25,
            "MOV": 15
        },
        "learned_skills": [
            [
                1,
                "Flying"
            ],
            [
                1,
                "Canto"
            ]
        ],
        "wexp_gain": {
            "Dagger": [
                false,
                0
            ],
            "Sword": [
                false,
                0
            ],
            "Lance": [
                false,
                0
            ],
            "Axe": [
                2,
                0
            ],
            "Bow": [
                false,
                0
            ],
            "Staff": [
                false,
                0
            ],
            "Light": [
                false,
                0
            ],
            "Anima": [
                false,
                0
            ],
            "Dark": [
                false,
                0
            ],
            "Default": [
                false,
                0
            ]
        },
        "icon_nid": "Generic_Portrait_Wyvern_Rider",
        "icon_index": [
            0,
            0
        ],
        "map_sprite_nid": "Wyvern Rider (M) Axe {flasuban}-stand",
        "combat_anim_nid": "Wyvern Knight",
        "fields": []
    }
]