[
    "Citizen",
    "CitizenFemale",
    "EirikaLord",
    "Eirika_Great_Lord",
    "Ephraim_Lord",
    "Ephraim_Great_Lord",
    "Dancer",
    "Myrmidon",
    "MyrmidonFemale",
    "Swordmaster",
    "SwordmasterFemale",
    "Mercenary",
    "MercenaryFemale",
    "Hero",
    "Thief",
    "Assassin",
    "Rogue",
    "Soldier",
    "Recruit",
    "Cavalier",
    "Paladin",
    "Great_Knight",
    "Knight",
    "General",
    "PegasusKnight",
    "Falcoknight",
    "Journeyman",
    "Fighter",
    "FighterFemale",
    "Warrior",
    "WarriorFemale",
    "Pirate",
    "Brigand",
    "BrigandFemale",
    "Berserker",
    "WyvernRider",
    "WyvernLord",
    "WyvernKnight",
    "Archer",
    "ArcherFemale2",
    "ArcherFemale",
    "Sniper",
    "SniperFemale",
    "Ranger",
    "RangerFemale",
    "Monk",
    "Cleric",
    "ClericFemale",
    "Bishop",
    "BishopFemale",
    "Mage",
    "MageFemale",
    "SageFemale",
    "MageKnight",
    "MageKnightFemale",
    "Shaman",
    "ShamanFemale",
    "Druid",
    "DruidFemale",
    "TroubadourFemale",
    "Valkyrie",
    "Necromancer",
    "Revenant",
    "Entombed",
    "Sword_Bonewalker",
    "Sword_Wight",
    "Bow_Bonewalker",
    "Bow_Wight",
    "Mogall",
    "Arch_Mogall",
    "Invisible",
    "Halberdier",
    "Veteran",
    "Lord (F) Red Bean's Celica {Blood}-stand",
    "Lord (F) Hector Axe {Shin19}-stand",
    "Mystic",
    "Sage (M) Gaiden-Style {Ryn}-stand",
    "Lord (M) Ephraim Sword {Teraspark}-stand",
    "Lord (M) Ephraim Bow {SSHX}-stand",
    "Lord (M) Ephraim +Axe {Its_Just_Jay}-stand",
    "Bard (M) Fancy {MeatOfJustice}-stand",
    "Sage",
    "Great Lord (M) Ephraim Sword {milom}-stand",
    "Great Lord (M) Ephraim Lance {IS}-stand",
    "Great Lord (M) Ephraim Axe {Sme}-stand",
    "Fleet",
    "Ballistician",
    "Bow Knight (M) {Der, Pikmin}-stand",
    "Knight (U) Axe {Agro}-stand",
    "Manakete (F) Myrrh {IS}-stand",
    "Dragon (U) Myrrh Generic [Kemui52]-stand",
    "Goyle (U) T1 Lance {IS}-stand",
    "Goyle (U) T2 Lance {IS}-stand",
    "Wolf (U) {IS}-stand",
    "Wolf (U) Gwyllgi {IS}-stand",
    "Tarvos (M) Axe {IS}-stand",
    "Tarvos (M) Maelduin Axe {IS}-stand",
    "Bael (U) {IS}-stand",
    "Bael (U) Elder {IS}-stand",
    "Wyvern Rider (M) Axe {flasuban}-stand",
    "Mage Knight (F) {IS}-stand",
    "Brigand (F) Axe {Skitty}-stand",
    "Berserker (F) Axe {Unknown}-stand",
    "Valkyrie (M) Non-Religious Staff {Der}-stand",
    "Marksman (M) Staff {ArcherBias}-stand",
    "Pupil (M) {IS}-stand",
    "Cursed Sword (U) {Der}-stand",
    "Dragoon (M) Lance {Unknown}-stand",
    "Dragon (U) Magic {L95}-stand",
    "Airship_Standing_Lufia_2_daemoth_Zarg"
]