[
    {
        "nid": "None",
        "behaviours": [
            {
                "action": "None",
                "target": "None",
                "target_spec": null,
                "view_range": 0,
                "invert_targeting": false
            },
            {
                "action": "None",
                "target": "None",
                "target_spec": null,
                "view_range": 0,
                "invert_targeting": false
            },
            {
                "action": "None",
                "target": "None",
                "target_spec": null,
                "view_range": 0,
                "invert_targeting": false
            }
        ],
        "priority": 20,
        "offense_bias": 2.0
    },
    {
        "nid": "Attack",
        "behaviours": [
            {
                "action": "Attack",
                "target": "Enemy",
                "target_spec": null,
                "view_range": -3,
                "invert_targeting": false
            },
            {
                "action": "None",
                "target": "None",
                "target_spec": null,
                "view_range": 0,
                "invert_targeting": false
            },
            {
                "action": "None",
                "target": "None",
                "target_spec": null,
                "view_range": 0,
                "invert_targeting": false
            }
        ],
        "priority": 20,
        "offense_bias": 2.0
    },
    {
        "nid": "AttackCavHalf",
        "behaviours": [
            {
                "action": "Attack",
                "target": "Enemy",
                "target_spec": null,
                "view_range": 12,
                "invert_targeting": false
            },
            {
                "action": "None",
                "target": "None",
                "target_spec": null,
                "view_range": 0,
                "invert_targeting": false
            },
            {
                "action": "None",
                "target": "None",
                "target_spec": null,
                "view_range": 0,
                "invert_targeting": false
            }
        ],
        "priority": 20,
        "offense_bias": 2.0
    },
    {
        "nid": "Pursue",
        "behaviours": [
            {
                "action": "Attack",
                "target": "Enemy",
                "target_spec": null,
                "view_range": -4,
                "invert_targeting": false
            },
            {
                "action": "None",
                "target": "None",
                "target_spec": null,
                "view_range": 0,
                "invert_targeting": false
            },
            {
                "action": "None",
                "target": "None",
                "target_spec": null,
                "view_range": 0,
                "invert_targeting": false
            }
        ],
        "priority": 20,
        "offense_bias": 2.0
    },
    {
        "nid": "PursueHighPriority",
        "behaviours": [
            {
                "action": "Attack",
                "target": "Enemy",
                "target_spec": null,
                "view_range": -4,
                "invert_targeting": false
            },
            {
                "action": "None",
                "target": "None",
                "target_spec": null,
                "view_range": 0,
                "invert_targeting": false
            },
            {
                "action": "None",
                "target": "None",
                "target_spec": null,
                "view_range": 0,
                "invert_targeting": false
            }
        ],
        "priority": 50,
        "offense_bias": 2.0
    },
    {
        "nid": "PursuePlayer",
        "behaviours": [
            {
                "action": "Attack",
                "target": "Enemy",
                "target_spec": [
                    "Team",
                    "player"
                ],
                "view_range": -4,
                "invert_targeting": false
            },
            {
                "action": "None",
                "target": "None",
                "target_spec": null,
                "view_range": 0,
                "invert_targeting": false
            },
            {
                "action": "None",
                "target": "None",
                "target_spec": null,
                "view_range": 0,
                "invert_targeting": false
            }
        ],
        "priority": 20,
        "offense_bias": 1.0
    },
    {
        "nid": "PursueEnemy",
        "behaviours": [
            {
                "action": "Attack",
                "target": "Enemy",
                "target_spec": [
                    "Team",
                    "player"
                ],
                "view_range": -2,
                "invert_targeting": false
            },
            {
                "action": "Attack",
                "target": "Enemy",
                "target_spec": [
                    "Team",
                    "enemy"
                ],
                "view_range": -4,
                "invert_targeting": false
            },
            {
                "action": "None",
                "target": "None",
                "target_spec": [
                    "Team",
                    "enemy"
                ],
                "view_range": 0,
                "invert_targeting": false
            }
        ],
        "priority": 20,
        "offense_bias": 2.0
    },
    {
        "nid": "PursueEnemy2",
        "behaviours": [
            {
                "action": "Attack",
                "target": "Enemy",
                "target_spec": [
                    "Team",
                    "player"
                ],
                "view_range": -2,
                "invert_targeting": false
            },
            {
                "action": "Attack",
                "target": "Enemy",
                "target_spec": [
                    "Team",
                    "enemy2"
                ],
                "view_range": -4,
                "invert_targeting": false
            },
            {
                "action": "None",
                "target": "None",
                "target_spec": [
                    "Team",
                    "enemy2"
                ],
                "view_range": 0,
                "invert_targeting": false
            }
        ],
        "priority": 20,
        "offense_bias": 2.0
    },
    {
        "nid": "TargetGreeniesAI",
        "behaviours": [
            {
                "action": "Attack",
                "target": "Enemy",
                "target_spec": [
                    "Team",
                    "player"
                ],
                "view_range": -2,
                "invert_targeting": false
            },
            {
                "action": "Attack",
                "target": "Enemy",
                "target_spec": [
                    "Team",
                    "other"
                ],
                "view_range": -4,
                "invert_targeting": false
            },
            {
                "action": "None",
                "target": "None",
                "target_spec": null,
                "view_range": 0,
                "invert_targeting": false
            }
        ],
        "priority": 20,
        "offense_bias": 1.0
    },
    {
        "nid": "PursueGreenies",
        "behaviours": [
            {
                "action": "Attack",
                "target": "Enemy",
                "target_spec": [
                    "Team",
                    "other"
                ],
                "view_range": -2,
                "invert_targeting": true
            },
            {
                "action": "Attack",
                "target": "Enemy",
                "target_spec": [
                    "Team",
                    "other"
                ],
                "view_range": -4,
                "invert_targeting": false
            },
            {
                "action": "None",
                "target": "None",
                "target_spec": null,
                "view_range": 0,
                "invert_targeting": false
            }
        ],
        "priority": 20,
        "offense_bias": 1.0
    },
    {
        "nid": "MoveToPlayer",
        "behaviours": [
            {
                "action": "Move_to",
                "target": "Unit",
                "target_spec": [
                    "Name",
                    "Cormorant"
                ],
                "view_range": -4,
                "invert_targeting": false
            },
            {
                "action": "None",
                "target": "None",
                "target_spec": null,
                "view_range": 0,
                "invert_targeting": false
            },
            {
                "action": "None",
                "target": "None",
                "target_spec": null,
                "view_range": 0,
                "invert_targeting": false
            }
        ],
        "priority": 15,
        "offense_bias": 1.0
    },
    {
        "nid": "Defend",
        "behaviours": [
            {
                "action": "Attack",
                "target": "Enemy",
                "target_spec": null,
                "view_range": -2,
                "invert_targeting": false
            },
            {
                "action": "Move_to",
                "target": "Position",
                "target_spec": "Starting",
                "view_range": -4,
                "invert_targeting": false
            },
            {
                "action": "None",
                "target": "None",
                "target_spec": null,
                "view_range": 0,
                "invert_targeting": false
            }
        ],
        "priority": 20,
        "offense_bias": 2.0
    },
    {
        "nid": "Guard",
        "behaviours": [
            {
                "action": "Attack",
                "target": "Enemy",
                "target_spec": null,
                "view_range": -1,
                "invert_targeting": false
            },
            {
                "action": "None",
                "target": "None",
                "target_spec": null,
                "view_range": 0,
                "invert_targeting": false
            },
            {
                "action": "None",
                "target": "None",
                "target_spec": null,
                "view_range": 0,
                "invert_targeting": false
            }
        ],
        "priority": 20,
        "offense_bias": 2.0
    },
    {
        "nid": "GuardPlayer",
        "behaviours": [
            {
                "action": "Attack",
                "target": "Enemy",
                "target_spec": [
                    "Name",
                    "Feodor"
                ],
                "view_range": -1,
                "invert_targeting": true
            },
            {
                "action": "Attack",
                "target": "Enemy",
                "target_spec": [
                    "Name",
                    "Mikhail"
                ],
                "view_range": -1,
                "invert_targeting": true
            },
            {
                "action": "None",
                "target": "None",
                "target_spec": null,
                "view_range": 0,
                "invert_targeting": false
            }
        ],
        "priority": 20,
        "offense_bias": 2.0
    },
    {
        "nid": "AttackTile",
        "behaviours": [
            {
                "action": "Attack",
                "target": "Enemy",
                "target_spec": null,
                "view_range": -2,
                "invert_targeting": false
            },
            {
                "action": "Attack",
                "target": "Enemy",
                "target_spec": [
                    "Tag",
                    "Tile"
                ],
                "view_range": -4,
                "invert_targeting": false
            },
            {
                "action": "None",
                "target": "None",
                "target_spec": null,
                "view_range": 0,
                "invert_targeting": false
            }
        ],
        "priority": 20,
        "offense_bias": 2.0
    },
    {
        "nid": "PursueVillage",
        "behaviours": [
            {
                "action": "Attack",
                "target": "Enemy",
                "target_spec": null,
                "view_range": -2,
                "invert_targeting": false
            },
            {
                "action": "Interact",
                "target": "Event",
                "target_spec": "Destructible",
                "view_range": -4,
                "invert_targeting": false
            },
            {
                "action": "Attack",
                "target": "Enemy",
                "target_spec": null,
                "view_range": -4,
                "invert_targeting": false
            }
        ],
        "priority": 20,
        "offense_bias": 2.0
    },
    {
        "nid": "CapturePursue",
        "behaviours": [
            {
                "action": "Attack",
                "target": "Enemy",
                "target_spec": null,
                "view_range": -2,
                "invert_targeting": false
            },
            {
                "action": "Move_to",
                "target": "Event",
                "target_spec": "Capture",
                "view_range": -4,
                "invert_targeting": false
            },
            {
                "action": "Attack",
                "target": "Enemy",
                "target_spec": null,
                "view_range": -4,
                "invert_targeting": false
            }
        ],
        "priority": 20,
        "offense_bias": 2.0
    },
    {
        "nid": "CaptureReturn",
        "behaviours": [
            {
                "action": "Attack",
                "target": "Enemy",
                "target_spec": null,
                "view_range": -2,
                "invert_targeting": false
            },
            {
                "action": "Move_to",
                "target": "Event",
                "target_spec": "Return",
                "view_range": -4,
                "invert_targeting": false
            },
            {
                "action": "Attack",
                "target": "Enemy",
                "target_spec": null,
                "view_range": -4,
                "invert_targeting": false
            }
        ],
        "priority": 20,
        "offense_bias": 2.0
    },
    {
        "nid": "CaptureDestroy",
        "behaviours": [
            {
                "action": "Attack",
                "target": "Enemy",
                "target_spec": null,
                "view_range": -2,
                "invert_targeting": false
            },
            {
                "action": "Move_to",
                "target": "Event",
                "target_spec": "Destroy",
                "view_range": -4,
                "invert_targeting": false
            },
            {
                "action": "Attack",
                "target": "Enemy",
                "target_spec": null,
                "view_range": -4,
                "invert_targeting": false
            }
        ],
        "priority": 20,
        "offense_bias": 2.0
    },
    {
        "nid": "FollowBoss",
        "behaviours": [
            {
                "action": "Attack",
                "target": "Enemy",
                "target_spec": null,
                "view_range": -2,
                "invert_targeting": false
            },
            {
                "action": "Move_to",
                "target": "Ally",
                "target_spec": [
                    "Tag",
                    "Boss"
                ],
                "view_range": -4,
                "invert_targeting": false
            },
            {
                "action": "None",
                "target": "None",
                "target_spec": null,
                "view_range": 0,
                "invert_targeting": false
            }
        ],
        "priority": 15,
        "offense_bias": 2.0
    },
    {
        "nid": "FollowWagon",
        "behaviours": [
            {
                "action": "Attack",
                "target": "Enemy",
                "target_spec": null,
                "view_range": -2,
                "invert_targeting": false
            },
            {
                "action": "Move_to",
                "target": "Ally",
                "target_spec": [
                    "Class",
                    "Wagon"
                ],
                "view_range": -4,
                "invert_targeting": false
            },
            {
                "action": "None",
                "target": "None",
                "target_spec": null,
                "view_range": 0,
                "invert_targeting": false
            }
        ],
        "priority": 15,
        "offense_bias": 2.0
    },
    {
        "nid": "Berserk",
        "behaviours": [
            {
                "action": "Attack",
                "target": "Enemy",
                "target_spec": null,
                "view_range": -4,
                "invert_targeting": false
            },
            {
                "action": "None",
                "target": "None",
                "target_spec": null,
                "view_range": 0,
                "invert_targeting": false
            },
            {
                "action": "None",
                "target": "None",
                "target_spec": null,
                "view_range": 0,
                "invert_targeting": false
            }
        ],
        "priority": 10,
        "offense_bias": 2.0
    },
    {
        "nid": "Heal",
        "behaviours": [
            {
                "action": "Support",
                "target": "Ally",
                "target_spec": null,
                "view_range": -3,
                "invert_targeting": false
            },
            {
                "action": "Move_away_from",
                "target": "Enemy",
                "target_spec": null,
                "view_range": -3,
                "invert_targeting": false
            },
            {
                "action": "None",
                "target": "None",
                "target_spec": null,
                "view_range": 0,
                "invert_targeting": false
            }
        ],
        "priority": 15,
        "offense_bias": 2.0
    },
    {
        "nid": "Thief",
        "behaviours": [
            {
                "action": "Interact",
                "target": "Event",
                "target_spec": "Chest",
                "view_range": -4,
                "invert_targeting": false
            },
            {
                "action": "Interact",
                "target": "Event",
                "target_spec": "Door",
                "view_range": -4,
                "invert_targeting": false
            },
            {
                "action": "Steal",
                "target": "Enemy",
                "target_spec": null,
                "view_range": -2,
                "invert_targeting": false
            }
        ],
        "priority": 12,
        "offense_bias": 2.0
    },
    {
        "nid": "Thief Escape",
        "behaviours": [
            {
                "action": "Interact",
                "target": "Event",
                "target_spec": "Stairs",
                "view_range": -4,
                "invert_targeting": false
            },
            {
                "action": "None",
                "target": "None",
                "target_spec": "Door",
                "view_range": -4,
                "invert_targeting": false
            },
            {
                "action": "None",
                "target": "None",
                "target_spec": null,
                "view_range": -4,
                "invert_targeting": false
            }
        ],
        "priority": 12,
        "offense_bias": 2.0
    },
    {
        "nid": "SimpleThief",
        "behaviours": [
            {
                "action": "Steal",
                "target": "Enemy",
                "target_spec": null,
                "view_range": -2,
                "invert_targeting": false
            },
            {
                "action": "Attack",
                "target": "Enemy",
                "target_spec": null,
                "view_range": -2,
                "invert_targeting": false
            },
            {
                "action": "None",
                "target": "None",
                "target_spec": "Chest",
                "view_range": -4,
                "invert_targeting": false
            }
        ],
        "priority": 12,
        "offense_bias": 2.0
    },
    {
        "nid": "Seize",
        "behaviours": [
            {
                "action": "Interact",
                "target": "Event",
                "target_spec": "Enemy_Seize",
                "view_range": -2,
                "invert_targeting": false
            },
            {
                "action": "Attack",
                "target": "Enemy",
                "target_spec": null,
                "view_range": -2,
                "invert_targeting": false
            },
            {
                "action": "Interact",
                "target": "Event",
                "target_spec": "Enemy_Seize",
                "view_range": -4,
                "invert_targeting": false
            }
        ],
        "priority": 20,
        "offense_bias": 2.0
    },
    {
        "nid": "JoshuaDefend",
        "behaviours": [
            {
                "action": "Attack",
                "target": "Enemy",
                "target_spec": [
                    "ID",
                    "Yarrow"
                ],
                "view_range": -2,
                "invert_targeting": true
            },
            {
                "action": "Move_to",
                "target": "Position",
                "target_spec": "Starting",
                "view_range": -4,
                "invert_targeting": false
            },
            {
                "action": "None",
                "target": "None",
                "target_spec": null,
                "view_range": 0,
                "invert_targeting": false
            }
        ],
        "priority": 20,
        "offense_bias": 2.0
    },
    {
        "nid": "Osbert ",
        "behaviours": [
            {
                "action": "Attack",
                "target": "Enemy",
                "target_spec": [
                    "Name",
                    "Ennis"
                ],
                "view_range": -4,
                "invert_targeting": false
            },
            {
                "action": "None",
                "target": "None",
                "target_spec": null,
                "view_range": 0,
                "invert_targeting": false
            },
            {
                "action": "None",
                "target": "None",
                "target_spec": null,
                "view_range": 0,
                "invert_targeting": false
            }
        ],
        "priority": 20,
        "offense_bias": 2
    },
    {
        "nid": "Go to Ennis",
        "behaviours": [
            {
                "action": "Move_to",
                "target": "Unit",
                "target_spec": [
                    "Name",
                    "Ennis"
                ],
                "view_range": -4,
                "invert_targeting": false
            },
            {
                "action": "None",
                "target": "None",
                "target_spec": null,
                "view_range": 0,
                "invert_targeting": false
            },
            {
                "action": "None",
                "target": "None",
                "target_spec": null,
                "view_range": 0,
                "invert_targeting": false
            }
        ],
        "priority": 20,
        "offense_bias": 2
    },
    {
        "nid": "Go to Cormorant",
        "behaviours": [
            {
                "action": "Move_to",
                "target": "Unit",
                "target_spec": [
                    "Name",
                    "Cormorant"
                ],
                "view_range": -4,
                "invert_targeting": false
            },
            {
                "action": "None",
                "target": "None",
                "target_spec": "",
                "view_range": 0,
                "invert_targeting": false
            },
            {
                "action": "None",
                "target": "None",
                "target_spec": null,
                "view_range": 0,
                "invert_targeting": false
            }
        ],
        "priority": 20,
        "offense_bias": 2.0
    },
    {
        "nid": "Get_chest",
        "behaviours": [
            {
                "action": "Interact",
                "target": "Event",
                "target_spec": "Chest",
                "view_range": -4,
                "invert_targeting": false
            },
            {
                "action": "None",
                "target": "None",
                "target_spec": null,
                "view_range": 0,
                "invert_targeting": false
            },
            {
                "action": "None",
                "target": "None",
                "target_spec": null,
                "view_range": 0,
                "invert_targeting": false
            }
        ],
        "priority": 20,
        "offense_bias": 2
    },
    {
        "nid": "StationaryHeal",
        "behaviours": [
            {
                "action": "Support",
                "target": "Ally",
                "target_spec": null,
                "view_range": -1,
                "invert_targeting": false
            },
            {
                "action": "None",
                "target": "None",
                "target_spec": null,
                "view_range": 0,
                "invert_targeting": false
            },
            {
                "action": "None",
                "target": "None",
                "target_spec": null,
                "view_range": 0,
                "invert_targeting": false
            }
        ],
        "priority": 15,
        "offense_bias": 2.0
    },
    {
        "nid": "Ch6CultistAI",
        "behaviours": [
            {
                "action": "Attack",
                "target": "Enemy",
                "target_spec": [
                    "Team",
                    "enemy"
                ],
                "view_range": -4,
                "invert_targeting": false
            },
            {
                "action": "Attack",
                "target": "Enemy",
                "target_spec": [
                    "Team",
                    "player"
                ],
                "view_range": -4,
                "invert_targeting": false
            },
            {
                "action": "None",
                "target": "None",
                "target_spec": null,
                "view_range": 0,
                "invert_targeting": false
            }
        ],
        "priority": 20,
        "offense_bias": 2.0
    },
    {
        "nid": "Ch6 Looters",
        "behaviours": [
            {
                "action": "Attack",
                "target": "Enemy",
                "target_spec": null,
                "view_range": -2,
                "invert_targeting": false
            },
            {
                "action": "Interact",
                "target": "Event",
                "target_spec": "Destructible",
                "view_range": -3,
                "invert_targeting": false
            },
            {
                "action": "Attack",
                "target": "Enemy",
                "target_spec": null,
                "view_range": -4,
                "invert_targeting": false
            }
        ],
        "priority": 20,
        "offense_bias": 2.0
    },
    {
        "nid": "Abeni Green Units",
        "behaviours": [
            {
                "action": "Attack",
                "target": "Enemy",
                "target_spec": null,
                "view_range": -4,
                "invert_targeting": false
            },
            {
                "action": "Support",
                "target": "Ally",
                "target_spec": null,
                "view_range": -4,
                "invert_targeting": false
            },
            {
                "action": "Move_to",
                "target": "Unit",
                "target_spec": [
                    "Name",
                    "Abeni"
                ],
                "view_range": -4,
                "invert_targeting": false
            }
        ],
        "priority": 20,
        "offense_bias": 2.0
    },
    {
        "nid": "Pursue_Ennis",
        "behaviours": [
            {
                "action": "Attack",
                "target": "Enemy",
                "target_spec": [
                    "Name",
                    "Ennis"
                ],
                "view_range": -4,
                "invert_targeting": false
            },
            {
                "action": "Attack",
                "target": "Enemy",
                "target_spec": [
                    "Team",
                    "player"
                ],
                "view_range": -2,
                "invert_targeting": false
            },
            {
                "action": "None",
                "target": "None",
                "target_spec": [
                    "Team",
                    "player"
                ],
                "view_range": 0,
                "invert_targeting": false
            }
        ],
        "priority": 10,
        "offense_bias": 3.0
    },
    {
        "nid": "Pursue_Cormorant",
        "behaviours": [
            {
                "action": "Attack",
                "target": "Enemy",
                "target_spec": [
                    "Name",
                    "Cormorant"
                ],
                "view_range": -4,
                "invert_targeting": false
            },
            {
                "action": "Attack",
                "target": "Enemy",
                "target_spec": [
                    "Team",
                    "player"
                ],
                "view_range": -2,
                "invert_targeting": false
            },
            {
                "action": "None",
                "target": "None",
                "target_spec": [
                    "Team",
                    "player"
                ],
                "view_range": 0,
                "invert_targeting": false
            }
        ],
        "priority": 10,
        "offense_bias": 3.0
    },
    {
        "nid": "ThiefSimple",
        "behaviours": [
            {
                "action": "Interact",
                "target": "Event",
                "target_spec": "Chest",
                "view_range": -4,
                "invert_targeting": false
            },
            {
                "action": "Interact",
                "target": "Event",
                "target_spec": "Stairs",
                "view_range": -4,
                "invert_targeting": false
            },
            {
                "action": "Steal",
                "target": "Enemy",
                "target_spec": null,
                "view_range": -4,
                "invert_targeting": false
            }
        ],
        "priority": 20,
        "offense_bias": 2.0
    },
    {
        "nid": "GuardSupport",
        "behaviours": [
            {
                "action": "Support",
                "target": "Ally",
                "target_spec": null,
                "view_range": -1,
                "invert_targeting": false
            },
            {
                "action": "None",
                "target": "None",
                "target_spec": null,
                "view_range": 0,
                "invert_targeting": false
            },
            {
                "action": "None",
                "target": "None",
                "target_spec": null,
                "view_range": 0,
                "invert_targeting": false
            }
        ],
        "priority": 20,
        "offense_bias": 2.0
    },
    {
        "nid": "GuardSupportAttack",
        "behaviours": [
            {
                "action": "Attack",
                "target": "Enemy",
                "target_spec": null,
                "view_range": -1,
                "invert_targeting": false
            },
            {
                "action": "Support",
                "target": "Ally",
                "target_spec": null,
                "view_range": -1,
                "invert_targeting": false
            },
            {
                "action": "None",
                "target": "None",
                "target_spec": null,
                "view_range": 0,
                "invert_targeting": false
            }
        ],
        "priority": 20,
        "offense_bias": 2
    }
]