[
    {
        "nid": "Soldier",
        "name": "Soldier",
        "desc": "A flesh-and-blood representative of a nation's crushing power.",
        "icon_nid": "KnightEmblem",
        "icon_index": [
            0,
            0
        ]
    },
    {
        "nid": "Cutthroat",
        "name": "Cutthroat",
        "desc": "Paid killers of the mysterious Organization.",
        "icon_nid": "BanditEmblem",
        "icon_index": [
            0,
            0
        ]
    },
    {
        "nid": "Pirate",
        "name": "Pirate",
        "desc": "Bandits of the sea.",
        "icon_nid": "BanditEmblem",
        "icon_index": [
            0,
            0
        ]
    },
    {
        "nid": "Bandit",
        "name": "Bandit",
        "desc": "Simply put, power is the ability to take what you want. And bandits are simple folk.",
        "icon_nid": "NeutralEmblem",
        "icon_index": [
            0,
            0
        ]
    },
    {
        "nid": "Wall",
        "name": "Wall",
        "desc": "",
        "icon_nid": "BlankEmblem",
        "icon_index": [
            0,
            0
        ]
    },
    {
        "nid": "Cult",
        "name": "Cult",
        "desc": "Members of an unknown cult, dedicated to worshipping the Suzerain Priela.",
        "icon_nid": "MonsterEmblem",
        "icon_index": [
            0,
            0
        ]
    },
    {
        "nid": "Citizen",
        "name": "Citizen",
        "desc": "Simplefolk have no time for intrigue and combat. They just want to be left in peace.",
        "icon_nid": "BlankEmblem",
        "icon_index": [
            0,
            0
        ]
    },
    {
        "nid": "Monster",
        "name": "Monster",
        "desc": "Various unclassified creatures endemic to this land.",
        "icon_nid": "MonsterEmblem",
        "icon_index": [
            0,
            0
        ]
    },
    {
        "nid": "Terrorist",
        "name": "Terrorist",
        "desc": "Fanatics fighting to create a \"better\nworld\" - one corpse at a time.",
        "icon_nid": "ResistanceEmblem",
        "icon_index": [
            0,
            0
        ]
    },
    {
        "nid": "Crown Knight",
        "name": "Crown Knight",
        "desc": "Oathbound knights of the Crown of\nBraghedunn. Powerful and well-trained.",
        "icon_nid": "KnightEmblem",
        "icon_index": [
            0,
            0
        ]
    },
    {
        "nid": "Fomorian",
        "name": "Fomorian",
        "desc": "Ancient creatures who bring naught but death and blight.",
        "icon_nid": "MonsterEmblem",
        "icon_index": [
            0,
            0
        ]
    },
    {
        "nid": "Prisoner",
        "name": "Prisoner",
        "desc": "A once-human, now mindless from Fenian experiments.",
        "icon_nid": "MonsterEmblem",
        "icon_index": [
            0,
            0
        ]
    },
    {
        "nid": "Fenian",
        "name": "Fenian",
        "desc": "Radicals seeking the destruction of magic.",
        "icon_nid": "ResistanceEmblem",
        "icon_index": [
            0,
            0
        ]
    },
    {
        "nid": "Mercenary",
        "name": "Mercenary",
        "desc": "A fighter with little allegiance other than coin.",
        "icon_nid": "BanditEmblem",
        "icon_index": [
            0,
            0
        ]
    },
    {
        "nid": "Knife",
        "name": "Knife",
        "desc": "Believe it or not, it's a knife.",
        "icon_nid": "BlankEmblem",
        "icon_index": [
            0,
            0
        ]
    }
]