[
    {
        "nid": "EnemySummons10",
        "dtype": "list",
        "svalue": "",
        "kvvalue": [],
        "lovalue": [
            {
                "nid": "Summon0"
            },
            {
                "nid": "Summon1"
            },
            {
                "nid": "Summon2"
            }
        ],
        "oattrs": [
            "nid"
        ]
    }
]