[
    "Berserker",
    "Generic_Portrait_Arch_Mogall",
    "Generic_Portrait_Archer",
    "Generic_Portrait_Assassin",
    "Generic_Portrait_Bishop",
    "Generic_Portrait_Brigand",
    "Generic_Portrait_Cavalier",
    "Generic_Portrait_Citizen",
    "Generic_Portrait_Cleric",
    "Generic_Portrait_Entombed",
    "Generic_Portrait_Falcoknight",
    "Generic_Portrait_Fighter",
    "Generic_Portrait_General",
    "Generic_Portrait_Great_Knight",
    "Generic_Portrait_Knight",
    "Generic_Portrait_Mage (1)",
    "Generic_Portrait_Mage_Knight",
    "Generic_Portrait_Mercenary",
    "Generic_Portrait_Mogall",
    "Generic_Portrait_Monk",
    "Generic_Portrait_Myrmidon",
    "Generic_Portrait_Paladin",
    "Generic_Portrait_Pegasus_Knight",
    "Generic_Portrait_Pirate",
    "Generic_Portrait_Ranger",
    "Generic_Portrait_Revenant",
    "Generic_Portrait_Sage",
    "Generic_Portrait_Shaman",
    "Generic_Portrait_Sniper",
    "Generic_Portrait_Soldier",
    "Generic_Portrait_Sword_Bonewalker",
    "Generic_Portrait_Sword_Wight",
    "Generic_Portrait_Swordmaster",
    "Generic_Portrait_Thief",
    "Generic_Portrait_Troubadour",
    "Generic_Portrait_Valkyrie",
    "Generic_Portrait_Vanguard",
    "Generic_Portrait_Warrior",
    "Generic_Portrait_Wyvern_Knight",
    "Generic_Portrait_Wyvern_Lord",
    "Generic_Portrait_Wyvern_Rider",
    "Generic_Portrait_Warlock",
    "fleet class card",
    "Knight (U) Axe {Der, Epicer}",
    "Gargoyle Lance {IS}",
    "Gargoyle Deathgoyle Lance {IS}",
    "Mauthe Doog {IS}",
    "Mauthe Doog Gwyllgi {IS}",
    "Tarvos (M) Axe {IS}",
    "Tarvos (M) Maelduin Axe {IS}",
    "Bael {IS}",
    "Bael Elder {IS}"
]