[
    [
        "Chapter Sound",
        false,
        false
    ],
    [
        "Distant Roads",
        false,
        false
    ],
    [
        "Quiet Burn",
        false,
        true
    ],
    [
        "Shadow of the Enemy",
        false,
        false
    ],
    [
        "Main Theme",
        false,
        false
    ],
    [
        "Grasp at Victory",
        false,
        false
    ],
    [
        "Attack",
        false,
        false
    ],
    [
        "Defense",
        false,
        false
    ],
    [
        "The Battle Must Be Won",
        false,
        false
    ],
    [
        "Healing",
        false,
        false
    ],
    [
        "Combat Preparation",
        false,
        false
    ],
    [
        "Shops",
        false,
        false
    ],
    [
        "Armory",
        false,
        false
    ],
    [
        "Game Over",
        false,
        false
    ],
    [
        "In Sorrows Shroud",
        false,
        false
    ],
    [
        "Rainy Save Room",
        false,
        false
    ],
    [
        "rain",
        false,
        false
    ],
    [
        "In Search of Victory - Adversity",
        false,
        false
    ],
    [
        "CalmFolk",
        false,
        false
    ],
    [
        "ForebodingMidnasTheme",
        false,
        false
    ],
    [
        "ImpendingDeathLOTR",
        false,
        false
    ],
    [
        "SmallMarketplace",
        false,
        false
    ],
    [
        "StreetFighting",
        false,
        false
    ],
    [
        "Silence",
        false,
        false
    ],
    [
        "InnAmbience",
        false,
        false
    ],
    [
        "DuskFalls",
        false,
        true
    ],
    [
        "Sigma Harmonics - Hope Given 'Dance of the Dog's Howl'",
        false,
        false
    ],
    [
        "One on One fixed",
        false,
        false
    ],
    [
        "Rage Fixed",
        false,
        false
    ],
    [
        "Mary Skelter OST-Urge To Freedom",
        false,
        false
    ],
    [
        "Sigma male test",
        false,
        false
    ],
    [
        "OMORI OST - 082 Wandering Rose",
        false,
        false
    ],
    [
        "Flouring With You be like",
        false,
        false
    ],
    [
        "Flight over Venice",
        false,
        false
    ],
    [
        "Pathologic Soundtrack - Disease",
        false,
        false
    ],
    [
        "The Dark Forest - Professor Layton vs. Phoenix Wright - Ace Attorney",
        false,
        false
    ],
    [
        "More Puzzles - Professor Layton vs. Phoenix Wright - Ace Attorney",
        false,
        false
    ],
    [
        "Code Geass Lelouch of the Rebellion R2 OST - 04. Beautiful Emperor",
        false,
        false
    ],
    [
        "OMORI OST - 084 Valour Against All Odds",
        false,
        false
    ],
    [
        "Pilgrimage",
        false,
        false
    ],
    [
        "Therion",
        false,
        false
    ],
    [
        "FF6 Battle",
        false,
        false
    ],
    [
        "Mines of Narshe",
        false,
        false
    ],
    [
        "Sanctuary of ZiTah",
        false,
        false
    ],
    [
        "Faron Woods",
        false,
        false
    ],
    [
        "Hollow Knight Dirtmouth - Christopher Larkin",
        false,
        false
    ],
    [
        "Valkyrie Profile All is Twilight - Motoi Sakuraba",
        false,
        false
    ],
    [
        "Forest Campfire - Orange Free Sounds",
        false,
        false
    ],
    [
        "Pirates of the Caribbean Hes a Pirate - Hans Zimmer",
        false,
        false
    ],
    [
        "Radiant Dawn Tension - IS",
        false,
        false
    ],
    [
        "Tactics Ogre Let Us Cling Together Avilla Hanya - Hitoshi Sakimoto and Masaharu Iwata",
        false,
        false
    ],
    [
        "Valkyrie Profile The Counterfeit Self",
        false,
        false
    ],
    [
        "Thracia-776-Union-of-Knights",
        false,
        false
    ],
    [
        "Hollow Knight - Hornet",
        false,
        false
    ],
    [
        "Strange Occurrences",
        false,
        false
    ],
    [
        "Lunatic Guardian",
        false,
        false
    ],
    [
        "Fates - Past Below",
        false,
        true
    ],
    [
        "Deliverance",
        false,
        false
    ],
    [
        "SoV - With Mila's Divine Protection",
        false,
        false
    ],
    [
        "FE10 Bearer of Hope",
        false,
        false
    ],
    [
        "Chamber Of Sages",
        false,
        false
    ],
    [
        "4-01 Road Taken",
        false,
        true
    ],
    [
        "Road Taken",
        false,
        true
    ]
]