[
    {
        "nid": "Advance",
        "name": "Advance",
        "desc": "",
        "icon_nid": "{J-Treecko} {Lex Talionis} All Icons",
        "icon_index": [
            0,
            15
        ],
        "components": [
            [
                "attack_after_combat",
                null
            ],
            [
                "no_map_hp_display",
                null
            ],
            [
                "spell",
                null
            ],
            [
                "no_ai",
                null
            ],
            [
                "target_unit",
                null
            ],
            [
                "draw_back",
                -1
            ],
            [
                "min_range",
                1
            ],
            [
                "max_range",
                1
            ]
        ]
    }
]