[
    {
        "nid": "Arcane Epee",
        "name": "Arcane Epee",
        "desc": "+2 Mana on kill. Effective vs. mages.",
        "icon_nid": "arcane epee",
        "icon_index": [
            0,
            0
        ],
        "components": [
            [
                "weapon",
                null
            ],
            [
                "target_enemy",
                null
            ],
            [
                "level_exp",
                null
            ],
            [
                "damage",
                5
            ],
            [
                "hit",
                90
            ],
            [
                "weapon_type",
                "Sword"
            ],
            [
                "weapon_rank",
                "C"
            ],
            [
                "uses",
                18
            ],
            [
                "uses_options",
                [
                    [
                        "LoseUsesOnMiss (T/F)",
                        "F",
                        "Lose uses even on miss"
                    ]
                ]
            ],
            [
                "weight",
                12
            ],
            [
                "crit",
                0
            ],
            [
                "value",
                1300
            ],
            [
                "min_range",
                1
            ],
            [
                "max_range",
                1
            ],
            [
                "effective",
                10
            ],
            [
                "effective_tag",
                [
                    "Magic"
                ]
            ],
            [
                "status_on_equip",
                "Arcane Epee"
            ]
        ]
    }
]