[
    {
        "nid": "Arms Scroll",
        "name": "Arms Scroll",
        "desc": "Gives 50 wexp with the equipped weapon type.",
        "icon_nid": "processed_ffta2consumables",
        "icon_index": [
            0,
            2
        ],
        "components": [
            [
                "usable",
                null
            ],
            [
                "target_ally",
                null
            ],
            [
                "uses",
                1
            ],
            [
                "uses_options",
                [
                    [
                        "LoseUsesOnMiss (T/F)",
                        "F",
                        "Lose uses even on miss"
                    ]
                ]
            ],
            [
                "value",
                8000
            ],
            [
                "event_on_use",
                "Global Item_Arms_Scroll"
            ],
            [
                "eval_target_restrict",
                "unit.get_weapon()"
            ],
            [
                "usable_in_base",
                null
            ]
        ]
    }
]