[
    {
        "nid": "Baselard",
        "name": "Baselard",
        "desc": "CON + 5. Inflicts DEF -8 on hit. ",
        "icon_nid": "Ershkigal Baselard",
        "icon_index": [
            0,
            0
        ],
        "components": [
            [
                "weapon",
                null
            ],
            [
                "value",
                120
            ],
            [
                "target_enemy",
                null
            ],
            [
                "min_range",
                1
            ],
            [
                "max_range",
                2
            ],
            [
                "damage",
                14
            ],
            [
                "hit",
                105
            ],
            [
                "crit",
                0
            ],
            [
                "weight",
                12
            ],
            [
                "uses",
                30
            ],
            [
                "uses_options",
                [
                    [
                        "LoseUsesOnMiss (T/F)",
                        "F",
                        "Lose uses even on miss"
                    ]
                ]
            ],
            [
                "level_exp",
                null
            ],
            [
                "weapon_type",
                "Dagger"
            ],
            [
                "weapon_rank",
                "S"
            ],
            [
                "status_on_hit",
                "Baselard Debuff"
            ],
            [
                "status_on_equip",
                "Baselard CON +5"
            ],
            [
                "battle_cast_anim",
                "Arrow"
            ]
        ]
    }
]