[
    {
        "nid": "Blarney Nugget",
        "name": "Blarney Nugget",
        "desc": "Restores 5 Mana. Usable once per chapter.",
        "icon_nid": "processed_ffta2accessories",
        "icon_index": [
            0,
            14
        ],
        "components": [
            [
                "usable",
                null
            ],
            [
                "value",
                3000
            ],
            [
                "target_ally",
                null
            ],
            [
                "c_uses",
                1
            ],
            [
                "uses_options",
                [
                    [
                        "LoseUsesOnMiss (T/F)",
                        "F",
                        "Lose uses even on miss"
                    ]
                ]
            ],
            [
                "map_hit_add_blend",
                [
                    158,
                    255,
                    164
                ]
            ],
            [
                "mana_cost",
                -5
            ],
            [
                "accessory",
                null
            ]
        ]
    }
]