[
    {
        "nid": "Blood Diamond",
        "name": "Blood Diamond",
        "desc": "Take double damage and deal 0.75x\ndamage, but gain 1.5x EXP.",
        "icon_nid": "blood diamond",
        "icon_index": [
            0,
            0
        ],
        "components": [
            [
                "accessory",
                null
            ],
            [
                "status_on_hold",
                "Blood Diamond"
            ],
            [
                "value",
                5000
            ]
        ]
    }
]