[
    {
        "nid": "Calamity",
        "name": "Calamity",
        "desc": "Brings forth ruin.",
        "icon_nid": "LTSkillIconSheet",
        "icon_index": [
            0,
            46
        ],
        "components": [
            [
                "no_map_hp_display",
                null
            ],
            [
                "target_ally",
                null
            ],
            [
                "max_range",
                0
            ],
            [
                "min_range",
                0
            ],
            [
                "status_after_combat_on_hit",
                "Calamity_Aura"
            ],
            [
                "attack_after_combat",
                null
            ],
            [
                "mana_cost",
                13
            ]
        ]
    }
]