[
    {
        "nid": "Carnwennan",
        "name": "Carnwennan",
        "desc": "When initiating an attack, unit will teleport next to target. Ignores Defense. Thieves and Rogues only.",
        "icon_nid": "tactics_ogre",
        "icon_index": [
            0,
            14
        ],
        "components": [
            [
                "weapon",
                null
            ],
            [
                "target_enemy",
                null
            ],
            [
                "min_range",
                2
            ],
            [
                "max_range",
                3
            ],
            [
                "damage",
                6
            ],
            [
                "hit",
                95
            ],
            [
                "crit",
                0
            ],
            [
                "weight",
                7
            ],
            [
                "uses",
                30
            ],
            [
                "uses_options",
                [
                    [
                        "LoseUsesOnMiss (T/F)",
                        "F",
                        "Lose uses even on miss"
                    ]
                ]
            ],
            [
                "level_exp",
                null
            ],
            [
                "weapon_type",
                "Dagger"
            ],
            [
                "weapon_rank",
                "C"
            ],
            [
                "alternate_resist_formula",
                "ZERO"
            ],
            [
                "prf_class",
                [
                    "Thief",
                    "Rogue"
                ]
            ],
            [
                "event_after_combat",
                "Global Ability_TetherLeap"
            ],
            [
                "menu_after_combat",
                null
            ],
            [
                "battle_cast_anim",
                "Arrow"
            ]
        ]
    }
]