[
    {
        "nid": "Cloneswap",
        "name": "Cloneswap <red>(5 Mana)</>",
        "desc": "Switches positions with Osbert or one of his clones. Clones use Osbert's mana.",
        "icon_nid": "LTSkillIconSheet",
        "icon_index": [
            3,
            7
        ],
        "components": [
            [
                "no_map_hp_display",
                null
            ],
            [
                "target_unit",
                null
            ],
            [
                "swap",
                null
            ],
            [
                "mana_cost",
                6
            ],
            [
                "global_range",
                null
            ],
            [
                "min_range",
                1
            ],
            [
                "eval_target_restrict",
                "unit.nid in (\"Osbert\", \"AxeBert\", \"LanceBert\", \"Swordbert\")"
            ],
            [
                "unsplashable",
                null
            ]
        ]
    }
]