[
    {
        "nid": "Danu's Shawl",
        "name": "Danu's Shawl",
        "desc": "Fragment of the mantle of a goddess. Grants +5 RES, +5 LCK, and -2 DEF.",
        "icon_nid": "processed_ffta2armors",
        "icon_index": [
            0,
            50
        ],
        "components": [
            [
                "accessory",
                null
            ],
            [
                "status_on_hold",
                "Danu's Blessing"
            ]
        ]
    }
]