[
    {
        "nid": "Defender",
        "name": "Defender",
        "desc": "-4 damage taken when defending.",
        "icon_nid": "processed_ffta2swords",
        "icon_index": [
            0,
            3
        ],
        "components": [
            [
                "weapon",
                null
            ],
            [
                "target_enemy",
                null
            ],
            [
                "min_range",
                1
            ],
            [
                "max_range",
                1
            ],
            [
                "damage",
                5
            ],
            [
                "hit",
                90
            ],
            [
                "crit",
                0
            ],
            [
                "weight",
                8
            ],
            [
                "level_exp",
                null
            ],
            [
                "weapon_type",
                "Sword"
            ],
            [
                "uses",
                10
            ],
            [
                "uses_options",
                [
                    [
                        "LoseUsesOnMiss (T/F)",
                        "F",
                        "Lose uses even on miss"
                    ]
                ]
            ],
            [
                "weapon_rank",
                "C"
            ],
            [
                "status_on_equip",
                "Defender"
            ],
            [
                "value",
                800
            ]
        ]
    }
]