[
    {
        "nid": "Destiny Plume",
        "name": "Destiny Plume",
        "desc": "BROKEN. DO NOT USE.\nGreat power at a great price.",
        "icon_nid": "LTSkillIconSheet",
        "icon_index": [
            7,
            30
        ],
        "components": [
            [
                "usable",
                null
            ],
            [
                "target_ally",
                null
            ],
            [
                "uses",
                1
            ],
            [
                "uses_options",
                [
                    [
                        "LoseUsesOnMiss (T/F)",
                        "F",
                        "Lose uses even on miss"
                    ]
                ]
            ],
            [
                "event_on_use",
                "Global Item_DestinyPlume"
            ]
        ]
    }
]