[
    {
        "nid": "Disguise",
        "name": "Disguise",
        "desc": "Moves user to other side of an adjacent unit.\nIf target is an enemy, disguies user as an enemy until the start of next Player Phase.",
        "icon_nid": "LTSkillIconSheet",
        "icon_index": [
            4,
            36
        ],
        "components": [
            [
                "no_map_hp_display",
                null
            ],
            [
                "target_unit",
                null
            ],
            [
                "max_range",
                1
            ],
            [
                "min_range",
                1
            ],
            [
                "event_after_combat",
                "Global Ability_Disguise"
            ],
            [
                "pivot",
                1
            ],
            [
                "pivot_target_restrict",
                1
            ]
        ]
    }
]