[
    {
        "nid": "Dispeller",
        "name": "Dispeller",
        "desc": "Suppresses nearby magic and mana skills. Cannot be stolen.",
        "icon_nid": "processed_ffta2consumables",
        "icon_index": [
            0,
            9
        ],
        "components": [
            [
                "accessory",
                null
            ],
            [
                "status_on_hold",
                "Dispeller"
            ],
            [
                "unstealable",
                null
            ]
        ]
    }
]