[
    {
        "nid": "Egg Bomb",
        "name": "Egg Bomb",
        "desc": "Consumable. Deals 10 damage in a circle of radius 1.",
        "icon_nid": "egg bomb",
        "icon_index": [
            0,
            0
        ],
        "components": [
            [
                "value",
                800
            ],
            [
                "target_tile",
                null
            ],
            [
                "min_range",
                2
            ],
            [
                "max_range",
                3
            ],
            [
                "damage",
                10
            ],
            [
                "hit",
                120
            ],
            [
                "uses",
                1
            ],
            [
                "uses_options",
                [
                    [
                        "LoseUsesOnMiss (T/F)",
                        "F",
                        "Lose uses even on miss"
                    ]
                ]
            ],
            [
                "map_hit_add_blend",
                [
                    255,
                    255,
                    255
                ]
            ],
            [
                "spell",
                null
            ],
            [
                "alternate_resist_formula",
                "ZERO"
            ],
            [
                "no_double",
                null
            ],
            [
                "alternate_damage_formula",
                "ZERO"
            ],
            [
                "enemy_blast_aoe",
                1
            ]
        ]
    }
]