[
    {
        "nid": "Elixir",
        "name": "Elixir",
        "desc": "Fully recovers HP.",
        "icon_nid": "Consumable",
        "icon_index": [
            0,
            3
        ],
        "components": [
            [
                "usable",
                null
            ],
            [
                "value",
                3000
            ],
            [
                "target_ally",
                null
            ],
            [
                "uses",
                3
            ],
            [
                "uses_options",
                [
                    [
                        "LoseUsesOnMiss (T/F)",
                        "F",
                        "Lose uses even on miss"
                    ]
                ]
            ],
            [
                "heal",
                99
            ],
            [
                "map_hit_add_blend",
                [
                    96,
                    144,
                    232
                ]
            ],
            [
                "eval_target_restrict",
                "unit.nid != 'Jarze'"
            ]
        ]
    }
]