[
    {
        "nid": "Eruption",
        "name": "Eruption",
        "desc": "AoE 1. Lowers DEF on hit.",
        "icon_nid": "tactics_ogre",
        "icon_index": [
            12,
            5
        ],
        "components": [
            [
                "weapon",
                null
            ],
            [
                "target_enemy",
                null
            ],
            [
                "min_range",
                2
            ],
            [
                "max_range",
                2
            ],
            [
                "damage",
                10
            ],
            [
                "hit",
                90
            ],
            [
                "crit",
                0
            ],
            [
                "weight",
                12
            ],
            [
                "level_exp",
                null
            ],
            [
                "weapon_type",
                "Anima"
            ],
            [
                "weapon_rank",
                "C"
            ],
            [
                "map_hit_add_blend",
                [
                    224,
                    96,
                    0
                ]
            ],
            [
                "magic",
                null
            ],
            [
                "value",
                1600
            ],
            [
                "uses",
                10
            ],
            [
                "uses_options",
                [
                    [
                        "LoseUsesOnMiss (T/F)",
                        "F",
                        "Lose uses even on miss"
                    ]
                ]
            ],
            [
                "wexp",
                2
            ],
            [
                "battle_cast_anim",
                "Fire"
            ],
            [
                "status_on_hit",
                "DEF Break"
            ],
            [
                "enemy_blast_aoe",
                1
            ]
        ]
    }
]