[
    {
        "nid": "Eviolite",
        "name": "Eviolite",
        "desc": "Boosts defenses of low-level T1 units.\n(12-Level // 2; so levels 1 and 2\nget +5, 3 and 4 get +4, etc.)",
        "icon_nid": "eviolite 2",
        "icon_index": [
            0,
            0
        ],
        "components": [
            [
                "accessory",
                null
            ],
            [
                "status_on_hold",
                "EvioliteBuffs"
            ]
        ]
    }
]