[
    {
        "nid": "ExcalipoorSwing",
        "name": "Excalipoor",
        "desc": "Effective vs. all units.",
        "icon_nid": "tactics_ogre",
        "icon_index": [
            0,
            12
        ],
        "components": [
            [
                "weapon",
                null
            ],
            [
                "target_enemy",
                null
            ],
            [
                "min_range",
                1
            ],
            [
                "max_range",
                1
            ],
            [
                "weapon_type",
                "Sword"
            ],
            [
                "weapon_rank",
                "E"
            ],
            [
                "hit",
                90
            ],
            [
                "damage",
                1
            ],
            [
                "crit",
                15
            ],
            [
                "weight",
                4
            ],
            [
                "level_exp",
                null
            ],
            [
                "wexp",
                3
            ],
            [
                "effective_tag",
                [
                    "All"
                ]
            ],
            [
                "effective",
                2
            ]
        ]
    }
]