[
    {
        "nid": "Excalipoor",
        "name": "Excalipoor",
        "desc": "Effective vs. everyone, but...",
        "icon_nid": "tactics_ogre",
        "icon_index": [
            0,
            12
        ],
        "components": [
            [
                "multi_item",
                [
                    "ExcalipoorSwing",
                    "ExcalipoorThrow"
                ]
            ],
            [
                "uses",
                50
            ],
            [
                "uses_options",
                [
                    [
                        "LoseUsesOnMiss (T/F)",
                        "F",
                        "Lose uses even on miss"
                    ]
                ]
            ]
        ]
    }
]