[
    {
        "nid": "Fili Shield",
        "name": "Fili Shield",
        "desc": "Negates effective bonus of bows and wind magic toward user. Cannot be stolen.",
        "icon_nid": "Boosters",
        "icon_index": [
            0,
            20
        ],
        "components": [
            [
                "value",
                10000
            ],
            [
                "status_on_hold",
                "Fili Shield"
            ],
            [
                "accessory",
                null
            ],
            [
                "unstealable",
                null
            ]
        ]
    }
]