[
    {
        "nid": "Firesweep L.",
        "name": "Firesweep L.",
        "desc": "Cannot counter or be countered.",
        "icon_nid": "tactics_ogre",
        "icon_index": [
            3,
            12
        ],
        "components": [
            [
                "cannot_be_countered",
                null
            ],
            [
                "cannot_counter",
                null
            ],
            [
                "weapon",
                null
            ],
            [
                "target_enemy",
                null
            ],
            [
                "level_exp",
                null
            ],
            [
                "damage",
                5
            ],
            [
                "hit",
                70
            ],
            [
                "weapon_type",
                "Lance"
            ],
            [
                "weapon_rank",
                "C"
            ],
            [
                "uses",
                20
            ],
            [
                "uses_options",
                [
                    [
                        "LoseUsesOnMiss (T/F)",
                        "F",
                        "Lose uses even on miss"
                    ]
                ]
            ],
            [
                "weight",
                4
            ],
            [
                "crit",
                0
            ],
            [
                "min_range",
                1
            ],
            [
                "max_range",
                1
            ]
        ]
    }
]