[
    {
        "nid": "FloorTrap",
        "name": "Set Trap",
        "desc": "Place a trap at the chosen location",
        "icon_nid": "Skills",
        "icon_index": [
            9,
            2
        ],
        "components": [
            [
                "target_tile",
                null
            ],
            [
                "empty_tile_target_restrict",
                null
            ],
            [
                "min_range",
                1
            ],
            [
                "max_range",
                1
            ],
            [
                "event_after_use",
                "Global Ability_FessianTrap"
            ],
            [
                "mana_cost",
                10
            ]
        ]
    }
]