[
    {
        "nid": "Fragrant Herb",
        "name": "Fragrant Herb",
        "desc": "Restores 15 HP to user, or to a nearby ally.",
        "icon_nid": "processed_ffta2consumables",
        "icon_index": [
            0,
            10
        ],
        "components": [
            [
                "spell",
                null
            ],
            [
                "value",
                1700
            ],
            [
                "target_ally",
                null
            ],
            [
                "min_range",
                0
            ],
            [
                "max_range",
                2
            ],
            [
                "uses",
                5
            ],
            [
                "uses_options",
                [
                    [
                        "LoseUsesOnMiss (T/F)",
                        "F",
                        "Lose uses even on miss"
                    ]
                ]
            ],
            [
                "map_hit_add_blend",
                [
                    96,
                    144,
                    232
                ]
            ],
            [
                "heal",
                15
            ],
            [
                "eval_target_restrict",
                "unit.nid != 'Jarze'"
            ]
        ]
    }
]