[
    {
        "nid": "Gae Bolg",
        "name": "Gae Bolg",
        "desc": "You cannot run from fate.",
        "icon_nid": "processed_ffta2lances",
        "icon_index": [
            0,
            2
        ],
        "components": [
            [
                "weapon",
                null
            ],
            [
                "target_enemy",
                null
            ],
            [
                "level_exp",
                null
            ],
            [
                "damage",
                0
            ],
            [
                "hit",
                255
            ],
            [
                "weapon_type",
                "Lance"
            ],
            [
                "weapon_rank",
                "S"
            ],
            [
                "uses",
                1
            ],
            [
                "uses_options",
                [
                    [
                        "LoseUsesOnMiss (T/F)",
                        "F",
                        "Lose uses even on miss"
                    ]
                ]
            ],
            [
                "weight",
                63
            ],
            [
                "crit",
                31
            ],
            [
                "value",
                0
            ],
            [
                "min_range",
                1
            ],
            [
                "max_range",
                1
            ],
            [
                "effective",
                127
            ],
            [
                "effective_tag",
                [
                    "Lord"
                ]
            ],
            [
                "text_color",
                "red"
            ]
        ]
    }
]