[
    {
        "nid": "Hasty Shoes",
        "name": "Hasty Shoes",
        "desc": "Weak shoes that help to wearer\ntravel with ease.\n+1 MOV, -3 Def, -3 Res",
        "icon_nid": "tactics_ogre",
        "icon_index": [
            8,
            10
        ],
        "components": [
            [
                "accessory",
                null
            ],
            [
                "status_on_hold",
                "Hasty Shoes"
            ]
        ]
    }
]