[
    {
        "nid": "Healing Ring",
        "name": "Healing Ring",
        "desc": "Grants an aura that heals allies in range every turn.",
        "icon_nid": "tactics_ogre",
        "icon_index": [
            8,
            5
        ],
        "components": [
            [
                "accessory",
                null
            ],
            [
                "status_on_hold",
                "Health Font"
            ]
        ]
    }
]