[
    {
        "nid": "Heal",
        "name": "Heal",
        "desc": "Restores (User's MAG + 10) HP.",
        "icon_nid": "Staff",
        "icon_index": [
            0,
            0
        ],
        "components": [
            [
                "spell",
                null
            ],
            [
                "value",
                600
            ],
            [
                "target_ally",
                null
            ],
            [
                "min_range",
                1
            ],
            [
                "max_range",
                1
            ],
            [
                "weapon_type",
                "Staff"
            ],
            [
                "weapon_rank",
                "E"
            ],
            [
                "uses",
                30
            ],
            [
                "uses_options",
                [
                    [
                        "LoseUsesOnMiss (T/F)",
                        "F",
                        "Lose uses even on miss"
                    ]
                ]
            ],
            [
                "exp",
                11
            ],
            [
                "wexp",
                2
            ],
            [
                "map_hit_add_blend",
                [
                    96,
                    144,
                    232
                ]
            ],
            [
                "magic_heal",
                10
            ],
            [
                "magic",
                null
            ],
            [
                "eval_target_restrict",
                "unit.nid != 'Jarze'"
            ]
        ]
    }
]