[
    {
        "nid": "Hero Killer",
        "name": "Hero Killer",
        "desc": "Effective vs. lords.",
        "icon_nid": "hero killer",
        "icon_index": [
            0,
            0
        ],
        "components": [
            [
                "weapon",
                null
            ],
            [
                "target_enemy",
                null
            ],
            [
                "level_exp",
                null
            ],
            [
                "damage",
                11
            ],
            [
                "hit",
                65
            ],
            [
                "weapon_type",
                "Sword"
            ],
            [
                "weapon_rank",
                "C"
            ],
            [
                "uses",
                13
            ],
            [
                "uses_options",
                [
                    [
                        "LoseUsesOnMiss (T/F)",
                        "F",
                        "Lose uses even on miss"
                    ]
                ]
            ],
            [
                "weight",
                13
            ],
            [
                "crit",
                0
            ],
            [
                "value",
                2100
            ],
            [
                "min_range",
                1
            ],
            [
                "max_range",
                1
            ],
            [
                "effective",
                22
            ],
            [
                "effective_tag",
                [
                    "Lord"
                ]
            ]
        ]
    }
]