[
    {
        "nid": "Iron Boots",
        "name": "Iron Boots",
        "desc": "Heavy boots that offer\na lot of protection.\n-1 MOV, +5 Def",
        "icon_nid": "processed_ffta2accessories",
        "icon_index": [
            0,
            8
        ],
        "components": [
            [
                "accessory",
                null
            ],
            [
                "status_on_hold",
                "Iron Boots"
            ]
        ]
    }
]