[
    {
        "nid": "Lesser Sigil",
        "name": "Lesser Sigil",
        "desc": "An ancient sigil, long-faded. Grants 25 experience on use.",
        "icon_nid": "EXP Stones",
        "icon_index": [
            0,
            0
        ],
        "components": [
            [
                "usable",
                null
            ],
            [
                "target_ally",
                null
            ],
            [
                "uses",
                1
            ],
            [
                "uses_options",
                [
                    [
                        "LoseUsesOnMiss (T/F)",
                        "F",
                        "Lose uses even on miss"
                    ]
                ]
            ],
            [
                "map_hit_add_blend",
                [
                    255,
                    255,
                    255
                ]
            ],
            [
                "map_cast_sfx",
                "Experience Gain"
            ],
            [
                "event_after_use",
                "Global Item_25ExpCrest"
            ],
            [
                "usable_in_base",
                null
            ]
        ]
    }
]