[
    {
        "nid": "Long Shot",
        "name": "Long Shot",
        "desc": "Assists Kingfisher in aiming and firing a devastating shot at immense range.",
        "icon_nid": "Bow",
        "icon_index": [
            0,
            8
        ],
        "components": [
            [
                "weapon",
                null
            ],
            [
                "value",
                540
            ],
            [
                "target_enemy",
                null
            ],
            [
                "min_range",
                2
            ],
            [
                "max_range",
                9
            ],
            [
                "damage",
                16
            ],
            [
                "hit",
                100
            ],
            [
                "crit",
                0
            ],
            [
                "weight",
                13
            ],
            [
                "level_exp",
                null
            ],
            [
                "effective",
                32
            ],
            [
                "effective_tag",
                [
                    "Flying"
                ]
            ],
            [
                "eval_special_range",
                "x == 0 or y == 0"
            ],
            [
                "event_after_use",
                "Global Ability_LongTargetActivate"
            ],
            [
                "alternate_damage_formula",
                "SKLDMG"
            ]
        ]
    }
]