[
    {
        "nid": "Mana Potion",
        "name": "Mana Potion",
        "desc": "Restores 10 Mana.",
        "icon_nid": "tactics_ogre",
        "icon_index": [
            10,
            9
        ],
        "components": [
            [
                "usable",
                null
            ],
            [
                "value",
                1000
            ],
            [
                "target_ally",
                null
            ],
            [
                "uses",
                2
            ],
            [
                "uses_options",
                [
                    [
                        "LoseUsesOnMiss (T/F)",
                        "F",
                        "Lose uses even on miss"
                    ]
                ]
            ],
            [
                "map_hit_add_blend",
                [
                    96,
                    144,
                    232
                ]
            ],
            [
                "mana_cost",
                -10
            ]
        ]
    }
]