[
    {
        "nid": "Maw",
        "name": "Maw",
        "desc": "Unit gains 2 Mana after combat.",
        "icon_nid": "Neutral",
        "icon_index": [
            0,
            2
        ],
        "components": [
            [
                "min_range",
                1
            ],
            [
                "max_range",
                1
            ],
            [
                "weapon_type",
                "Dark"
            ],
            [
                "magic",
                null
            ],
            [
                "weapon",
                null
            ],
            [
                "target_enemy",
                null
            ],
            [
                "damage",
                5
            ],
            [
                "hit",
                85
            ],
            [
                "crit",
                0
            ],
            [
                "weight",
                2
            ],
            [
                "level_exp",
                null
            ],
            [
                "gain_mana_after_combat",
                "2 if target and target.team in ['enemy','enemy2'] else 0"
            ],
            [
                "transform",
                null
            ],
            [
                "no_ai",
                null
            ],
            [
                "battle_cast_anim",
                "Flux"
            ],
            [
                "wexp",
                0
            ]
        ]
    }
]