[
    {
        "nid": "Mend",
        "name": "Mend",
        "desc": "Restores (User's MAG + 20) HP to self and adjacent allies.",
        "icon_nid": "Staff",
        "icon_index": [
            0,
            1
        ],
        "components": [
            [
                "spell",
                null
            ],
            [
                "value",
                1125
            ],
            [
                "target_ally",
                null
            ],
            [
                "min_range",
                1
            ],
            [
                "max_range",
                1
            ],
            [
                "weapon_type",
                "Staff"
            ],
            [
                "weapon_rank",
                "D"
            ],
            [
                "uses",
                15
            ],
            [
                "uses_options",
                [
                    [
                        "LoseUsesOnMiss (T/F)",
                        "F",
                        "Lose uses even on miss"
                    ]
                ]
            ],
            [
                "exp",
                12
            ],
            [
                "wexp",
                3
            ],
            [
                "map_hit_add_blend",
                [
                    96,
                    144,
                    232
                ]
            ],
            [
                "magic_heal",
                20
            ],
            [
                "magic",
                null
            ],
            [
                "eval_target_restrict",
                "unit.nid != 'Jarze'"
            ]
        ]
    }
]