[
    {
        "nid": "Murder Knife",
        "name": "Murder Knife",
        "desc": "Inflicts DEF -4, RES - 4 on hit.",
        "icon_nid": "Ershkigal Killer Dagger",
        "icon_index": [
            0,
            0
        ],
        "components": [
            [
                "weapon",
                null
            ],
            [
                "value",
                540
            ],
            [
                "target_enemy",
                null
            ],
            [
                "min_range",
                1
            ],
            [
                "max_range",
                2
            ],
            [
                "damage",
                6
            ],
            [
                "hit",
                90
            ],
            [
                "crit",
                30
            ],
            [
                "weight",
                1
            ],
            [
                "uses",
                30
            ],
            [
                "uses_options",
                [
                    [
                        "LoseUsesOnMiss (T/F)",
                        "F",
                        "Lose uses even on miss"
                    ]
                ]
            ],
            [
                "level_exp",
                null
            ],
            [
                "weapon_type",
                "Dagger"
            ],
            [
                "weapon_rank",
                "C"
            ],
            [
                "status_on_hit",
                "Murder Knife Debuff"
            ],
            [
                "battle_cast_anim",
                "Arrow"
            ]
        ]
    }
]