[
    {
        "nid": "Nightmare",
        "name": "Nightmare",
        "desc": "Sends all enemies in range 3 to sleep",
        "icon_nid": "Neutral",
        "icon_index": [
            0,
            2
        ],
        "components": [
            [
                "spell",
                null
            ],
            [
                "weapon_type",
                "Staff"
            ],
            [
                "magic",
                null
            ],
            [
                "uses",
                1
            ],
            [
                "uses_options",
                [
                    [
                        "LoseUsesOnMiss (T/F)",
                        "F",
                        "Lose uses even on miss"
                    ]
                ]
            ],
            [
                "weight",
                8
            ],
            [
                "locked",
                null
            ],
            [
                "wexp",
                2
            ],
            [
                "status_on_hit",
                "Sleep"
            ],
            [
                "hit",
                70
            ],
            [
                "enemy_blast_aoe",
                3
            ]
        ]
    }
]