[
    {
        "nid": "Not!Hatchet",
        "name": "Throwing Axe",
        "desc": "An axe made for throwing. Normally used in competitions.",
        "icon_nid": "Axe",
        "icon_index": [
            0,
            13
        ],
        "components": [
            [
                "weapon",
                null
            ],
            [
                "target_enemy",
                null
            ],
            [
                "min_range",
                2
            ],
            [
                "max_range",
                2
            ],
            [
                "damage",
                4
            ],
            [
                "hit",
                85
            ],
            [
                "crit",
                0
            ],
            [
                "weight",
                5
            ],
            [
                "uses",
                50
            ],
            [
                "uses_options",
                [
                    [
                        "LoseUsesOnMiss (T/F)",
                        "F",
                        "Lose uses even on miss"
                    ]
                ]
            ],
            [
                "level_exp",
                null
            ],
            [
                "weapon_type",
                "Axe"
            ],
            [
                "weapon_rank",
                "E"
            ]
        ]
    }
]