[
    {
        "nid": "Oliphant",
        "name": "Oliphant",
        "desc": "Incredibly long-range ballista.",
        "icon_nid": "ballista icons",
        "icon_index": [
            1,
            0
        ],
        "components": [
            [
                "target_enemy",
                null
            ],
            [
                "level_exp",
                null
            ],
            [
                "damage",
                8
            ],
            [
                "hit",
                65
            ],
            [
                "weapon_type",
                "Bow"
            ],
            [
                "uses",
                8
            ],
            [
                "uses_options",
                [
                    [
                        "LoseUsesOnMiss (T/F)",
                        "F",
                        "Lose uses even on miss"
                    ]
                ]
            ],
            [
                "weight",
                20
            ],
            [
                "crit",
                0
            ],
            [
                "wexp",
                4
            ],
            [
                "min_range",
                7
            ],
            [
                "max_range",
                15
            ],
            [
                "weapon_rank",
                "B"
            ],
            [
                "siege_weapon",
                null
            ],
            [
                "prf_class",
                [
                    "Fleet",
                    "Ballistician",
                    "Airship"
                ]
            ],
            [
                "effective",
                16
            ],
            [
                "effective_tag",
                [
                    "Flying"
                ]
            ],
            [
                "value",
                1500
            ]
        ]
    }
]