[
    {
        "nid": "Omnirender",
        "name": "Omnirender",
        "desc": "Cistia only. Effective against all units. Costs 8 mana to use in battle.",
        "icon_nid": "processed_ffta2lances",
        "icon_index": [
            0,
            8
        ],
        "components": [
            [
                "weapon",
                null
            ],
            [
                "target_enemy",
                null
            ],
            [
                "level_exp",
                null
            ],
            [
                "damage",
                10
            ],
            [
                "hit",
                80
            ],
            [
                "weapon_type",
                "Lance"
            ],
            [
                "uses",
                25
            ],
            [
                "uses_options",
                [
                    [
                        "LoseUsesOnMiss (T/F)",
                        "F",
                        "Lose uses even on miss"
                    ]
                ]
            ],
            [
                "weight",
                8
            ],
            [
                "crit",
                10
            ],
            [
                "wexp",
                2
            ],
            [
                "min_range",
                1
            ],
            [
                "max_range",
                1
            ],
            [
                "effective",
                20
            ],
            [
                "effective_tag",
                [
                    "All"
                ]
            ],
            [
                "weapon_rank",
                "C"
            ],
            [
                "prf_unit",
                [
                    "Cistia"
                ]
            ],
            [
                "mana_cost",
                8
            ]
        ]
    }
]