[
    {
        "nid": "Ranged Steal",
        "name": "Steal",
        "desc": "Steal items from enemies at range.",
        "icon_nid": "Skills",
        "icon_index": [
            7,
            10
        ],
        "components": [
            [
                "spell",
                null
            ],
            [
                "min_range",
                1
            ],
            [
                "max_range",
                3
            ],
            [
                "exp",
                11
            ],
            [
                "target_enemy",
                null
            ],
            [
                "gba_steal",
                null
            ]
        ]
    }
]