[
    {
        "nid": "Recover",
        "name": "Recover",
        "desc": "Fully restore's an ally's HP",
        "icon_nid": "Staff",
        "icon_index": [
            0,
            2
        ],
        "components": [
            [
                "spell",
                null
            ],
            [
                "target_ally",
                null
            ],
            [
                "weapon_type",
                "Staff"
            ],
            [
                "weapon_rank",
                "C"
            ],
            [
                "magic",
                null
            ],
            [
                "heal",
                99
            ],
            [
                "uses",
                15
            ],
            [
                "uses_options",
                [
                    [
                        "LoseUsesOnMiss (T/F)",
                        "F",
                        "Lose uses even on miss"
                    ]
                ]
            ],
            [
                "wexp",
                3
            ],
            [
                "exp",
                17
            ],
            [
                "value",
                2250
            ],
            [
                "min_range",
                1
            ],
            [
                "max_range",
                1
            ],
            [
                "map_hit_add_blend",
                [
                    94,
                    144,
                    232
                ]
            ],
            [
                "eval_target_restrict",
                "unit.nid != 'Jarze'"
            ]
        ]
    }
]