[
    {
        "nid": "Rewarp",
        "name": "Rewarp",
        "desc": "Move the user to another square.",
        "icon_nid": "Staff",
        "icon_index": [
            0,
            9
        ],
        "components": [
            [
                "spell",
                null
            ],
            [
                "weapon_type",
                "Staff"
            ],
            [
                "weapon_rank",
                "A"
            ],
            [
                "magic",
                null
            ],
            [
                "uses",
                3
            ],
            [
                "uses_options",
                [
                    [
                        "LoseUsesOnMiss (T/F)",
                        "F",
                        "Lose uses even on miss"
                    ]
                ]
            ],
            [
                "value",
                7500
            ],
            [
                "exp",
                85
            ],
            [
                "wexp",
                7
            ],
            [
                "sequence_item",
                [
                    "Rewarp1",
                    "Warp2"
                ]
            ],
            [
                "no_ai",
                null
            ],
            [
                "min_range",
                0
            ],
            [
                "target_ally",
                null
            ],
            [
                "max_range",
                0
            ]
        ]
    }
]