[
    {
        "nid": "RingOfForce",
        "name": "Ring of Force",
        "desc": "Glints with the force of a gale. Cormorant only.",
        "icon_nid": "tactics_ogre",
        "icon_index": [
            8,
            11
        ],
        "components": [
            [
                "accessory",
                null
            ],
            [
                "status_on_hold",
                "GaleForceCormorant"
            ],
            [
                "prf_unit",
                [
                    "Cormorant"
                ]
            ]
        ]
    }
]