[
    {
        "nid": "Rummage",
        "name": "Rummage",
        "desc": "Spend 4 mana to get\none of several items.",
        "icon_nid": "LTSkillIconSheet",
        "icon_index": [
            5,
            33
        ],
        "components": [
            [
                "no_map_hp_display",
                null
            ],
            [
                "event_on_use",
                "Global Ability_Rummage"
            ],
            [
                "usable",
                null
            ],
            [
                "target_ally",
                null
            ],
            [
                "attack_after_combat",
                null
            ],
            [
                "cooldown",
                1
            ],
            [
                "mana_cost",
                4
            ]
        ]
    }
]