[
    {
        "nid": "RummageBallista",
        "name": "Moore's Shot",
        "desc": "Single-use ballista shot. Moore only.",
        "icon_nid": "Ruinrweted_Ballista",
        "icon_index": [
            0,
            0
        ],
        "components": [
            [
                "target_enemy",
                null
            ],
            [
                "level_exp",
                null
            ],
            [
                "damage",
                7
            ],
            [
                "hit",
                80
            ],
            [
                "weapon_type",
                "Bow"
            ],
            [
                "uses",
                1
            ],
            [
                "uses_options",
                [
                    [
                        "LoseUsesOnMiss (T/F)",
                        "F",
                        "Lose uses even on miss"
                    ]
                ]
            ],
            [
                "weight",
                20
            ],
            [
                "crit",
                0
            ],
            [
                "wexp",
                4
            ],
            [
                "min_range",
                3
            ],
            [
                "max_range",
                10
            ],
            [
                "siege_weapon",
                null
            ],
            [
                "effective",
                10
            ],
            [
                "effective_tag",
                [
                    "Flying"
                ]
            ],
            [
                "prf_unit",
                [
                    "MooreP"
                ]
            ]
        ]
    }
]