[
    {
        "nid": "Runesword",
        "name": "Runesword",
        "desc": "Uses MAG to determine damage. Drains HP from enemy",
        "icon_nid": "Sword",
        "icon_index": [
            0,
            15
        ],
        "components": [
            [
                "weapon",
                null
            ],
            [
                "target_enemy",
                null
            ],
            [
                "level_exp",
                null
            ],
            [
                "damage",
                12
            ],
            [
                "hit",
                65
            ],
            [
                "weapon_type",
                "Sword"
            ],
            [
                "weapon_rank",
                "A"
            ],
            [
                "uses",
                15
            ],
            [
                "uses_options",
                [
                    [
                        "LoseUsesOnMiss (T/F)",
                        "F",
                        "Lose uses even on miss"
                    ]
                ]
            ],
            [
                "weight",
                11
            ],
            [
                "magic",
                null
            ],
            [
                "lifelink",
                1.0
            ],
            [
                "value",
                3300
            ],
            [
                "min_range",
                1
            ],
            [
                "max_range",
                2
            ],
            [
                "battle_cast_anim",
                "Nyx"
            ]
        ]
    }
]