[
    {
        "nid": "Samhain",
        "name": "Samhain",
        "desc": "Unit gains 6 Mana after combat. Until the end of the enemy phase, covers the battlefield in a dense fog.",
        "icon_nid": "Neutral",
        "icon_index": [
            0,
            3
        ],
        "components": [
            [
                "spell",
                null
            ],
            [
                "min_range",
                0
            ],
            [
                "max_range",
                0
            ],
            [
                "magic",
                null
            ],
            [
                "gain_mana_after_combat",
                "6"
            ],
            [
                "target_tile",
                null
            ],
            [
                "event_after_combat",
                "Global Item_Samhain"
            ],
            [
                "no_ai",
                null
            ]
        ]
    }
]