[
    {
        "nid": "SE Dazzler",
        "name": "Dazzler",
        "desc": "+30 Avoid. Cannot crit or double.",
        "icon_nid": "Shifter Edge",
        "icon_index": [
            0,
            0
        ],
        "components": [
            [
                "weapon",
                null
            ],
            [
                "target_enemy",
                null
            ],
            [
                "min_range",
                1
            ],
            [
                "max_range",
                1
            ],
            [
                "damage",
                4
            ],
            [
                "hit",
                85
            ],
            [
                "weight",
                9
            ],
            [
                "level_exp",
                null
            ],
            [
                "weapon_type",
                "Sword"
            ],
            [
                "prf_unit",
                [
                    "Sionn"
                ]
            ],
            [
                "status_on_equip",
                "Dazzler"
            ]
        ]
    }
]