[
    {
        "nid": "Soldier Helm",
        "name": "Soldier Helm",
        "desc": "Soldiers/Halberdiers only. Grants HP +10,\nStr +5, regeneration. Cannot be stolen.",
        "icon_nid": "tactics_ogre",
        "icon_index": [
            8,
            0
        ],
        "components": [
            [
                "prf_class",
                [
                    "Soldier",
                    "Halberdier"
                ]
            ],
            [
                "status_on_equip",
                "helmetgaming"
            ],
            [
                "equippable_accessory",
                null
            ],
            [
                "unstealable",
                null
            ]
        ]
    }
]