[
    {
        "nid": "Strength",
        "name": "Strength",
        "desc": "Grants the ability to attack consecutively while at 11 or lower HP.",
        "icon_nid": "processed_ffta2instruments",
        "icon_index": [
            0,
            1
        ],
        "components": [
            [
                "spell",
                null
            ],
            [
                "magic",
                null
            ],
            [
                "target_ally",
                null
            ],
            [
                "min_range",
                1
            ],
            [
                "max_range",
                2
            ],
            [
                "weapon_type",
                "Staff"
            ],
            [
                "weapon_rank",
                "E"
            ],
            [
                "status_on_hit",
                "XI: Strength Buff"
            ],
            [
                "locked",
                null
            ],
            [
                "exp",
                11
            ]
        ]
    }
]