[
    {
        "nid": "Strike Band",
        "name": "Strike Band",
        "desc": "This trinket energizes muscles and bloodlust both. STR +2.",
        "icon_nid": "Strength Ring",
        "icon_index": [
            0,
            0
        ],
        "components": [
            [
                "accessory",
                null
            ],
            [
                "status_on_hold",
                "Strike Band Buffs"
            ]
        ]
    }
]