[
    {
        "nid": "SwapPlusPlus",
        "name": "Swap++",
        "desc": "Switches the positions of the target and user.\nCormorant's improved version.",
        "icon_nid": "Skills",
        "icon_index": [
            7,
            7
        ],
        "components": [
            [
                "no_map_hp_display",
                null
            ],
            [
                "target_unit",
                null
            ],
            [
                "swap",
                null
            ],
            [
                "max_range",
                2
            ],
            [
                "min_range",
                1
            ],
            [
                "attack_after_combat",
                null
            ],
            [
                "mana_cost",
                1
            ]
        ]
    }
]