[
    {
        "nid": "Take Aim",
        "name": "Take Aim",
        "desc": "Kingfisher takes aim with a bow at maximum draw.",
        "icon_nid": "Bow",
        "icon_index": [
            0,
            8
        ],
        "components": [
            [
                "usable",
                null
            ],
            [
                "event_on_use",
                "Global Ability_LongTargeting"
            ],
            [
                "no_map_hp_display",
                null
            ],
            [
                "target_ally",
                null
            ],
            [
                "map_hit_sfx",
                "Silence1"
            ],
            [
                "gain_mana_after_combat",
                "-5"
            ]
        ]
    }
]