[
    {
        "nid": "Tether Leap",
        "name": "Tether Leap",
        "desc": "Move next to a tethered ally.",
        "icon_nid": "Skills",
        "icon_index": [
            1,
            6
        ],
        "components": [
            [
                "spell",
                null
            ],
            [
                "no_ai",
                null
            ],
            [
                "min_range",
                1
            ],
            [
                "global_range",
                null
            ],
            [
                "target_ally",
                null
            ],
            [
                "mana_cost",
                8
            ],
            [
                "eval_target_restrict",
                "any(skill.nid == 'Tether_Child' for skill in unit.skills)"
            ],
            [
                "event_on_use",
                "Global Ability_TetherLeap"
            ],
            [
                "attack_after_combat",
                null
            ]
        ]
    }
]