[
    {
        "nid": "The Hermit",
        "name": "The Hermit",
        "desc": "Ends an ally's turn, but they cannot take damage and have -200 hit.",
        "icon_nid": "processed_ffta2instruments",
        "icon_index": [
            0,
            1
        ],
        "components": [
            [
                "spell",
                null
            ],
            [
                "magic",
                null
            ],
            [
                "target_ally",
                null
            ],
            [
                "min_range",
                1
            ],
            [
                "max_range",
                2
            ],
            [
                "weapon_type",
                "Staff"
            ],
            [
                "weapon_rank",
                "E"
            ],
            [
                "eval_target_restrict",
                "not unit.finished"
            ],
            [
                "status_on_hit",
                "IX: The Hermit Buff"
            ],
            [
                "event_on_hit",
                "Global Item_TheHermit_On_Hit"
            ],
            [
                "locked",
                null
            ],
            [
                "exp",
                11
            ]
        ]
    }
]