[
    {
        "nid": "The Star",
        "name": "The Star",
        "desc": "Grants -10 SKL, +20 LCK to ally or enemy.",
        "icon_nid": "processed_ffta2instruments",
        "icon_index": [
            0,
            1
        ],
        "components": [
            [
                "spell",
                null
            ],
            [
                "magic",
                null
            ],
            [
                "target_unit",
                null
            ],
            [
                "min_range",
                1
            ],
            [
                "max_equation_range",
                "MAGIC_RANGE"
            ],
            [
                "weapon_type",
                "Staff"
            ],
            [
                "weapon_rank",
                "E"
            ],
            [
                "status_on_hit",
                "XVII: The Star Buff"
            ],
            [
                "locked",
                null
            ],
            [
                "exp",
                11
            ]
        ]
    }
]