[
    {
        "nid": "The Hanged Man",
        "name": "The Hanged Man",
        "desc": "Enemy cannot use weapons or die. Does not work on bosses.",
        "icon_nid": "processed_ffta2instruments",
        "icon_index": [
            0,
            1
        ],
        "components": [
            [
                "spell",
                null
            ],
            [
                "magic",
                null
            ],
            [
                "target_enemy",
                null
            ],
            [
                "min_range",
                1
            ],
            [
                "max_equation_range",
                "MAGIC_RANGE"
            ],
            [
                "weapon_type",
                "Staff"
            ],
            [
                "weapon_rank",
                "E"
            ],
            [
                "status_on_hit",
                "XII: The Hanged Man Debuff"
            ],
            [
                "locked",
                null
            ],
            [
                "eval_target_restrict",
                "not 'Boss' in unit.tags"
            ],
            [
                "exp",
                11
            ]
        ]
    }
]