[
    {
        "nid": "The Popess",
        "name": "The Popess",
        "desc": "Ignores target RES. Uses target RES for damage if higher than own MAG.",
        "icon_nid": "processed_ffta2instruments",
        "icon_index": [
            0,
            13
        ],
        "components": [
            [
                "weapon",
                null
            ],
            [
                "magic",
                null
            ],
            [
                "target_enemy",
                null
            ],
            [
                "min_range",
                1
            ],
            [
                "max_range",
                2
            ],
            [
                "damage",
                2
            ],
            [
                "hit",
                85
            ],
            [
                "crit",
                0
            ],
            [
                "weight",
                2
            ],
            [
                "weapon_type",
                "Staff"
            ],
            [
                "weapon_rank",
                "E"
            ],
            [
                "status_on_equip",
                "II: The Popess Damage Calc"
            ],
            [
                "locked",
                null
            ],
            [
                "battle_cast_anim",
                "Shine"
            ]
        ]
    }
]