[
    {
        "nid": "The Lovers",
        "name": "The Lovers",
        "desc": "Bonds two enemies so that damage taken by one is dealt to both.",
        "icon_nid": "processed_ffta2instruments",
        "icon_index": [
            0,
            1
        ],
        "components": [
            [
                "spell",
                null
            ],
            [
                "magic",
                null
            ],
            [
                "target_enemy",
                null
            ],
            [
                "min_range",
                1
            ],
            [
                "max_equation_range",
                "MAGIC_RANGE"
            ],
            [
                "weapon_type",
                "Staff"
            ],
            [
                "weapon_rank",
                "E"
            ],
            [
                "locked",
                null
            ],
            [
                "exp",
                11
            ],
            [
                "multi_target",
                2
            ],
            [
                "status_on_hit",
                "VI: The Lovers Debuff"
            ],
            [
                "eval_target_restrict",
                "not 'VI: The Lovers Debuff' in [skill.nid for skill in unit.skills]"
            ]
        ]
    }
]