[
    {
        "nid": "The Emperor",
        "name": "The Emperor",
        "desc": "Allows 2 consecutive hits on attacking turns. Cannot be countered.",
        "icon_nid": "processed_ffta2instruments",
        "icon_index": [
            0,
            13
        ],
        "components": [
            [
                "weapon",
                null
            ],
            [
                "magic",
                null
            ],
            [
                "target_enemy",
                null
            ],
            [
                "min_range",
                1
            ],
            [
                "max_range",
                2
            ],
            [
                "damage",
                4
            ],
            [
                "hit",
                80
            ],
            [
                "crit",
                0
            ],
            [
                "weight",
                4
            ],
            [
                "weapon_type",
                "Staff"
            ],
            [
                "weapon_rank",
                "E"
            ],
            [
                "cannot_be_countered",
                null
            ],
            [
                "brave_on_attack",
                null
            ],
            [
                "locked",
                null
            ],
            [
                "level_exp",
                null
            ],
            [
                "battle_cast_anim",
                "Thunder"
            ],
            [
                "status_on_equip",
                "IV: The Emperor Poem"
            ]
        ]
    }
]