[
    {
        "nid": "Voidwarp1",
        "name": "Voidwarp <red>(10 Mana)</>",
        "desc": "Warp up to 4 spaces away.",
        "icon_nid": "LTSkillIconSheet",
        "icon_index": [
            6,
            8
        ],
        "components": [
            [
                "no_map_hp_display",
                null
            ],
            [
                "spell",
                null
            ],
            [
                "target_ally",
                null
            ],
            [
                "min_range",
                0
            ],
            [
                "max_range",
                0
            ],
            [
                "store_unit",
                null
            ]
        ]
    }
]