[
    {
        "nid": "Voidwarp",
        "name": "Voidwarp <red>(10 Mana)</>",
        "desc": "Warp up to 4 spaces away.",
        "icon_nid": "LTSkillIconSheet",
        "icon_index": [
            6,
            8
        ],
        "components": [
            [
                "no_map_hp_display",
                null
            ],
            [
                "spell",
                null
            ],
            [
                "target_ally",
                null
            ],
            [
                "min_range",
                0
            ],
            [
                "max_range",
                0
            ],
            [
                "mana_cost",
                10
            ],
            [
                "no_ai",
                null
            ],
            [
                "sequence_item",
                [
                    "Voidwarp1",
                    "Voidwarp2"
                ]
            ],
            [
                "attack_after_combat",
                null
            ]
        ]
    }
]