[
    {
        "nid": "Wing Crusher",
        "name": "Wing Crusher",
        "desc": "Effective against, and can only target, flying units.",
        "icon_nid": "Bow",
        "icon_index": [
            0,
            8
        ],
        "components": [
            [
                "target_enemy",
                null
            ],
            [
                "level_exp",
                null
            ],
            [
                "damage",
                10
            ],
            [
                "hit",
                110
            ],
            [
                "weapon_type",
                "Bow"
            ],
            [
                "uses",
                10
            ],
            [
                "uses_options",
                [
                    [
                        "LoseUsesOnMiss (T/F)",
                        "F",
                        "Lose uses even on miss"
                    ]
                ]
            ],
            [
                "weight",
                20
            ],
            [
                "crit",
                0
            ],
            [
                "wexp",
                4
            ],
            [
                "min_range",
                3
            ],
            [
                "max_range",
                10
            ],
            [
                "weapon_rank",
                "E"
            ],
            [
                "siege_weapon",
                null
            ],
            [
                "prf_class",
                [
                    "Ballistician"
                ]
            ],
            [
                "effective",
                20
            ],
            [
                "effective_tag",
                [
                    "Flying"
                ]
            ],
            [
                "eval_target_restrict",
                "'Flying' in unit.tags"
            ]
        ]
    }
]