[
    {
        "nid": "WitchRing",
        "name": "Witch's Ring",
        "desc": "Rumored to have once belonged to a witch. Cormorant only.",
        "icon_nid": "tactics_ogre",
        "icon_index": [
            14,
            0
        ],
        "components": [
            [
                "accessory",
                null
            ],
            [
                "status_on_hold",
                "WarpCormorant"
            ],
            [
                "prf_unit",
                [
                    "Cormorant"
                ]
            ]
        ]
    }
]