[
    {
        "nid": "Market Town v2",
        "size": [
            23,
            13
        ],
        "autotile_fps": 29,
        "layers": [
            {
                "nid": "base",
                "visible": true,
                "terrain_grid": {
                    "7,3": "7",
                    "6,9": "Fence",
                    "16,6": "2",
                    "12,1": "7",
                    "11,11": "2",
                    "17,7": "Fence",
                    "7,12": "2",
                    "14,4": "Fence",
                    "13,4": "22",
                    "12,12": "2",
                    "16,9": "0",
                    "18,4": "7",
                    "0,7": "0",
                    "15,1": "7",
                    "19,4": "7",
                    "21,9": "0",
                    "20,7": "7",
                    "1,6": "Fence",
                    "0,10": "25",
                    "22,6": "7",
                    "21,6": "7",
                    "3,7": "34",
                    "2,5": "2",
                    "1,11": "7",
                    "8,5": "7",
                    "5,8": "7",
                    "4,0": "0",
                    "10,8": "7",
                    "9,0": "22",
                    "6,7": "7",
                    "5,5": "7",
                    "11,5": "2",
                    "10,7": "7",
                    "7,6": "7",
                    "6,10": "Fence",
                    "16,3": "0",
                    "12,6": "7",
                    "17,2": "7",
                    "15,11": "7",
                    "14,1": "7",
                    "13,7": "7",
                    "20,9": "0",
                    "19,3": "7",
                    "18,9": "5",
                    "0,4": "Fence",
                    "15,4": "0",
                    "21,12": "2",
                    "20,4": "7",
                    "1,1": "30",
                    "22,3": "0",
                    "4,10": "7",
                    "3,2": "7",
                    "2,6": "0",
                    "8,2": "7",
                    "5,11": "Fence",
                    "4,5": "7",
                    "9,3": "0",
                    "6,0": "0",
                    "11,0": "7",
                    "7,5": "7",
                    "16,0": "7",
                    "12,11": "7",
                    "14,2": "Fence",
                    "13,10": "7",
                    "18,10": "7",
                    "0,1": "0",
                    "3,12": "1",
                    "1,12": "0",
                    "8,12": "7",
                    "22,12": "Fence",
                    "3,1": "30",
                    "2,11": "7",
                    "9,9": "22",
                    "7,8": "1",
                    "14,8": "0",
                    "13,0": "7",
                    "12,8": "7",
                    "19,8": "7",
                    "18,0": "Fence",
                    "17,8": "22",
                    "20,3": "1",
                    "21,2": "7",
                    "3,11": "7",
                    "2,1": "0",
                    "8,9": "Fence",
                    "22,9": "0",
                    "4,12": "25",
                    "2,12": "7",
                    "9,4": "Inn",
                    "5,1": "2",
                    "10,3": "0",
                    "7,2": "7",
                    "16,7": "Fence",
                    "12,2": "22",
                    "11,10": "1",
                    "17,6": "7",
                    "16,10": "7",
                    "14,5": "Fence",
                    "13,3": "Fence",
                    "19,7": "7",
                    "18,5": "7",
                    "17,11": "7",
                    "15,0": "1",
                    "21,8": "0",
                    "20,0": "0",
                    "1,5": "Fence",
                    "0,11": "25",
                    "22,7": "0",
                    "21,5": "7",
                    "3,6": "0",
                    "2,2": "7",
                    "1,10": "7",
                    "8,6": "7",
                    "22,10": "0",
                    "4,1": "0",
                    "10,9": "2",
                    "9,7": "1",
                    "6,4": "7",
                    "5,4": "7",
                    "11,4": "7",
                    "10,4": "0",
                    "7,1": "30",
                    "6,11": "Fence",
                    "16,4": "30",
                    "12,7": "7",
                    "11,9": "7",
                    "17,1": "7",
                    "15,10": "7",
                    "14,6": "22",
                    "13,6": "7",
                    "20,10": "0",
                    "19,2": "2",
                    "18,6": "7",
                    "0,5": "0",
                    "15,7": "22",
                    "21,11": "7",
                    "20,5": "2",
                    "1,0": "0",
                    "0,8": "30",
                    "22,0": "0",
                    "4,11": "7",
                    "3,5": "1",
                    "2,7": "0",
                    "8,3": "0",
                    "5,10": "7",
                    "4,6": "0",
                    "10,10": "22",
                    "9,2": "7",
                    "6,1": "0",
                    "5,7": "7",
                    "11,3": "7",
                    "7,4": "7",
                    "14,12": "7",
                    "16,1": "7",
                    "12,4": "7",
                    "19,12": "7",
                    "17,12": "0",
                    "15,9": "33",
                    "14,3": "Fence",
                    "13,9": "7",
                    "19,1": "7",
                    "18,11": "7",
                    "0,2": "7",
                    "1,3": "2",
                    "4,8": "7",
                    "3,0": "0",
                    "2,8": "7",
                    "9,8": "1",
                    "8,0": "0",
                    "6,2": "0",
                    "7,11": "0",
                    "14,9": "0",
                    "12,9": "7",
                    "19,11": "7",
                    "18,1": "7",
                    "15,12": "7",
                    "13,12": "7",
                    "20,12": "2",
                    "18,12": "0",
                    "21,1": "7",
                    "3,10": "7",
                    "8,10": "0",
                    "9,11": "0",
                    "5,0": "22",
                    "10,0": "22",
                    "12,3": "2",
                    "17,5": "7",
                    "16,11": "7",
                    "14,10": "7",
                    "13,2": "7",
                    "19,6": "7",
                    "18,2": "7",
                    "17,10": "7",
                    "15,3": "0",
                    "20,1": "7",
                    "1,4": "Fence",
                    "0,12": "0",
                    "22,4": "0",
                    "21,4": "7",
                    "3,9": "7",
                    "2,3": "1",
                    "1,9": "7",
                    "8,7": "1",
                    "22,11": "Fence",
                    "4,2": "0",
                    "9,6": "1",
                    "6,5": "Well",
                    "5,3": "30",
                    "11,7": "7",
                    "10,5": "7",
                    "7,0": "0",
                    "6,8": "7",
                    "16,5": "7",
                    "12,0": "7",
                    "11,8": "7",
                    "17,0": "1",
                    "16,8": "0",
                    "14,7": "2",
                    "13,5": "1",
                    "20,11": "7",
                    "19,5": "2",
                    "18,7": "7",
                    "0,6": "0",
                    "15,6": "1",
                    "21,10": "30",
                    "20,6": "7",
                    "1,7": "0",
                    "0,9": "7",
                    "22,1": "7",
                    "21,7": "0",
                    "3,4": "7",
                    "2,4": "1",
                    "9,12": "7",
                    "8,4": "0",
                    "5,9": "7",
                    "4,7": "0",
                    "10,11": "22",
                    "9,1": "1",
                    "6,6": "7",
                    "5,6": "7",
                    "11,2": "7",
                    "10,6": "7",
                    "7,7": "7",
                    "16,2": "Fence",
                    "12,5": "7",
                    "17,3": "0",
                    "15,8": "0",
                    "14,0": "2",
                    "13,8": "7",
                    "20,8": "7",
                    "19,0": "Fence",
                    "18,8": "7",
                    "0,3": "7",
                    "15,5": "1",
                    "1,2": "7",
                    "22,2": "7",
                    "4,9": "7",
                    "3,3": "7",
                    "2,9": "7",
                    "8,1": "0",
                    "5,12": "Fence",
                    "4,4": "7",
                    "10,12": "2",
                    "6,3": "0",
                    "11,1": "22",
                    "7,10": "0",
                    "12,10": "7",
                    "19,10": "7",
                    "13,11": "7",
                    "0,0": "0",
                    "21,0": "30",
                    "8,11": "30",
                    "2,10": "7",
                    "9,10": "0",
                    "10,1": "1",
                    "6,12": "2",
                    "11,12": "22",
                    "17,4": "0",
                    "7,9": "Fence",
                    "14,11": "7",
                    "13,1": "7",
                    "16,12": "0",
                    "19,9": "5",
                    "18,3": "7",
                    "17,9": "2",
                    "15,2": "Fence",
                    "20,2": "1",
                    "22,5": "7",
                    "21,3": "1",
                    "3,8": "7",
                    "2,0": "0",
                    "1,8": "0",
                    "8,8": "2",
                    "22,8": "0",
                    "4,3": "0",
                    "9,5": "7",
                    "5,2": "0",
                    "11,6": "7",
                    "10,2": "7"
                },
                "sprite_grid": {
                    "7,3": [
                        "Chapter2_v2",
                        [
                            7,
                            3
                        ]
                    ],
                    "6,9": [
                        "Chapter2_v2",
                        [
                            6,
                            9
                        ]
                    ],
                    "16,6": [
                        "Chapter2_v2",
                        [
                            16,
                            6
                        ]
                    ],
                    "12,1": [
                        "Chapter2_v2",
                        [
                            12,
                            1
                        ]
                    ],
                    "11,11": [
                        "Chapter2_v2",
                        [
                            11,
                            11
                        ]
                    ],
                    "17,7": [
                        "Chapter2_v2",
                        [
                            17,
                            7
                        ]
                    ],
                    "7,12": [
                        "Chapter2_v2",
                        [
                            7,
                            12
                        ]
                    ],
                    "14,4": [
                        "Chapter2_v2",
                        [
                            14,
                            4
                        ]
                    ],
                    "13,4": [
                        "Chapter2_v2",
                        [
                            13,
                            4
                        ]
                    ],
                    "12,12": [
                        "Chapter2_v2",
                        [
                            12,
                            12
                        ]
                    ],
                    "16,9": [
                        "Chapter2_v2",
                        [
                            16,
                            9
                        ]
                    ],
                    "18,4": [
                        "Chapter2_v2",
                        [
                            18,
                            4
                        ]
                    ],
                    "0,7": [
                        "Chapter2_v2",
                        [
                            0,
                            7
                        ]
                    ],
                    "15,1": [
                        "Chapter2_v2",
                        [
                            15,
                            1
                        ]
                    ],
                    "19,4": [
                        "Chapter2_v2",
                        [
                            19,
                            4
                        ]
                    ],
                    "21,9": [
                        "Chapter2_v2",
                        [
                            21,
                            9
                        ]
                    ],
                    "20,7": [
                        "Chapter2_v2",
                        [
                            20,
                            7
                        ]
                    ],
                    "1,6": [
                        "Chapter2_v2",
                        [
                            1,
                            6
                        ]
                    ],
                    "0,10": [
                        "Chapter2_v2",
                        [
                            0,
                            10
                        ]
                    ],
                    "22,6": [
                        "Chapter2_v2",
                        [
                            22,
                            6
                        ]
                    ],
                    "21,6": [
                        "Chapter2_v2",
                        [
                            21,
                            6
                        ]
                    ],
                    "3,7": [
                        "Chapter2_v2",
                        [
                            3,
                            7
                        ]
                    ],
                    "2,5": [
                        "Chapter2_v2",
                        [
                            2,
                            5
                        ]
                    ],
                    "1,11": [
                        "Chapter2_v2",
                        [
                            1,
                            11
                        ]
                    ],
                    "8,5": [
                        "Chapter2_v2",
                        [
                            8,
                            5
                        ]
                    ],
                    "5,8": [
                        "Chapter2_v2",
                        [
                            5,
                            8
                        ]
                    ],
                    "4,0": [
                        "Chapter2_v2",
                        [
                            4,
                            0
                        ]
                    ],
                    "10,8": [
                        "Chapter2_v2",
                        [
                            10,
                            8
                        ]
                    ],
                    "9,0": [
                        "Chapter2_v2",
                        [
                            9,
                            0
                        ]
                    ],
                    "6,7": [
                        "Chapter2_v2",
                        [
                            6,
                            7
                        ]
                    ],
                    "5,5": [
                        "Chapter2_v2",
                        [
                            5,
                            5
                        ]
                    ],
                    "11,5": [
                        "Chapter2_v2",
                        [
                            11,
                            5
                        ]
                    ],
                    "10,7": [
                        "Chapter2_v2",
                        [
                            10,
                            7
                        ]
                    ],
                    "7,6": [
                        "Chapter2_v2",
                        [
                            7,
                            6
                        ]
                    ],
                    "6,10": [
                        "Chapter2_v2",
                        [
                            6,
                            10
                        ]
                    ],
                    "16,3": [
                        "Chapter2_v2",
                        [
                            16,
                            3
                        ]
                    ],
                    "12,6": [
                        "Chapter2_v2",
                        [
                            12,
                            6
                        ]
                    ],
                    "17,2": [
                        "Chapter2_v2",
                        [
                            17,
                            2
                        ]
                    ],
                    "15,11": [
                        "Chapter2_v2",
                        [
                            15,
                            11
                        ]
                    ],
                    "14,1": [
                        "Chapter2_v2",
                        [
                            14,
                            1
                        ]
                    ],
                    "13,7": [
                        "Chapter2_v2",
                        [
                            13,
                            7
                        ]
                    ],
                    "20,9": [
                        "Chapter2_v2",
                        [
                            20,
                            9
                        ]
                    ],
                    "19,3": [
                        "Chapter2_v2",
                        [
                            19,
                            3
                        ]
                    ],
                    "18,9": [
                        "Chapter2_v2",
                        [
                            18,
                            9
                        ]
                    ],
                    "0,4": [
                        "Chapter2_v2",
                        [
                            0,
                            4
                        ]
                    ],
                    "15,4": [
                        "Chapter2_v2",
                        [
                            15,
                            4
                        ]
                    ],
                    "21,12": [
                        "Chapter2_v2",
                        [
                            21,
                            12
                        ]
                    ],
                    "20,4": [
                        "Chapter2_v2",
                        [
                            20,
                            4
                        ]
                    ],
                    "1,1": [
                        "Chapter2_v2",
                        [
                            8,
                            11
                        ]
                    ],
                    "22,3": [
                        "Chapter2_v2",
                        [
                            22,
                            3
                        ]
                    ],
                    "4,10": [
                        "Chapter2_v2",
                        [
                            4,
                            10
                        ]
                    ],
                    "3,2": [
                        "Chapter2_v2",
                        [
                            3,
                            2
                        ]
                    ],
                    "2,6": [
                        "Chapter2_v2",
                        [
                            2,
                            6
                        ]
                    ],
                    "8,2": [
                        "Chapter2_v2",
                        [
                            8,
                            2
                        ]
                    ],
                    "5,11": [
                        "Chapter2_v2",
                        [
                            5,
                            11
                        ]
                    ],
                    "4,5": [
                        "Chapter2_v2",
                        [
                            4,
                            5
                        ]
                    ],
                    "9,3": [
                        "Chapter2_v2",
                        [
                            9,
                            3
                        ]
                    ],
                    "6,0": [
                        "Chapter2_v2",
                        [
                            6,
                            0
                        ]
                    ],
                    "11,0": [
                        "Chapter2_v2",
                        [
                            11,
                            0
                        ]
                    ],
                    "7,5": [
                        "Chapter2_v2",
                        [
                            7,
                            5
                        ]
                    ],
                    "16,0": [
                        "Chapter2_v2",
                        [
                            16,
                            0
                        ]
                    ],
                    "12,11": [
                        "Chapter2_v2",
                        [
                            12,
                            11
                        ]
                    ],
                    "14,2": [
                        "Chapter2_v2",
                        [
                            14,
                            2
                        ]
                    ],
                    "13,10": [
                        "Chapter2_v2",
                        [
                            13,
                            10
                        ]
                    ],
                    "18,10": [
                        "Chapter2_v2",
                        [
                            18,
                            10
                        ]
                    ],
                    "0,1": [
                        "Chapter2_v2",
                        [
                            0,
                            1
                        ]
                    ],
                    "3,12": [
                        "Chapter2_v2",
                        [
                            3,
                            12
                        ]
                    ],
                    "1,12": [
                        "Chapter2_v2",
                        [
                            1,
                            12
                        ]
                    ],
                    "8,12": [
                        "Chapter2_v2",
                        [
                            8,
                            12
                        ]
                    ],
                    "22,12": [
                        "Chapter2_v2",
                        [
                            22,
                            12
                        ]
                    ],
                    "3,1": [
                        "Chapter2_v2",
                        [
                            8,
                            11
                        ]
                    ],
                    "2,11": [
                        "Chapter2_v2",
                        [
                            2,
                            11
                        ]
                    ],
                    "9,9": [
                        "Chapter2_v2",
                        [
                            9,
                            9
                        ]
                    ],
                    "7,8": [
                        "Chapter2_v2",
                        [
                            7,
                            8
                        ]
                    ],
                    "14,8": [
                        "Chapter2_v2",
                        [
                            14,
                            8
                        ]
                    ],
                    "13,0": [
                        "Chapter2_v2",
                        [
                            13,
                            0
                        ]
                    ],
                    "12,8": [
                        "Chapter2_v2",
                        [
                            12,
                            8
                        ]
                    ],
                    "19,8": [
                        "Chapter2_v2",
                        [
                            19,
                            8
                        ]
                    ],
                    "18,0": [
                        "Chapter2_v2",
                        [
                            18,
                            0
                        ]
                    ],
                    "17,8": [
                        "Chapter2_v2",
                        [
                            17,
                            8
                        ]
                    ],
                    "20,3": [
                        "Chapter2_v2",
                        [
                            20,
                            3
                        ]
                    ],
                    "21,2": [
                        "Chapter2_v2",
                        [
                            21,
                            2
                        ]
                    ],
                    "3,11": [
                        "Chapter2_v2",
                        [
                            3,
                            11
                        ]
                    ],
                    "2,1": [
                        "Chapter2_v2",
                        [
                            2,
                            1
                        ]
                    ],
                    "8,9": [
                        "Chapter2_v2",
                        [
                            8,
                            9
                        ]
                    ],
                    "22,9": [
                        "Chapter2_v2",
                        [
                            22,
                            9
                        ]
                    ],
                    "4,12": [
                        "Chapter2_v2",
                        [
                            4,
                            12
                        ]
                    ],
                    "2,12": [
                        "Chapter2_v2",
                        [
                            2,
                            12
                        ]
                    ],
                    "9,4": [
                        "Chapter2_v2",
                        [
                            9,
                            4
                        ]
                    ],
                    "5,1": [
                        "Chapter2_v2",
                        [
                            5,
                            1
                        ]
                    ],
                    "10,3": [
                        "Chapter2_v2",
                        [
                            10,
                            3
                        ]
                    ],
                    "7,2": [
                        "Chapter2_v2",
                        [
                            7,
                            2
                        ]
                    ],
                    "16,7": [
                        "Chapter2_v2",
                        [
                            16,
                            7
                        ]
                    ],
                    "12,2": [
                        "Chapter2_v2",
                        [
                            12,
                            2
                        ]
                    ],
                    "11,10": [
                        "Chapter2_v2",
                        [
                            11,
                            10
                        ]
                    ],
                    "17,6": [
                        "Chapter2_v2",
                        [
                            17,
                            6
                        ]
                    ],
                    "16,10": [
                        "Chapter2_v2",
                        [
                            16,
                            10
                        ]
                    ],
                    "14,5": [
                        "Chapter2_v2",
                        [
                            14,
                            5
                        ]
                    ],
                    "13,3": [
                        "Chapter2_v2",
                        [
                            13,
                            3
                        ]
                    ],
                    "19,7": [
                        "Chapter2_v2",
                        [
                            19,
                            7
                        ]
                    ],
                    "18,5": [
                        "Chapter2_v2",
                        [
                            18,
                            5
                        ]
                    ],
                    "17,11": [
                        "Chapter2_v2",
                        [
                            17,
                            11
                        ]
                    ],
                    "15,0": [
                        "Chapter2_v2",
                        [
                            15,
                            0
                        ]
                    ],
                    "21,8": [
                        "Chapter2_v2",
                        [
                            21,
                            8
                        ]
                    ],
                    "20,0": [
                        "Chapter2_v2",
                        [
                            20,
                            0
                        ]
                    ],
                    "1,5": [
                        "Chapter2_v2",
                        [
                            1,
                            5
                        ]
                    ],
                    "0,11": [
                        "Chapter2_v2",
                        [
                            0,
                            11
                        ]
                    ],
                    "22,7": [
                        "Chapter2_v2",
                        [
                            22,
                            7
                        ]
                    ],
                    "21,5": [
                        "Chapter2_v2",
                        [
                            21,
                            5
                        ]
                    ],
                    "3,6": [
                        "Chapter2_v2",
                        [
                            3,
                            6
                        ]
                    ],
                    "2,2": [
                        "Chapter2_v2",
                        [
                            2,
                            2
                        ]
                    ],
                    "1,10": [
                        "Chapter2_v2",
                        [
                            1,
                            10
                        ]
                    ],
                    "8,6": [
                        "Chapter2_v2",
                        [
                            8,
                            6
                        ]
                    ],
                    "22,10": [
                        "Chapter2_v2",
                        [
                            22,
                            10
                        ]
                    ],
                    "4,1": [
                        "Chapter2_v2",
                        [
                            4,
                            1
                        ]
                    ],
                    "10,9": [
                        "Chapter2_v2",
                        [
                            10,
                            9
                        ]
                    ],
                    "9,7": [
                        "Chapter2_v2",
                        [
                            9,
                            7
                        ]
                    ],
                    "6,4": [
                        "Chapter2_v2",
                        [
                            6,
                            4
                        ]
                    ],
                    "5,4": [
                        "Chapter2_v2",
                        [
                            5,
                            4
                        ]
                    ],
                    "11,4": [
                        "Chapter2_v2",
                        [
                            11,
                            4
                        ]
                    ],
                    "10,4": [
                        "Chapter2_v2",
                        [
                            10,
                            4
                        ]
                    ],
                    "7,1": [
                        "Chapter2_v2",
                        [
                            8,
                            11
                        ]
                    ],
                    "6,11": [
                        "Chapter2_v2",
                        [
                            6,
                            11
                        ]
                    ],
                    "16,4": [
                        "Chapter2_v2",
                        [
                            16,
                            4
                        ]
                    ],
                    "12,7": [
                        "Chapter2_v2",
                        [
                            12,
                            7
                        ]
                    ],
                    "11,9": [
                        "Chapter2_v2",
                        [
                            11,
                            9
                        ]
                    ],
                    "17,1": [
                        "Chapter2_v2",
                        [
                            17,
                            1
                        ]
                    ],
                    "15,10": [
                        "Chapter2_v2",
                        [
                            15,
                            10
                        ]
                    ],
                    "14,6": [
                        "Chapter2_v2",
                        [
                            14,
                            6
                        ]
                    ],
                    "13,6": [
                        "Chapter2_v2",
                        [
                            13,
                            6
                        ]
                    ],
                    "20,10": [
                        "Chapter2_v2",
                        [
                            20,
                            10
                        ]
                    ],
                    "19,2": [
                        "Chapter2_v2",
                        [
                            19,
                            2
                        ]
                    ],
                    "18,6": [
                        "Chapter2_v2",
                        [
                            18,
                            6
                        ]
                    ],
                    "0,5": [
                        "Chapter2_v2",
                        [
                            0,
                            5
                        ]
                    ],
                    "15,7": [
                        "Chapter2_v2",
                        [
                            15,
                            7
                        ]
                    ],
                    "21,11": [
                        "Chapter2_v2",
                        [
                            21,
                            11
                        ]
                    ],
                    "20,5": [
                        "Chapter2_v2",
                        [
                            20,
                            5
                        ]
                    ],
                    "1,0": [
                        "Chapter2_v2",
                        [
                            1,
                            0
                        ]
                    ],
                    "0,8": [
                        "Chapter2_v2",
                        [
                            8,
                            11
                        ]
                    ],
                    "22,0": [
                        "Chapter2_v2",
                        [
                            22,
                            0
                        ]
                    ],
                    "4,11": [
                        "Chapter2_v2",
                        [
                            4,
                            11
                        ]
                    ],
                    "3,5": [
                        "Chapter2_v2",
                        [
                            3,
                            5
                        ]
                    ],
                    "2,7": [
                        "Chapter2_v2",
                        [
                            2,
                            7
                        ]
                    ],
                    "8,3": [
                        "Chapter2_v2",
                        [
                            8,
                            3
                        ]
                    ],
                    "5,10": [
                        "Chapter2_v2",
                        [
                            5,
                            10
                        ]
                    ],
                    "4,6": [
                        "Chapter2_v2",
                        [
                            4,
                            6
                        ]
                    ],
                    "10,10": [
                        "Chapter2_v2",
                        [
                            10,
                            10
                        ]
                    ],
                    "9,2": [
                        "Chapter2_v2",
                        [
                            9,
                            2
                        ]
                    ],
                    "6,1": [
                        "Chapter2_v2",
                        [
                            6,
                            1
                        ]
                    ],
                    "5,7": [
                        "Chapter2_v2",
                        [
                            5,
                            7
                        ]
                    ],
                    "11,3": [
                        "Chapter2_v2",
                        [
                            11,
                            3
                        ]
                    ],
                    "7,4": [
                        "Chapter2_v2",
                        [
                            7,
                            4
                        ]
                    ],
                    "14,12": [
                        "Chapter2_v2",
                        [
                            14,
                            12
                        ]
                    ],
                    "16,1": [
                        "Chapter2_v2",
                        [
                            16,
                            1
                        ]
                    ],
                    "12,4": [
                        "Chapter2_v2",
                        [
                            12,
                            4
                        ]
                    ],
                    "19,12": [
                        "Chapter2_v2",
                        [
                            19,
                            12
                        ]
                    ],
                    "17,12": [
                        "Chapter2_v2",
                        [
                            17,
                            12
                        ]
                    ],
                    "15,9": [
                        "Chapter2_v2",
                        [
                            15,
                            9
                        ]
                    ],
                    "14,3": [
                        "Chapter2_v2",
                        [
                            14,
                            3
                        ]
                    ],
                    "13,9": [
                        "Chapter2_v2",
                        [
                            13,
                            9
                        ]
                    ],
                    "19,1": [
                        "Chapter2_v2",
                        [
                            19,
                            1
                        ]
                    ],
                    "18,11": [
                        "Chapter2_v2",
                        [
                            18,
                            11
                        ]
                    ],
                    "0,2": [
                        "Chapter2_v2",
                        [
                            0,
                            2
                        ]
                    ],
                    "1,3": [
                        "Chapter2_v2",
                        [
                            1,
                            3
                        ]
                    ],
                    "4,8": [
                        "Chapter2_v2",
                        [
                            4,
                            8
                        ]
                    ],
                    "3,0": [
                        "Chapter2_v2",
                        [
                            3,
                            0
                        ]
                    ],
                    "2,8": [
                        "Chapter2_v2",
                        [
                            2,
                            8
                        ]
                    ],
                    "9,8": [
                        "Chapter2_v2",
                        [
                            9,
                            8
                        ]
                    ],
                    "8,0": [
                        "Chapter2_v2",
                        [
                            8,
                            0
                        ]
                    ],
                    "6,2": [
                        "Chapter2_v2",
                        [
                            6,
                            2
                        ]
                    ],
                    "7,11": [
                        "Chapter2_v2",
                        [
                            7,
                            11
                        ]
                    ],
                    "14,9": [
                        "Chapter2_v2",
                        [
                            14,
                            9
                        ]
                    ],
                    "12,9": [
                        "Chapter2_v2",
                        [
                            12,
                            9
                        ]
                    ],
                    "19,11": [
                        "Chapter2_v2",
                        [
                            19,
                            11
                        ]
                    ],
                    "18,1": [
                        "Chapter2_v2",
                        [
                            18,
                            1
                        ]
                    ],
                    "15,12": [
                        "Chapter2_v2",
                        [
                            15,
                            12
                        ]
                    ],
                    "13,12": [
                        "Chapter2_v2",
                        [
                            13,
                            12
                        ]
                    ],
                    "20,12": [
                        "Chapter2_v2",
                        [
                            20,
                            12
                        ]
                    ],
                    "18,12": [
                        "Chapter2_v2",
                        [
                            18,
                            12
                        ]
                    ],
                    "21,1": [
                        "Chapter2_v2",
                        [
                            21,
                            1
                        ]
                    ],
                    "3,10": [
                        "Chapter2_v2",
                        [
                            3,
                            10
                        ]
                    ],
                    "8,10": [
                        "Chapter2_v2",
                        [
                            8,
                            10
                        ]
                    ],
                    "9,11": [
                        "Chapter2_v2",
                        [
                            9,
                            11
                        ]
                    ],
                    "5,0": [
                        "Chapter2_v2",
                        [
                            5,
                            0
                        ]
                    ],
                    "10,0": [
                        "Chapter2_v2",
                        [
                            10,
                            0
                        ]
                    ],
                    "12,3": [
                        "Chapter2_v2",
                        [
                            12,
                            3
                        ]
                    ],
                    "17,5": [
                        "Chapter2_v2",
                        [
                            17,
                            5
                        ]
                    ],
                    "16,11": [
                        "Chapter2_v2",
                        [
                            16,
                            11
                        ]
                    ],
                    "14,10": [
                        "Chapter2_v2",
                        [
                            14,
                            10
                        ]
                    ],
                    "13,2": [
                        "Chapter2_v2",
                        [
                            13,
                            2
                        ]
                    ],
                    "19,6": [
                        "Chapter2_v2",
                        [
                            19,
                            6
                        ]
                    ],
                    "18,2": [
                        "Chapter2_v2",
                        [
                            18,
                            2
                        ]
                    ],
                    "17,10": [
                        "Chapter2_v2",
                        [
                            17,
                            10
                        ]
                    ],
                    "15,3": [
                        "Chapter2_v2",
                        [
                            15,
                            3
                        ]
                    ],
                    "20,1": [
                        "Chapter2_v2",
                        [
                            20,
                            1
                        ]
                    ],
                    "1,4": [
                        "Chapter2_v2",
                        [
                            1,
                            4
                        ]
                    ],
                    "0,12": [
                        "Chapter2_v2",
                        [
                            0,
                            12
                        ]
                    ],
                    "22,4": [
                        "Chapter2_v2",
                        [
                            22,
                            4
                        ]
                    ],
                    "21,4": [
                        "Chapter2_v2",
                        [
                            21,
                            4
                        ]
                    ],
                    "3,9": [
                        "Chapter2_v2",
                        [
                            3,
                            9
                        ]
                    ],
                    "2,3": [
                        "Chapter2_v2",
                        [
                            2,
                            3
                        ]
                    ],
                    "1,9": [
                        "Chapter2_v2",
                        [
                            1,
                            9
                        ]
                    ],
                    "8,7": [
                        "Chapter2_v2",
                        [
                            8,
                            7
                        ]
                    ],
                    "22,11": [
                        "Chapter2_v2",
                        [
                            22,
                            11
                        ]
                    ],
                    "4,2": [
                        "Chapter2_v2",
                        [
                            4,
                            2
                        ]
                    ],
                    "9,6": [
                        "Chapter2_v2",
                        [
                            9,
                            6
                        ]
                    ],
                    "6,5": [
                        "Chapter2_v2",
                        [
                            6,
                            5
                        ]
                    ],
                    "5,3": [
                        "Chapter2_v2",
                        [
                            5,
                            3
                        ]
                    ],
                    "11,7": [
                        "Chapter2_v2",
                        [
                            11,
                            7
                        ]
                    ],
                    "10,5": [
                        "Chapter2_v2",
                        [
                            10,
                            5
                        ]
                    ],
                    "7,0": [
                        "Chapter2_v2",
                        [
                            7,
                            0
                        ]
                    ],
                    "6,8": [
                        "Chapter2_v2",
                        [
                            6,
                            8
                        ]
                    ],
                    "16,5": [
                        "Chapter2_v2",
                        [
                            16,
                            5
                        ]
                    ],
                    "12,0": [
                        "Chapter2_v2",
                        [
                            12,
                            0
                        ]
                    ],
                    "11,8": [
                        "Chapter2_v2",
                        [
                            11,
                            8
                        ]
                    ],
                    "17,0": [
                        "Chapter2_v2",
                        [
                            17,
                            0
                        ]
                    ],
                    "16,8": [
                        "Chapter2_v2",
                        [
                            16,
                            8
                        ]
                    ],
                    "14,7": [
                        "Chapter2_v2",
                        [
                            14,
                            7
                        ]
                    ],
                    "13,5": [
                        "Chapter2_v2",
                        [
                            13,
                            5
                        ]
                    ],
                    "20,11": [
                        "Chapter2_v2",
                        [
                            20,
                            11
                        ]
                    ],
                    "19,5": [
                        "Chapter2_v2",
                        [
                            19,
                            5
                        ]
                    ],
                    "18,7": [
                        "Chapter2_v2",
                        [
                            18,
                            7
                        ]
                    ],
                    "0,6": [
                        "Chapter2_v2",
                        [
                            0,
                            6
                        ]
                    ],
                    "15,6": [
                        "Chapter2_v2",
                        [
                            15,
                            6
                        ]
                    ],
                    "21,10": [
                        "Chapter2_v2",
                        [
                            21,
                            10
                        ]
                    ],
                    "20,6": [
                        "Chapter2_v2",
                        [
                            20,
                            6
                        ]
                    ],
                    "1,7": [
                        "Chapter2_v2",
                        [
                            1,
                            7
                        ]
                    ],
                    "0,9": [
                        "Chapter2_v2",
                        [
                            0,
                            9
                        ]
                    ],
                    "22,1": [
                        "Chapter2_v2",
                        [
                            22,
                            1
                        ]
                    ],
                    "21,7": [
                        "Chapter2_v2",
                        [
                            21,
                            7
                        ]
                    ],
                    "3,4": [
                        "Chapter2_v2",
                        [
                            3,
                            4
                        ]
                    ],
                    "2,4": [
                        "Chapter2_v2",
                        [
                            2,
                            4
                        ]
                    ],
                    "9,12": [
                        "Chapter2_v2",
                        [
                            9,
                            12
                        ]
                    ],
                    "8,4": [
                        "Chapter2_v2",
                        [
                            8,
                            4
                        ]
                    ],
                    "5,9": [
                        "Chapter2_v2",
                        [
                            5,
                            9
                        ]
                    ],
                    "4,7": [
                        "Chapter2_v2",
                        [
                            4,
                            7
                        ]
                    ],
                    "10,11": [
                        "Chapter2_v2",
                        [
                            10,
                            11
                        ]
                    ],
                    "9,1": [
                        "Chapter2_v2",
                        [
                            9,
                            1
                        ]
                    ],
                    "6,6": [
                        "Chapter2_v2",
                        [
                            6,
                            6
                        ]
                    ],
                    "5,6": [
                        "Chapter2_v2",
                        [
                            5,
                            6
                        ]
                    ],
                    "11,2": [
                        "Chapter2_v2",
                        [
                            11,
                            2
                        ]
                    ],
                    "10,6": [
                        "Chapter2_v2",
                        [
                            10,
                            6
                        ]
                    ],
                    "7,7": [
                        "Chapter2_v2",
                        [
                            7,
                            7
                        ]
                    ],
                    "16,2": [
                        "Chapter2_v2",
                        [
                            16,
                            2
                        ]
                    ],
                    "12,5": [
                        "Chapter2_v2",
                        [
                            12,
                            5
                        ]
                    ],
                    "17,3": [
                        "Chapter2_v2",
                        [
                            17,
                            3
                        ]
                    ],
                    "15,8": [
                        "Chapter2_v2",
                        [
                            15,
                            8
                        ]
                    ],
                    "14,0": [
                        "Chapter2_v2",
                        [
                            14,
                            0
                        ]
                    ],
                    "13,8": [
                        "Chapter2_v2",
                        [
                            13,
                            8
                        ]
                    ],
                    "20,8": [
                        "Chapter2_v2",
                        [
                            20,
                            8
                        ]
                    ],
                    "19,0": [
                        "Chapter2_v2",
                        [
                            19,
                            0
                        ]
                    ],
                    "18,8": [
                        "Chapter2_v2",
                        [
                            18,
                            8
                        ]
                    ],
                    "0,3": [
                        "Chapter2_v2",
                        [
                            0,
                            3
                        ]
                    ],
                    "15,5": [
                        "Chapter2_v2",
                        [
                            15,
                            5
                        ]
                    ],
                    "1,2": [
                        "Chapter2_v2",
                        [
                            1,
                            2
                        ]
                    ],
                    "22,2": [
                        "Chapter2_v2",
                        [
                            22,
                            2
                        ]
                    ],
                    "4,9": [
                        "Chapter2_v2",
                        [
                            4,
                            9
                        ]
                    ],
                    "3,3": [
                        "Chapter2_v2",
                        [
                            3,
                            3
                        ]
                    ],
                    "2,9": [
                        "Chapter2_v2",
                        [
                            2,
                            9
                        ]
                    ],
                    "8,1": [
                        "Chapter2_v2",
                        [
                            8,
                            1
                        ]
                    ],
                    "5,12": [
                        "Chapter2_v2",
                        [
                            5,
                            12
                        ]
                    ],
                    "4,4": [
                        "Chapter2_v2",
                        [
                            4,
                            4
                        ]
                    ],
                    "10,12": [
                        "Chapter2_v2",
                        [
                            10,
                            12
                        ]
                    ],
                    "6,3": [
                        "Chapter2_v2",
                        [
                            6,
                            3
                        ]
                    ],
                    "11,1": [
                        "Chapter2_v2",
                        [
                            11,
                            1
                        ]
                    ],
                    "7,10": [
                        "Chapter2_v2",
                        [
                            7,
                            10
                        ]
                    ],
                    "12,10": [
                        "Chapter2_v2",
                        [
                            12,
                            10
                        ]
                    ],
                    "19,10": [
                        "Chapter2_v2",
                        [
                            19,
                            10
                        ]
                    ],
                    "13,11": [
                        "Chapter2_v2",
                        [
                            13,
                            11
                        ]
                    ],
                    "0,0": [
                        "Chapter2_v2",
                        [
                            0,
                            0
                        ]
                    ],
                    "21,0": [
                        "Chapter2_v2",
                        [
                            8,
                            11
                        ]
                    ],
                    "8,11": [
                        "Chapter2_v2",
                        [
                            8,
                            11
                        ]
                    ],
                    "2,10": [
                        "Chapter2_v2",
                        [
                            2,
                            10
                        ]
                    ],
                    "9,10": [
                        "Chapter2_v2",
                        [
                            9,
                            10
                        ]
                    ],
                    "10,1": [
                        "Chapter2_v2",
                        [
                            10,
                            1
                        ]
                    ],
                    "6,12": [
                        "Chapter2_v2",
                        [
                            6,
                            12
                        ]
                    ],
                    "11,12": [
                        "Chapter2_v2",
                        [
                            11,
                            12
                        ]
                    ],
                    "17,4": [
                        "Chapter2_v2",
                        [
                            17,
                            4
                        ]
                    ],
                    "7,9": [
                        "Chapter2_v2",
                        [
                            7,
                            9
                        ]
                    ],
                    "14,11": [
                        "Chapter2_v2",
                        [
                            14,
                            11
                        ]
                    ],
                    "13,1": [
                        "Chapter2_v2",
                        [
                            13,
                            1
                        ]
                    ],
                    "16,12": [
                        "Chapter2_v2",
                        [
                            16,
                            12
                        ]
                    ],
                    "19,9": [
                        "Chapter2_v2",
                        [
                            19,
                            9
                        ]
                    ],
                    "18,3": [
                        "Chapter2_v2",
                        [
                            18,
                            3
                        ]
                    ],
                    "17,9": [
                        "Chapter2_v2",
                        [
                            17,
                            9
                        ]
                    ],
                    "15,2": [
                        "Chapter2_v2",
                        [
                            15,
                            2
                        ]
                    ],
                    "20,2": [
                        "Chapter2_v2",
                        [
                            20,
                            2
                        ]
                    ],
                    "22,5": [
                        "Chapter2_v2",
                        [
                            22,
                            5
                        ]
                    ],
                    "21,3": [
                        "Chapter2_v2",
                        [
                            21,
                            3
                        ]
                    ],
                    "3,8": [
                        "Chapter2_v2",
                        [
                            3,
                            8
                        ]
                    ],
                    "2,0": [
                        "Chapter2_v2",
                        [
                            2,
                            0
                        ]
                    ],
                    "1,8": [
                        "Chapter2_v2",
                        [
                            1,
                            8
                        ]
                    ],
                    "8,8": [
                        "Chapter2_v2",
                        [
                            8,
                            8
                        ]
                    ],
                    "22,8": [
                        "Chapter2_v2",
                        [
                            22,
                            8
                        ]
                    ],
                    "4,3": [
                        "Chapter2_v2",
                        [
                            4,
                            3
                        ]
                    ],
                    "9,5": [
                        "Chapter2_v2",
                        [
                            9,
                            5
                        ]
                    ],
                    "5,2": [
                        "Chapter2_v2",
                        [
                            5,
                            2
                        ]
                    ],
                    "11,6": [
                        "Chapter2_v2",
                        [
                            11,
                            6
                        ]
                    ],
                    "10,2": [
                        "Chapter2_v2",
                        [
                            10,
                            2
                        ]
                    ]
                }
            },
            {
                "nid": "main_shutter",
                "visible": false,
                "terrain_grid": {},
                "sprite_grid": {
                    "1,1": [
                        "Chapter2ExtraTiles",
                        [
                            3,
                            0
                        ]
                    ],
                    "3,1": [
                        "Chapter2ExtraTiles",
                        [
                            3,
                            0
                        ]
                    ],
                    "7,1": [
                        "Chapter2ExtraTiles",
                        [
                            3,
                            0
                        ]
                    ],
                    "0,8": [
                        "Chapter2ExtraTiles",
                        [
                            3,
                            0
                        ]
                    ],
                    "21,0": [
                        "Chapter2ExtraTiles",
                        [
                            3,
                            0
                        ]
                    ]
                }
            },
            {
                "nid": "shutter1",
                "visible": false,
                "terrain_grid": {},
                "sprite_grid": {
                    "5,3": [
                        "Chapter2ExtraTiles",
                        [
                            3,
                            0
                        ]
                    ]
                }
            },
            {
                "nid": "shutter2",
                "visible": false,
                "terrain_grid": {},
                "sprite_grid": {
                    "16,4": [
                        "Chapter2ExtraTiles",
                        [
                            3,
                            0
                        ]
                    ]
                }
            },
            {
                "nid": "shutter3",
                "visible": false,
                "terrain_grid": {},
                "sprite_grid": {
                    "21,10": [
                        "Chapter2ExtraTiles",
                        [
                            3,
                            0
                        ]
                    ]
                }
            },
            {
                "nid": "ruin1",
                "visible": false,
                "terrain_grid": {},
                "sprite_grid": {
                    "4,3": [
                        "Chapter2ExtraTiles",
                        [
                            0,
                            1
                        ]
                    ],
                    "4,2": [
                        "Chapter2ExtraTiles",
                        [
                            0,
                            0
                        ]
                    ],
                    "6,3": [
                        "Chapter2ExtraTiles",
                        [
                            2,
                            1
                        ]
                    ],
                    "6,2": [
                        "Chapter2ExtraTiles",
                        [
                            2,
                            0
                        ]
                    ],
                    "5,2": [
                        "Chapter2ExtraTiles",
                        [
                            1,
                            0
                        ]
                    ],
                    "5,3": [
                        "Chapter2ExtraTiles",
                        [
                            1,
                            1
                        ]
                    ]
                }
            },
            {
                "nid": "ruin2",
                "visible": false,
                "terrain_grid": {},
                "sprite_grid": {
                    "15,4": [
                        "Chapter2ExtraTiles",
                        [
                            0,
                            1
                        ]
                    ],
                    "15,3": [
                        "Chapter2ExtraTiles",
                        [
                            0,
                            0
                        ]
                    ],
                    "17,4": [
                        "Chapter2ExtraTiles",
                        [
                            2,
                            1
                        ]
                    ],
                    "17,3": [
                        "Chapter2ExtraTiles",
                        [
                            2,
                            0
                        ]
                    ],
                    "16,3": [
                        "Chapter2ExtraTiles",
                        [
                            1,
                            0
                        ]
                    ],
                    "16,4": [
                        "Chapter2ExtraTiles",
                        [
                            1,
                            1
                        ]
                    ]
                }
            },
            {
                "nid": "ruin3",
                "visible": false,
                "terrain_grid": {},
                "sprite_grid": {
                    "20,10": [
                        "Chapter2ExtraTiles",
                        [
                            0,
                            1
                        ]
                    ],
                    "20,9": [
                        "Chapter2ExtraTiles",
                        [
                            0,
                            0
                        ]
                    ],
                    "22,10": [
                        "Chapter2ExtraTiles",
                        [
                            2,
                            1
                        ]
                    ],
                    "22,9": [
                        "Chapter2ExtraTiles",
                        [
                            2,
                            0
                        ]
                    ],
                    "21,9": [
                        "Chapter2ExtraTiles",
                        [
                            1,
                            0
                        ]
                    ],
                    "21,10": [
                        "Chapter2ExtraTiles",
                        [
                            1,
                            1
                        ]
                    ]
                }
            },
            {
                "nid": "shutter4",
                "visible": false,
                "terrain_grid": {},
                "sprite_grid": {
                    "8,11": [
                        "Chapter2ExtraTiles",
                        [
                            3,
                            0
                        ]
                    ]
                }
            }
        ],
        "tilesets": [
            "Chapter2_v2",
            "Chapter2ExtraTiles"
        ]
    }
]