[
    {
        "nid": "Abeni",
        "name": "Abeni",
        "desc": "Flame Immortal. Can't talk about the past of others.",
        "variant": "SageFemale",
        "level": 1,
        "klass": "Sage",
        "tags": [],
        "bases": {
            "HP": 40,
            "STR": 5,
            "MAG": 7,
            "SKL": 5,
            "SPD": 9,
            "LCK": 7,
            "DEF": 6,
            "RES": 7,
            "CON": 7,
            "MOV": 6
        },
        "growths": {
            "HP": 100,
            "STR": 5,
            "MAG": 30,
            "SKL": 40,
            "SPD": 40,
            "LCK": 20,
            "DEF": 15,
            "RES": 25,
            "CON": 0,
            "MOV": 0
        },
        "starting_items": [
            [
                "Fire",
                false
            ],
            [
                "Mend",
                false
            ],
            [
                "Physic",
                false
            ]
        ],
        "learned_skills": [
            [
                1,
                "ManaGain"
            ],
            [
                1,
                "Immortal"
            ],
            [
                1,
                "Diplomat"
            ],
            [
                1,
                "Boom"
            ],
            [
                1,
                "AnimationVariantFemale"
            ]
        ],
        "unit_notes": [],
        "wexp_gain": {
            "Sword": [
                false,
                0
            ],
            "Lance": [
                false,
                0
            ],
            "Axe": [
                false,
                0
            ],
            "Bow": [
                false,
                0
            ],
            "Staff": [
                false,
                200
            ],
            "Light": [
                false,
                0
            ],
            "Anima": [
                false,
                5
            ],
            "Dark": [
                false,
                0
            ],
            "Default": [
                false,
                0
            ]
        },
        "alternate_classes": [],
        "portrait_nid": "Abeni",
        "affinity": "Anima",
        "fields": [
            [
                "Blessed",
                "True"
            ]
        ]
    }
]