[
    {
        "nid": "Caer_E",
        "name": "Caer",
        "desc": "A Shifter, though different from most. Hides a terrifying power.",
        "variant": "",
        "level": 1,
        "klass": "Dragon",
        "tags": [
            "Boss"
        ],
        "bases": {
            "HP": 35,
            "STR": 5,
            "MAG": 11,
            "SKL": 8,
            "SPD": 10,
            "LCK": 7,
            "DEF": 10,
            "RES": 14,
            "CON": 7,
            "MOV": 4
        },
        "growths": {
            "HP": 120,
            "STR": 20,
            "MAG": 50,
            "SKL": 30,
            "SPD": 35,
            "LCK": 25,
            "DEF": 30,
            "RES": 40,
            "CON": 0,
            "MOV": 0
        },
        "starting_items": [
            [
                "Dragonstone_Caer_E",
                false
            ]
        ],
        "learned_skills": [
            [
                1,
                "Draconic Ire (Permanent)"
            ]
        ],
        "unit_notes": [],
        "wexp_gain": {
            "Sword": [
                false,
                0
            ],
            "Lance": [
                false,
                0
            ],
            "Axe": [
                false,
                0
            ],
            "Bow": [
                false,
                0
            ],
            "Dagger": [
                false,
                0
            ],
            "Staff": [
                false,
                0
            ],
            "Light": [
                false,
                0
            ],
            "Anima": [
                false,
                0
            ],
            "Dark": [
                false,
                1
            ],
            "Default": [
                false,
                0
            ]
        },
        "alternate_classes": [],
        "portrait_nid": "Caer4",
        "affinity": "Light",
        "fields": []
    }
]