[
    {
        "nid": "Chezz",
        "name": "Chezz",
        "desc": "Fights in the Ratsbridge militia,\nalong with her brother.",
        "variant": "Female",
        "level": 6,
        "klass": "Mercenary",
        "tags": [],
        "bases": {
            "HP": 23,
            "STR": 8,
            "MAG": 3,
            "SKL": 10,
            "SPD": 10,
            "LCK": 5,
            "DEF": 5,
            "RES": 3,
            "CON": 12,
            "MOV": 5
        },
        "growths": {
            "HP": 80,
            "STR": 40,
            "MAG": 20,
            "SKL": 40,
            "SPD": 32,
            "LCK": 30,
            "DEF": 18,
            "RES": 30,
            "CON": 0,
            "MOV": 0
        },
        "starting_items": [
            [
                "Sibling Sword",
                false
            ]
        ],
        "learned_skills": [
            [
                1,
                "Faint Light"
            ]
        ],
        "unit_notes": [],
        "wexp_gain": {
            "Sword": [
                false,
                71
            ],
            "Lance": [
                false,
                0
            ],
            "Axe": [
                false,
                0
            ],
            "Bow": [
                false,
                0
            ],
            "Dagger": [
                false,
                0
            ],
            "Staff": [
                false,
                0
            ],
            "Light": [
                false,
                0
            ],
            "Anima": [
                false,
                0
            ],
            "Dark": [
                false,
                0
            ],
            "Default": [
                false,
                0
            ]
        },
        "alternate_classes": [],
        "portrait_nid": "Female Militia (Glaceo, Mr_Karkino)",
        "affinity": "None",
        "fields": []
    }
]