[
    {
        "nid": "Cormorant",
        "name": "Cormorant",
        "desc": "A mercenary, once upon a time.",
        "variant": "",
        "level": 1,
        "klass": "Veteran",
        "tags": [
            "Lord"
        ],
        "bases": {
            "HP": 19,
            "STR": 7,
            "MAG": 0,
            "SKL": 7,
            "SPD": 7,
            "LCK": 8,
            "DEF": 6,
            "RES": 0,
            "CON": 13,
            "MOV": 5
        },
        "growths": {
            "HP": 90,
            "STR": 50,
            "MAG": 10,
            "SKL": 40,
            "SPD": 40,
            "LCK": 35,
            "DEF": 40,
            "RES": 10,
            "CON": 0,
            "MOV": 0
        },
        "starting_items": [
            [
                "Iron Axe",
                false
            ],
            [
                "Vulnerary",
                false
            ],
            [
                "Switch Axe",
                false
            ]
        ],
        "learned_skills": [
            [
                1,
                "SwapPlus"
            ],
            [
                1,
                "ManaGain"
            ]
        ],
        "unit_notes": [],
        "wexp_gain": {
            "Sword": [
                false,
                121
            ],
            "Lance": [
                true,
                121
            ],
            "Axe": [
                false,
                31
            ],
            "Bow": [
                false,
                0
            ],
            "Staff": [
                false,
                0
            ],
            "Light": [
                false,
                0
            ],
            "Anima": [
                false,
                0
            ],
            "Dark": [
                false,
                0
            ],
            "Default": [
                false,
                0
            ]
        },
        "alternate_classes": [],
        "portrait_nid": "Cormorant",
        "affinity": "Wind",
        "fields": [
            [
                "PromotedClass",
                "Captain"
            ],
            [
                "Blessed",
                "False"
            ]
        ]
    }
]