[
    {
        "nid": "Farl",
        "name": "Farl",
        "desc": "Once a grizzled miner, he has taken\nup music and mending in his old age.\nLoves mountain shanties above all.",
        "variant": "Male",
        "level": 10,
        "klass": "Troubadour",
        "tags": [],
        "bases": {
            "HP": 26,
            "STR": 13,
            "MAG": 0,
            "SKL": 10,
            "SPD": 8,
            "LCK": 6,
            "DEF": 7,
            "RES": 3,
            "CON": 14,
            "MOV": 6
        },
        "growths": {
            "HP": 80,
            "STR": 65,
            "MAG": 0,
            "SKL": 40,
            "SPD": 30,
            "LCK": 35,
            "DEF": 40,
            "RES": 15,
            "CON": 25,
            "MOV": 0
        },
        "starting_items": [
            [
                "Comfort",
                false
            ],
            [
                "Heal",
                false
            ],
            [
                "Fortune",
                false
            ]
        ],
        "learned_skills": [
            [
                1,
                "Hearty Healing"
            ],
            [
                1,
                "Motivate"
            ],
            [
                1,
                "Embiggen"
            ],
            [
                1,
                "ManaGain"
            ]
        ],
        "unit_notes": [],
        "wexp_gain": {
            "Sword": [
                false,
                0
            ],
            "Lance": [
                false,
                0
            ],
            "Axe": [
                false,
                31
            ],
            "Bow": [
                false,
                0
            ],
            "Dagger": [
                false,
                0
            ],
            "Staff": [
                false,
                71
            ],
            "Light": [
                false,
                0
            ],
            "Anima": [
                false,
                0
            ],
            "Dark": [
                false,
                0
            ],
            "Default": [
                false,
                0
            ]
        },
        "alternate_classes": [],
        "portrait_nid": "Troub Hat (MeatOfJustice)",
        "affinity": "Wind",
        "fields": [
            [
                "PromotedClass",
                "War Cleric"
            ],
            [
                "Blessed",
                "False"
            ]
        ]
    }
]