[
    {
        "nid": "Feodor",
        "name": "Feodor",
        "desc": "Never backs down from a fight.",
        "variant": "",
        "level": 10,
        "klass": "Hero",
        "tags": [
            "Lord"
        ],
        "bases": {
            "HP": 38,
            "STR": 16,
            "MAG": 0,
            "SKL": 12,
            "SPD": 18,
            "LCK": 0,
            "DEF": 15,
            "RES": 3,
            "CON": 11,
            "MOV": 6
        },
        "growths": {
            "HP": 75,
            "STR": 30,
            "MAG": 5,
            "SKL": 30,
            "SPD": 20,
            "LCK": 25,
            "DEF": 20,
            "RES": 20,
            "CON": 0,
            "MOV": 0
        },
        "starting_items": [
            [
                "Joyeuse",
                true
            ],
            [
                "Tomahawk",
                false
            ]
        ],
        "learned_skills": [
            [
                1,
                "ManaGain"
            ]
        ],
        "unit_notes": [],
        "wexp_gain": {
            "Sword": [
                false,
                251
            ],
            "Lance": [
                false,
                0
            ],
            "Axe": [
                false,
                181
            ],
            "Bow": [
                false,
                0
            ],
            "Staff": [
                false,
                0
            ],
            "Light": [
                false,
                0
            ],
            "Anima": [
                false,
                0
            ],
            "Dark": [
                false,
                0
            ],
            "Default": [
                false,
                0
            ]
        },
        "alternate_classes": [],
        "portrait_nid": "Feodor",
        "affinity": "Fire",
        "fields": []
    }
]