[
    {
        "nid": "Fiachra",
        "name": "Fiachra",
        "desc": "Did his soldiering and found his fortune. And lost it all, again.",
        "variant": "",
        "level": 1,
        "klass": "Halberdier",
        "tags": [],
        "bases": {
            "HP": 30,
            "STR": 10,
            "MAG": 0,
            "SKL": 12,
            "SPD": 8,
            "LCK": 13,
            "DEF": 8,
            "CON": 13,
            "MOV": 6,
            "RES": 4
        },
        "growths": {
            "HP": 50,
            "STR": 30,
            "MAG": 0,
            "SKL": 30,
            "SPD": 30,
            "LCK": 25,
            "DEF": 30,
            "CON": 0,
            "MOV": 0,
            "RES": 5
        },
        "starting_items": [
            [
                "Vulnerary",
                false
            ],
            [
                "Slim Lance",
                false
            ],
            [
                "Silver Lance",
                false
            ]
        ],
        "learned_skills": [
            [
                1,
                "Cripple"
            ],
            [
                1,
                "ManaGain"
            ],
            [
                1,
                "Shove"
            ]
        ],
        "unit_notes": [],
        "wexp_gain": {
            "Sword": [
                true,
                0
            ],
            "Lance": [
                true,
                181
            ],
            "Axe": [
                false,
                0
            ],
            "Bow": [
                false,
                0
            ],
            "Staff": [
                false,
                0
            ],
            "Light": [
                false,
                0
            ],
            "Anima": [
                false,
                0
            ],
            "Dark": [
                false,
                0
            ],
            "Default": [
                false,
                0
            ]
        },
        "alternate_classes": [],
        "portrait_nid": "Fiachra",
        "affinity": "Anima",
        "fields": [
            [
                "Blessed",
                "False"
            ]
        ]
    }
]