[
    {
        "nid": "HalberdierCommander",
        "name": "Field Commander",
        "desc": "Elite, revered Knights of the Crown. ",
        "variant": null,
        "level": 5,
        "klass": "Halberdier",
        "tags": [
            "Boss"
        ],
        "bases": {
            "HP": 36,
            "STR": 15,
            "MAG": 3,
            "SKL": 15,
            "SPD": 14,
            "LCK": 7,
            "DEF": 10,
            "RES": 6,
            "CON": 11,
            "MOV": 8
        },
        "growths": {
            "HP": 80,
            "STR": 50,
            "MAG": 0,
            "SKL": 30,
            "SPD": 20,
            "LCK": 25,
            "DEF": 12,
            "RES": 15,
            "CON": 0,
            "MOV": 0
        },
        "starting_items": [
            [
                "Brave Lance",
                false
            ],
            [
                "Spear",
                false
            ]
        ],
        "learned_skills": [
            [
                1,
                "Leader"
            ]
        ],
        "unit_notes": [],
        "wexp_gain": {
            "Sword": [
                false,
                0
            ],
            "Lance": [
                false,
                181
            ],
            "Axe": [
                false,
                0
            ],
            "Bow": [
                false,
                0
            ],
            "Dagger": [
                false,
                0
            ],
            "Staff": [
                false,
                0
            ],
            "Light": [
                false,
                0
            ],
            "Anima": [
                false,
                0
            ],
            "Dark": [
                false,
                0
            ],
            "Default": [
                false,
                0
            ]
        },
        "alternate_classes": [],
        "portrait_nid": "GenericPretsel - Knight",
        "affinity": "None",
        "fields": []
    }
]