[
    {
        "nid": "Isador",
        "name": "Isador",
        "desc": "Warp Immortal. Wary of the increase in blessings.",
        "variant": "",
        "level": 1,
        "klass": "Bishop",
        "tags": [],
        "bases": {
            "HP": 60,
            "STR": 4,
            "MAG": 17,
            "SKL": 14,
            "SPD": 8,
            "LCK": 5,
            "DEF": 5,
            "RES": 22,
            "CON": 8,
            "MOV": 6
        },
        "growths": {
            "HP": 0,
            "STR": 0,
            "MAG": 0,
            "SKL": 0,
            "SPD": 0,
            "LCK": 0,
            "DEF": 0,
            "RES": 0,
            "CON": 0,
            "MOV": 0
        },
        "starting_items": [
            [
                "Dogma",
                false
            ]
        ],
        "learned_skills": [
            [
                1,
                "Immortal"
            ]
        ],
        "unit_notes": [],
        "wexp_gain": {
            "Sword": [
                false,
                0
            ],
            "Lance": [
                false,
                0
            ],
            "Axe": [
                false,
                0
            ],
            "Bow": [
                false,
                0
            ],
            "Staff": [
                false,
                0
            ],
            "Light": [
                false,
                121
            ],
            "Anima": [
                false,
                0
            ],
            "Dark": [
                false,
                0
            ],
            "Default": [
                false,
                0
            ]
        },
        "alternate_classes": [],
        "portrait_nid": "Isador",
        "affinity": "None",
        "fields": []
    }
]