[
    {
        "nid": "Mogall",
        "name": "Mogall",
        "desc": "",
        "variant": null,
        "level": 131,
        "klass": "Citizen",
        "tags": [],
        "bases": {
            "HP": 48,
            "STR": 20,
            "MAG": 0,
            "SKL": 18,
            "SPD": 18,
            "LCK": 4,
            "DEF": 14,
            "RES": 13,
            "CON": 11,
            "MOV": 8
        },
        "growths": {
            "HP": 0,
            "STR": 0,
            "MAG": 0,
            "SKL": 0,
            "SPD": 0,
            "LCK": 0,
            "DEF": 0,
            "RES": 0,
            "CON": 0,
            "MOV": 0
        },
        "starting_items": [],
        "learned_skills": [],
        "unit_notes": [],
        "wexp_gain": {
            "Sword": [
                false,
                0
            ],
            "Lance": [
                false,
                251
            ],
            "Axe": [
                false,
                0
            ],
            "Bow": [
                false,
                0
            ],
            "Staff": [
                false,
                0
            ],
            "Light": [
                false,
                0
            ],
            "Anima": [
                false,
                0
            ],
            "Dark": [
                false,
                0
            ],
            "Default": [
                false,
                0
            ]
        },
        "alternate_classes": [],
        "portrait_nid": "Mogall Generic (L95)",
        "affinity": "None",
        "fields": []
    }
]