[
    {
        "nid": "Osbert",
        "name": "Osbert",
        "desc": "Clone Immortal. Always up for a challenge. ",
        "variant": "",
        "level": 6,
        "klass": "Clone_Immortal",
        "tags": [],
        "bases": {
            "HP": 20,
            "STR": 9,
            "MAG": 4,
            "SKL": 10,
            "SPD": 7,
            "LCK": 8,
            "DEF": 6,
            "RES": 5,
            "CON": 8,
            "MOV": 6
        },
        "growths": {
            "HP": 90,
            "STR": 40,
            "MAG": 20,
            "SKL": 60,
            "SPD": 30,
            "LCK": 40,
            "DEF": 40,
            "RES": 20,
            "CON": 0,
            "MOV": 0
        },
        "starting_items": [
            [
                "Iron Bow",
                false
            ]
        ],
        "learned_skills": [
            [
                1,
                "Clone"
            ],
            [
                1,
                "ManaGain"
            ],
            [
                1,
                "Rend"
            ],
            [
                1,
                "Immortal"
            ]
        ],
        "unit_notes": [],
        "wexp_gain": {
            "Sword": [
                false,
                0
            ],
            "Lance": [
                false,
                0
            ],
            "Axe": [
                false,
                0
            ],
            "Bow": [
                false,
                31
            ],
            "Staff": [
                false,
                0
            ],
            "Light": [
                false,
                0
            ],
            "Anima": [
                false,
                0
            ],
            "Dark": [
                false,
                0
            ],
            "Default": [
                false,
                0
            ]
        },
        "alternate_classes": [],
        "portrait_nid": "L Telephone(default)",
        "affinity": "Fire",
        "fields": [
            [
                "PromotedClass",
                "Ephraim_Great_Lord"
            ],
            [
                "Blessed",
                "True"
            ]
        ]
    }
]