[
    {
        "nid": "Pitta_Ch10",
        "name": "Pitta",
        "desc": "Mercenary hired by Prince Zachary. Been with the Prince for over a year.",
        "variant": "",
        "level": 5,
        "klass": "Wyvern Lord",
        "tags": [
            "Boss"
        ],
        "bases": {
            "HP": 34,
            "STR": 16,
            "MAG": 3,
            "SKL": 13,
            "SPD": 13,
            "LCK": 9,
            "DEF": 14,
            "RES": 5,
            "CON": 9,
            "MOV": 8
        },
        "growths": {
            "HP": 0,
            "STR": 0,
            "MAG": 0,
            "SKL": 0,
            "SPD": 0,
            "LCK": 0,
            "DEF": 0,
            "RES": 0,
            "CON": 0,
            "MOV": 0
        },
        "starting_items": [
            [
                "Spear",
                false
            ],
            [
                "Halberd",
                false
            ],
            [
                "Fili Shield",
                true
            ]
        ],
        "learned_skills": [],
        "unit_notes": [],
        "wexp_gain": {
            "Sword": [
                false,
                0
            ],
            "Lance": [
                false,
                181
            ],
            "Axe": [
                false,
                71
            ],
            "Bow": [
                false,
                0
            ],
            "Staff": [
                false,
                0
            ],
            "Light": [
                false,
                0
            ],
            "Anima": [
                false,
                0
            ],
            "Dark": [
                false,
                0
            ],
            "Default": [
                false,
                0
            ]
        },
        "alternate_classes": [],
        "portrait_nid": "LaurentLacroix_21",
        "affinity": "Ice",
        "fields": []
    }
]