[
    {
        "nid": "Shoebill",
        "name": "Shoebill",
        "desc": "Gruff, yet experienced knight. Formerly served as the drill sargeant for Cormorant's mercenary company.",
        "variant": "",
        "level": 6,
        "klass": "Paladin",
        "tags": [
            "Horse",
            "Mounted"
        ],
        "bases": {
            "HP": 27,
            "STR": 12,
            "MAG": 0,
            "SKL": 14,
            "SPD": 9,
            "LCK": 9,
            "DEF": 10,
            "CON": 13,
            "MOV": 8,
            "RES": 7
        },
        "growths": {
            "HP": 70,
            "STR": 35,
            "MAG": 5,
            "SKL": 45,
            "SPD": 30,
            "LCK": 25,
            "DEF": 35,
            "CON": 0,
            "MOV": 0,
            "RES": 20
        },
        "starting_items": [
            [
                "Silver Sword",
                false
            ],
            [
                "Javelin",
                false
            ],
            [
                "Elixir",
                false
            ],
            [
                "Old Knight Shield",
                false
            ]
        ],
        "learned_skills": [
            [
                1,
                "Canto"
            ],
            [
                1,
                "Taskmaster"
            ],
            [
                1,
                "Assemble!"
            ],
            [
                1,
                "ManaGain"
            ]
        ],
        "unit_notes": [],
        "wexp_gain": {
            "Sword": [
                false,
                181
            ],
            "Lance": [
                true,
                71
            ],
            "Axe": [
                false,
                0
            ],
            "Bow": [
                false,
                0
            ],
            "Staff": [
                false,
                0
            ],
            "Light": [
                false,
                0
            ],
            "Anima": [
                false,
                0
            ],
            "Dark": [
                false,
                0
            ],
            "Default": [
                false,
                0
            ]
        },
        "alternate_classes": [],
        "portrait_nid": "flasuban_1",
        "affinity": "Thunder",
        "fields": [
            [
                "PromotedClass",
                "Paladin"
            ],
            [
                "Blessed",
                "False"
            ]
        ]
    }
]