[
    {
        "nid": "Tiberius",
        "name": "Tiberius",
        "desc": "Second in line for the Throne of\nBraghedunn, and leader of the Fenians.",
        "variant": "",
        "level": 6,
        "klass": "Clone(Lance1)",
        "tags": [],
        "bases": {
            "HP": 43,
            "STR": 21,
            "MAG": 14,
            "SKL": 23,
            "SPD": 22,
            "LCK": 16,
            "DEF": 16,
            "RES": 12,
            "CON": 11,
            "MOV": 7
        },
        "growths": {
            "HP": 90,
            "STR": 45,
            "MAG": 22,
            "SKL": 40,
            "SPD": 45,
            "LCK": 40,
            "DEF": 15,
            "RES": 15,
            "CON": 0,
            "MOV": 0
        },
        "starting_items": [
            [
                "Noble Spear",
                false
            ]
        ],
        "learned_skills": [
            [
                1,
                "Keen Intuition"
            ]
        ],
        "unit_notes": [],
        "wexp_gain": {
            "Sword": [
                false,
                0
            ],
            "Lance": [
                false,
                251
            ],
            "Axe": [
                false,
                0
            ],
            "Bow": [
                false,
                0
            ],
            "Dagger": [
                false,
                0
            ],
            "Staff": [
                false,
                0
            ],
            "Light": [
                false,
                0
            ],
            "Anima": [
                false,
                0
            ],
            "Dark": [
                false,
                0
            ],
            "Default": [
                false,
                0
            ]
        },
        "alternate_classes": [],
        "portrait_nid": "Tiberius (WAve)",
        "affinity": "Water",
        "fields": []
    }
]