[
    {
        "nid": "Ysbryd_Ch10",
        "name": "Ysbryd",
        "desc": "A senior Priestess in the Cult. Known\nfor her devotion and grudges both.",
        "variant": "",
        "level": 5,
        "klass": "Valkyrie",
        "tags": [
            "Boss"
        ],
        "bases": {
            "HP": 36,
            "STR": 0,
            "MAG": 15,
            "SKL": 10,
            "SPD": 12,
            "LCK": 10,
            "DEF": 7,
            "RES": 22,
            "CON": 10,
            "MOV": 7
        },
        "growths": {
            "HP": 45,
            "STR": 0,
            "MAG": 35,
            "SKL": 25,
            "SPD": 45,
            "LCK": 40,
            "DEF": 10,
            "RES": 40,
            "CON": 0,
            "MOV": 0
        },
        "starting_items": [
            [
                "Divine",
                false
            ],
            [
                "Physic",
                true
            ],
            [
                "Warp Crystal",
                false
            ]
        ],
        "learned_skills": [
            [
                1,
                "God's Eye"
            ],
            [
                1,
                "Assurety"
            ]
        ],
        "unit_notes": [],
        "wexp_gain": {
            "Sword": [
                false,
                0
            ],
            "Lance": [
                false,
                0
            ],
            "Axe": [
                false,
                0
            ],
            "Bow": [
                false,
                0
            ],
            "Dagger": [
                false,
                0
            ],
            "Staff": [
                false,
                181
            ],
            "Light": [
                false,
                181
            ],
            "Anima": [
                false,
                0
            ],
            "Dark": [
                false,
                0
            ],
            "Default": [
                false,
                0
            ]
        },
        "alternate_classes": [],
        "portrait_nid": "Ysbryd",
        "affinity": "Light",
        "fields": []
    }
]