[
    {
        "nid": "Zackary",
        "name": "Prince Zackary",
        "desc": "5th in line for the Throne. ",
        "variant": null,
        "level": 1,
        "klass": "Mage",
        "tags": [],
        "bases": {
            "HP": 7,
            "STR": 7,
            "MAG": 7,
            "SKL": 7,
            "SPD": 7,
            "LCK": 7,
            "DEF": 7,
            "RES": 7,
            "CON": 7,
            "MOV": 7
        },
        "growths": {
            "HP": 0,
            "STR": 0,
            "MAG": 0,
            "SKL": 0,
            "SPD": 0,
            "LCK": 0,
            "DEF": 0,
            "RES": 0,
            "CON": 0,
            "MOV": 0
        },
        "starting_items": [],
        "learned_skills": [],
        "unit_notes": [],
        "wexp_gain": {
            "Sword": [
                false,
                0
            ],
            "Lance": [
                false,
                0
            ],
            "Axe": [
                false,
                0
            ],
            "Bow": [
                false,
                0
            ],
            "Staff": [
                false,
                0
            ],
            "Light": [
                false,
                0
            ],
            "Anima": [
                false,
                0
            ],
            "Dark": [
                false,
                0
            ],
            "Default": [
                false,
                0
            ]
        },
        "alternate_classes": [],
        "portrait_nid": "Rohan_Yubello",
        "affinity": "None",
        "fields": []
    }
]