[
    {
        "nid": "Zackary_Ch10",
        "name": "Prince Zackary",
        "desc": "5th in line for the Throne. ",
        "variant": "",
        "level": 18,
        "klass": "Mage",
        "tags": [
            "Boss"
        ],
        "bases": {
            "HP": 30,
            "STR": 3,
            "MAG": 17,
            "SKL": 10,
            "SPD": 13,
            "LCK": 9,
            "DEF": 5,
            "RES": 11,
            "CON": 5,
            "MOV": 5
        },
        "growths": {
            "HP": 55,
            "STR": 0,
            "MAG": 55,
            "SKL": 40,
            "SPD": 35,
            "LCK": 20,
            "DEF": 5,
            "RES": 40,
            "CON": 0,
            "MOV": 0
        },
        "starting_items": [
            [
                "Fimbulvetr",
                false
            ],
            [
                "Master Seal",
                false
            ],
            [
                "Energy Ring",
                true
            ]
        ],
        "learned_skills": [
            [
                1,
                "Prodigy"
            ]
        ],
        "unit_notes": [],
        "wexp_gain": {
            "Sword": [
                false,
                0
            ],
            "Lance": [
                false,
                0
            ],
            "Axe": [
                false,
                0
            ],
            "Bow": [
                false,
                0
            ],
            "Staff": [
                false,
                0
            ],
            "Light": [
                false,
                0
            ],
            "Anima": [
                false,
                181
            ],
            "Dark": [
                false,
                0
            ],
            "Default": [
                false,
                0
            ]
        },
        "alternate_classes": [],
        "portrait_nid": "Rohan_Yubello",
        "affinity": "Dark",
        "fields": []
    }
]