[
    {
        "nid": "Advance",
        "name": "Advance <red>(0 Mana)</>",
        "desc": "Shove this unit and a target forward one space. Can act afterward.",
        "icon_nid": "{J-Treecko} {Lex Talionis} All Icons",
        "icon_index": [
            0,
            15
        ],
        "components": [
            [
                "class_skill",
                null
            ],
            [
                "ability",
                "Advance"
            ]
        ]
    }
]