[
    {
        "nid": "AnimationVariantFemale",
        "name": "AnimationVariantFemale",
        "desc": "Changes animation variant to female",
        "icon_nid": "Affinity",
        "icon_index": [
            0,
            0
        ],
        "components": [
            [
                "change_variant",
                "Female"
            ],
            [
                "hidden",
                null
            ]
        ]
    }
]