[
    {
        "nid": "Armsthrift",
        "name": "Armsthrift",
        "desc": "Unit does not consume weapon uses on hit.",
        "icon_nid": "{J-Treecko} {Lex Talionis} All Icons",
        "icon_index": [
            11,
            16
        ],
        "components": [
            [
                "armsthrift",
                1
            ],
            [
                "class_skill",
                null
            ]
        ]
    }
]