[
    {
        "nid": "Astra_mod",
        "name": "Astra",
        "desc": "User attacks 5 times.",
        "icon_nid": "{J-Treecko} {Lex Talionis} All Icons",
        "icon_index": [
            1,
            5
        ],
        "components": [
            [
                "dynamic_multiattacks",
                "4"
            ],
            [
                "display_skill_icon_in_combat",
                null
            ],
            [
                "lost_on_endstep",
                null
            ],
            [
                "cannot_double",
                null
            ]
        ]
    }
]