[
    {
        "nid": "Battle Cry",
        "name": "Battle Cry <red>(1 Mana)</>",
        "desc": "Grants +3 Attack, +10 Hit\non next attack. Stacks infinitely.",
        "icon_nid": "LTSkillIconSheet",
        "icon_index": [
            5,
            42
        ],
        "components": [
            [
                "class_skill",
                null
            ],
            [
                "ability",
                "Battle Cry"
            ],
            [
                "condition",
                "not 'Dispeller_Child' in [skill.nid for skill in unit.skills]"
            ]
        ]
    }
]