[
    {
        "nid": "Battle-hardened_child",
        "name": "Battle-hardened",
        "desc": "+4 DEF, +4 RES",
        "icon_nid": "LTSkillIconSheet",
        "icon_index": [
            0,
            45
        ],
        "components": [
            [
                "stat_change",
                [
                    [
                        "DEF",
                        4
                    ],
                    [
                        "RES",
                        4
                    ]
                ]
            ],
            [
                "time",
                1
            ]
        ]
    }
]