[
    {
        "nid": "Bird of Ill Omen",
        "name": "Bird of Ill Omen",
        "desc": "<red>Passive.</> AoE 1. All affected units have 0 LCK.",
        "icon_nid": "LTSkillIconSheet",
        "icon_index": [
            0,
            41
        ],
        "components": [
            [
                "class_skill",
                null
            ],
            [
                "aura",
                "Bird of Ill Omen_Child"
            ],
            [
                "aura_range",
                1
            ],
            [
                "aura_target",
                "unit"
            ]
        ]
    }
]