[
    {
        "nid": "Boom_Child",
        "name": "Immortal Fire",
        "desc": "Kills the oppenent and puts any oppenents within 3 tiles to 1 HP. Kills the user.",
        "icon_nid": "Skills",
        "icon_index": [
            8,
            10
        ],
        "components": [
            [
                "class_skill",
                null
            ],
            [
                "unit_anim",
                "AOE_Wyrmsfire"
            ],
            [
                "damage",
                100
            ],
            [
                "post_combat_splash_aoe",
                3
            ],
            [
                "post_combat_splash",
                100
            ],
            [
                "event_after_initiated_combat",
                "Global Ability_ImmortalFireDeath"
            ],
            [
                "display_skill_icon_in_combat",
                null
            ],
            [
                "alternate_battle_anim",
                "Critical"
            ],
            [
                "hit",
                200
            ]
        ]
    }
]