[
    {
        "nid": "Calamity",
        "name": "Calamity <red>(13 Mana)</>",
        "desc": "Dur 1. AoE 3. All units have 0 LCK, crit prevention fails for others.",
        "icon_nid": "{J-Treecko} {Lex Talionis} All Icons",
        "icon_index": [
            0,
            3
        ],
        "components": [
            [
                "class_skill",
                null
            ],
            [
                "ability",
                "Calamity"
            ],
            [
                "condition",
                "not 'Dispeller_Child' in [skill.nid for skill in unit.skills]"
            ]
        ]
    }
]