[
    {
        "nid": "Cross Knife Debuff",
        "name": "Cross Knife Debuff",
        "desc": "STR -4, MAG -4",
        "icon_nid": "Ershkigal Cross Knife",
        "icon_index": [
            0,
            0
        ],
        "components": [
            [
                "negative",
                null
            ],
            [
                "stat_change",
                [
                    [
                        "STR",
                        -4
                    ],
                    [
                        "MAG",
                        -4
                    ]
                ]
            ],
            [
                "time",
                2
            ]
        ]
    }
]