[
    {
        "nid": "Danu's Blessing",
        "name": "Danu's Blessing",
        "desc": "Grants +5 RES, +5 LCK, and -2 DEF.",
        "icon_nid": "processed_ffta2armors",
        "icon_index": [
            0,
            50
        ],
        "components": [
            [
                "stat_change",
                [
                    [
                        "DEF",
                        -2
                    ],
                    [
                        "RES",
                        5
                    ],
                    [
                        "LCK",
                        5
                    ]
                ]
            ]
        ]
    }
]