[
    {
        "nid": "Darkest Sun_child",
        "name": "Dark Sun",
        "desc": "",
        "icon_nid": "Skills",
        "icon_index": [
            4,
            3
        ],
        "components": [
            [
                "cannot_double",
                null
            ],
            [
                "unit_flickering_tint",
                [
                    85,
                    0,
                    255
                ]
            ],
            [
                "display_skill_icon_in_combat",
                null
            ],
            [
                "lost_on_endstep",
                null
            ],
            [
                "damage",
                2
            ],
            [
                "smart_oversplash",
                1
            ]
        ]
    }
]