[
    {
        "nid": "DEF Break",
        "name": "DEF Break",
        "desc": "-4 DEF.",
        "icon_nid": "{J-Treecko} {Lex Talionis} All Icons",
        "icon_index": [
            7,
            12
        ],
        "components": [
            [
                "negative",
                null
            ],
            [
                "time",
                2
            ],
            [
                "stat_change",
                [
                    [
                        "DEF",
                        -4
                    ]
                ]
            ]
        ]
    }
]