[
    {
        "nid": "Dispeller_Child",
        "name": "Dispelled",
        "desc": "Magic and mana skills cannot be used.",
        "icon_nid": "processed_ffta2consumables",
        "icon_index": [
            0,
            9
        ],
        "components": [
            [
                "cannot_use_magic_items",
                null
            ]
        ]
    }
]