[
    {
        "nid": "Draconic Ire (Permanent)",
        "name": "Draconic Ire",
        "desc": "This unit has lost control of their power.\nAll damage +10.",
        "icon_nid": "LTSkillIconSheet",
        "icon_index": [
            2,
            43
        ],
        "components": [
            [
                "unselectable",
                null
            ],
            [
                "change_ai",
                "Defend"
            ],
            [
                "eval_damage",
                "10"
            ],
            [
                "lost_on_end_chapter",
                null
            ]
        ]
    }
]