[
    {
        "nid": "Draconic Being",
        "name": "Draconic Being",
        "desc": "<red>Passive.</> Unit starts with 0 Mana. Unit does not gain Mana when defeating units.",
        "icon_nid": "LTSkillIconSheet",
        "icon_index": [
            5,
            39
        ],
        "components": [
            [
                "wexp_usable_skill",
                "Dark"
            ],
            [
                "class_skill",
                null
            ],
            [
                "wexp_multiplier",
                0
            ]
        ]
    }
]