[
    {
        "nid": "EmpowerChild",
        "name": "Empowered",
        "desc": "The unit is being Empowered by Seliche.\n+6 STR and +6 MAG.",
        "icon_nid": "LTSkillIconSheet",
        "icon_index": [
            2,
            36
        ],
        "components": [
            [
                "stat_change",
                [
                    [
                        "STR",
                        6
                    ],
                    [
                        "MAG",
                        6
                    ]
                ]
            ]
        ]
    }
]