[
    {
        "nid": "EvioliteBuffs",
        "name": "Eviolite",
        "desc": "Defensive boosts if unpromoted.\nHigher boosts at lower levels.",
        "icon_nid": "eviolite 2",
        "icon_index": [
            0,
            0
        ],
        "components": [
            [
                "condition",
                "DB.classes.get(unit.klass).tier < 2 and unit.level < 11"
            ],
            [
                "dynamic_resist",
                "(12 - unit.level) // 2"
            ]
        ]
    }
]