[
    {
        "nid": "Faint Light",
        "name": "Faint Light",
        "desc": "In the dark, this unit avails you\nwith less fog vision range than usual.",
        "icon_nid": "Skills",
        "icon_index": [
            8,
            5
        ],
        "components": [
            [
                "class_skill",
                null
            ],
            [
                "sight_range_bonus",
                -2
            ]
        ]
    }
]