[
    {
        "nid": "Flying",
        "name": "Flying",
        "desc": "Can fly.",
        "icon_nid": "Skills",
        "icon_index": [
            3,
            10
        ],
        "components": [
            [
                "class_skill",
                null
            ]
        ]
    }
]