[
    {
        "nid": "Fogbreaker",
        "name": "Fogbreaker",
        "desc": "This unit rejects your puny fog of war!",
        "icon_nid": "Skills",
        "icon_index": [
            8,
            5
        ],
        "components": [
            [
                "class_skill",
                null
            ],
            [
                "sight_range_bonus",
                20
            ]
        ]
    }
]