[
    {
        "nid": "Frozen",
        "name": "Frozen",
        "desc": "Unit cannot move. -100 Avoid.",
        "icon_nid": "Skills",
        "icon_index": [
            5,
            3
        ],
        "components": [
            [
                "negative",
                null
            ],
            [
                "stat_change",
                [
                    [
                        "MOV",
                        -99
                    ]
                ]
            ],
            [
                "avoid",
                -100
            ],
            [
                "end_time",
                1
            ],
            [
                "unit_anim",
                "MapFrostbite"
            ]
        ]
    }
]