[
    {
        "nid": "FullResist",
        "name": "Complete Protection",
        "desc": "Cannot be damaged by attacks.",
        "icon_nid": "Skills",
        "icon_index": [
            5,
            5
        ],
        "components": [
            [
                "time",
                1
            ],
            [
                "resist_multiplier",
                0.0
            ]
        ]
    }
]