[
    {
        "nid": "God's Fist",
        "name": "God's Fist <red>(5 Mana)</>",
        "desc": "Stuns target for 2 turns after combat,\nif user's mana is 10 or above.",
        "icon_nid": "processed_ffta2accessories",
        "icon_index": [
            0,
            28
        ],
        "components": [
            [
                "class_skill",
                null
            ],
            [
                "cost_mana",
                5
            ],
            [
                "check_mana",
                9
            ],
            [
                "give_status_after_hit",
                "Stunned"
            ],
            [
                "grounded",
                null
            ],
            [
                "condition",
                "not 'Dispeller_Child' in [skill.nid for skill in unit.skills]"
            ]
        ]
    }
]