[
    {
        "nid": "Guiding Wind",
        "name": "Guiding Wind <red>(0 Mana)</>",
        "desc": "Attack with -4 Might and\n-4 AS. If it kills, gain 8 Mana.",
        "icon_nid": "{J-Treecko} {Lex Talionis} All Icons",
        "icon_index": [
            9,
            16
        ],
        "components": [
            [
                "class_skill",
                null
            ],
            [
                "combat_art",
                "Guiding Wind_mod"
            ]
        ]
    }
]