[
    {
        "nid": "Harpoons_Child",
        "name": "Harpoons!",
        "desc": "-2 Mt, +20 Hit. If nonlethal,\nwarp next to target after combat.",
        "icon_nid": "LTSkillIconSheet",
        "icon_index": [
            6,
            36
        ],
        "components": [
            [
                "lost_on_end_combat",
                [
                    [
                        "LostOnSelf (T/F)",
                        "F",
                        "Lost after self combat (e.g. vulnerary)"
                    ]
                ]
            ],
            [
                "hit",
                20
            ],
            [
                "damage",
                -2
            ],
            [
                "event_after_initiated_combat",
                "Global Ability_TetherLeap"
            ]
        ]
    }
]