[
    {
        "nid": "Haste",
        "name": "Haste <red>(10 Mana)</>",
        "desc": "Attach to an ally to boost their mobility.\n+5 SPD, +2 MOV.",
        "icon_nid": "LTSkillIconSheet",
        "icon_index": [
            2,
            36
        ],
        "components": [
            [
                "class_skill",
                null
            ],
            [
                "condition",
                "not 'Dispeller_Child' in [skill.nid for skill in unit.skills]"
            ],
            [
                "ability",
                "Haste"
            ],
            [
                "check_mana",
                10
            ]
        ]
    }
]