[
    {
        "nid": "Health Font",
        "name": "Health Font",
        "desc": "Aura, range 2. Allies within the aura regenerate 20% HP at upkeep.",
        "icon_nid": "LTSkillIconSheet",
        "icon_index": [
            7,
            47
        ],
        "components": [
            [
                "aura",
                "Health Font_Child"
            ],
            [
                "aura_range",
                2
            ],
            [
                "aura_target",
                "ally"
            ]
        ]
    }
]