[
    {
        "nid": "Heartseeker",
        "name": "Heartseeker",
        "desc": "Aura. Grants -20 avoid to enemies within 3 spaces.",
        "icon_nid": "Skills",
        "icon_index": [
            10,
            8
        ],
        "components": [
            [
                "class_skill",
                null
            ],
            [
                "aura",
                "Heartseeker_child"
            ],
            [
                "aura_range",
                3
            ],
            [
                "aura_target",
                "enemy"
            ]
        ]
    }
]