[
    {
        "nid": "helmetgaming",
        "name": "Soldier Helm",
        "desc": "HP +10, Str +5.\nRegenerate.",
        "icon_nid": "tactics_ogre",
        "icon_index": [
            8,
            0
        ],
        "components": [
            [
                "stat_change",
                [
                    [
                        "HP",
                        10
                    ],
                    [
                        "STR",
                        5
                    ]
                ]
            ],
            [
                "regeneration",
                0.2
            ]
        ]
    }
]