[
    {
        "nid": "Hunting Bow",
        "name": "Hunting Bow",
        "desc": "",
        "icon_nid": "processed_ffta2bows",
        "icon_index": [
            0,
            9
        ],
        "components": [
            [
                "hidden",
                null
            ],
            [
                "dynamic_damage",
                "2 if not combat_calcs.can_counterattack(unit, unit.get_weapon(), target, target.get_weapon()) else 0"
            ],
            [
                "dynamic_accuracy",
                "20 if not combat_calcs.can_counterattack(unit, unit.get_weapon(), target, target.get_weapon()) else 0"
            ],
            [
                "dynamic_crit_accuracy",
                "20 if not combat_calcs.can_counterattack(unit, unit.get_weapon(), target, target.get_weapon()) else 0"
            ]
        ]
    }
]