[
    {
        "nid": "II: The Popess Damage Calc",
        "name": "II: The Popess",
        "desc": "Divine is wisdom, earthly, conceit. Let not hubris bring defeat.",
        "icon_nid": "processed_ffta2instruments",
        "icon_index": [
            0,
            13
        ],
        "components": [
            [
                "dynamic_damage",
                "max(unit2.get_stat('RES'), unit.get_stat('MAG')) + unit2.get_stat('RES') - unit.get_stat('MAG')"
            ]
        ]
    }
]