[
    {
        "nid": "III: The Empress Debuff",
        "name": "III: The Empress",
        "desc": "Action taken festers doubt, but inaction can only end in a rout.",
        "icon_nid": "processed_ffta2instruments",
        "icon_index": [
            0,
            1
        ],
        "components": [
            [
                "stat_change",
                [
                    [
                        "STR",
                        -2
                    ],
                    [
                        "MAG",
                        -2
                    ],
                    [
                        "SKL",
                        -2
                    ],
                    [
                        "SPD",
                        -2
                    ],
                    [
                        "DEF",
                        -2
                    ],
                    [
                        "RES",
                        -2
                    ],
                    [
                        "MOV",
                        -2
                    ]
                ]
            ],
            [
                "time",
                1
            ],
            [
                "negative",
                null
            ]
        ]
    }
]