[
    {
        "nid": "Immortal",
        "name": "Immortal",
        "desc": "Instead of dying, unit loses one of each stat. ",
        "icon_nid": "LTSkillIconSheet",
        "icon_index": [
            4,
            43
        ],
        "components": [
            [
                "class_skill",
                null
            ]
        ]
    }
]