[
    {
        "nid": "Immortal Strength",
        "name": "Immortal Strength",
        "desc": "A mysterious power is granting this unit immense power, in exchange for their sanity.",
        "icon_nid": "LTSkillIconSheet",
        "icon_index": [
            6,
            42
        ],
        "components": [
            [
                "stat_change",
                [
                    [
                        "STR",
                        15
                    ],
                    [
                        "MAG",
                        15
                    ],
                    [
                        "SKL",
                        15
                    ],
                    [
                        "SPD",
                        15
                    ],
                    [
                        "DEF",
                        15
                    ],
                    [
                        "RES",
                        15
                    ]
                ]
            ],
            [
                "ignore_alliances",
                null
            ],
            [
                "class_skill",
                null
            ]
        ]
    }
]