[
    {
        "nid": "Judged",
        "name": "Judged",
        "desc": "Max HP set to 1. Cannot use Judgement again.",
        "icon_nid": "processed_ffta2instruments",
        "icon_index": [
            0,
            13
        ],
        "components": [
            [
                "lost_on_end_chapter",
                null
            ],
            [
                "event_on_remove",
                "Global Item_Judgement_Chapter_End"
            ]
        ]
    }
]