[
    {
        "nid": "Leader",
        "name": "Leader",
        "desc": "Allies within 3 spaces gain +10 HIT and +10 AVO.",
        "icon_nid": "Skills",
        "icon_index": [
            10,
            4
        ],
        "components": [
            [
                "class_skill",
                null
            ],
            [
                "aura",
                "Leader_proc"
            ],
            [
                "aura_range",
                3
            ],
            [
                "aura_target",
                "ally"
            ]
        ]
    }
]