[
    {
        "nid": "Locktouch",
        "name": "Locktouch",
        "desc": "Unit can open locks without a key.",
        "icon_nid": "Skills",
        "icon_index": [
            1,
            0
        ],
        "components": [
            [
                "class_skill",
                null
            ],
            [
                "locktouch",
                null
            ]
        ]
    }
]