[
    {
        "nid": "Lock Time",
        "name": "Lock Time <red>(15 Mana)</>",
        "desc": "Stops time. AoE 2, Dur 1. Cost all HP.\nFrozen units cannot attack, dodge, or move.",
        "icon_nid": "Skills",
        "icon_index": [
            9,
            3
        ],
        "components": [
            [
                "ability",
                "Lock Time"
            ],
            [
                "cost_mana",
                15
            ],
            [
                "condition",
                "not unit.has_attacked and not 'Dispeller_Child' in [skill.nid for skill in unit.skills]"
            ],
            [
                "class_skill",
                null
            ]
        ]
    }
]