[
    {
        "nid": "LongTargeting_Mode",
        "name": "Primed",
        "desc": "Readied a shot at maximum draw. Needs someone to help him fire.",
        "icon_nid": "Bow",
        "icon_index": [
            0,
            8
        ],
        "components": [
            [
                "unit_flickering_tint",
                [
                    209,
                    142,
                    65
                ]
            ],
            [
                "time",
                1
            ],
            [
                "grounded",
                null
            ]
        ]
    }
]