[
    {
        "nid": "MageRobeBuffs",
        "name": "Mana Robe",
        "desc": "The Mana Robe regenerates\n2 mana per turn.",
        "icon_nid": "processed_ffta2armors",
        "icon_index": [
            0,
            22
        ],
        "components": [
            [
                "mana_regeneration",
                2
            ]
        ]
    }
]