[
    {
        "nid": "Major Arcana",
        "name": "Major Arcana",
        "desc": "<red>Passive.</> Gains access to three verses at random each turn.",
        "icon_nid": "processed_ffta2instruments",
        "icon_index": [
            0,
            13
        ],
        "components": [
            [
                "class_skill",
                null
            ]
        ]
    }
]