[
    {
        "nid": "Mana Beloved_mod",
        "name": "Mana Beloved_mod",
        "desc": "",
        "icon_nid": "Skills",
        "icon_index": [
            6,
            10
        ],
        "components": []
    }
]