[
    {
        "nid": "Mana Beloved",
        "name": "Mana Beloved",
        "desc": "User and allies within 3 spaces gain 1 mana per turn.",
        "icon_nid": "Skills",
        "icon_index": [
            6,
            10
        ],
        "components": [
            [
                "aura",
                "Mana Beloved_mod"
            ],
            [
                "aura_range",
                3
            ],
            [
                "aura_target",
                "ally"
            ],
            [
                "class_skill",
                null
            ],
            [
                "condition",
                "not 'Dispeller_Child' in [skill.nid for skill in unit.skills]"
            ]
        ]
    }
]