[
    {
        "nid": "Murder Knife Debuff",
        "name": "Murder Knife Debuff",
        "desc": "DEF -4, RES -4",
        "icon_nid": "Ershkigal Killer Dagger",
        "icon_index": [
            0,
            0
        ],
        "components": [
            [
                "negative",
                null
            ],
            [
                "stat_change",
                [
                    [
                        "DEF",
                        -3
                    ],
                    [
                        "RES",
                        -3
                    ]
                ]
            ],
            [
                "time",
                2
            ]
        ]
    }
]