[
    {
        "nid": "Overshock_mod",
        "name": "Overshock",
        "desc": "Guaranteed crit from Overshock.",
        "icon_nid": "{J-Treecko} {Lex Talionis} All Icons",
        "icon_index": [
            9,
            10
        ],
        "components": [
            [
                "lost_on_endstep",
                null
            ],
            [
                "crit",
                500
            ],
            [
                "gain_mana",
                "-30"
            ]
        ]
    }
]