[
    {
        "nid": "Piercer_mod",
        "name": "Piercer",
        "desc": "",
        "icon_nid": "{J-Treecko} {Lex Talionis} All Icons",
        "icon_index": [
            3,
            4
        ],
        "components": [
            [
                "eval_damage",
                "unit.get_stat('SKL')"
            ],
            [
                "cannot_double",
                null
            ],
            [
                "crit",
                -99
            ],
            [
                "lost_on_endstep",
                null
            ]
        ]
    }
]