[
    {
        "nid": "Plunder",
        "name": "Pirate's Plunder",
        "desc": "<red>Passive.</> After killing a foe,\ngain 2 Mana, 250 Gold, or\na ballista shot (at random).",
        "icon_nid": "LTSkillIconSheet",
        "icon_index": [
            2,
            37
        ],
        "components": [
            [
                "class_skill",
                null
            ]
        ]
    }
]