[
    {
        "nid": "Poet's Hat Heal",
        "name": "Poet's Hat Heal",
        "desc": "Regenerate 10% HP to the wearer.",
        "icon_nid": "processed_ffta2helms",
        "icon_index": [
            0,
            3
        ],
        "components": [
            [
                "regeneration",
                0.1
            ],
            [
                "mana_regeneration",
                5
            ]
        ]
    }
]