[
    {
        "nid": "Poisoned",
        "name": "Poisoned",
        "desc": "Inflicts -2 to all stats.",
        "icon_nid": "Skills",
        "icon_index": [
            3,
            4
        ],
        "components": [
            [
                "negative",
                null
            ],
            [
                "time",
                2
            ],
            [
                "stat_change",
                [
                    [
                        "STR",
                        -2
                    ],
                    [
                        "MAG",
                        -2
                    ],
                    [
                        "SKL",
                        -2
                    ],
                    [
                        "SPD",
                        -2
                    ],
                    [
                        "LCK",
                        -2
                    ],
                    [
                        "DEF",
                        -2
                    ],
                    [
                        "RES",
                        -2
                    ]
                ]
            ]
        ]
    }
]