[
    {
        "nid": "Providence",
        "name": "Providence",
        "desc": "The power of Fate. Take half\ndamage, deal double damage, +5 Spd.",
        "icon_nid": "LTSkillIconSheet",
        "icon_index": [
            6,
            45
        ],
        "components": [
            [
                "class_skill",
                null
            ],
            [
                "damage_multiplier",
                2.0
            ],
            [
                "resist_multiplier",
                0.5
            ],
            [
                "stat_change",
                [
                    [
                        "SPD",
                        5
                    ]
                ]
            ]
        ]
    }
]