[
    {
        "nid": "Pyrophobia",
        "name": "Pyrophobia",
        "desc": "Due to her tragic past, Sadhbh\nrefuses to use fire magic.",
        "icon_nid": "Skills",
        "icon_index": [
            8,
            10
        ],
        "components": [
            [
                "class_skill",
                null
            ],
            [
                "hit",
                -500
            ],
            [
                "condition",
                "unit.get_weapon().nid == 'Fire' or unit.get_weapon().nid == 'Elfire'"
            ],
            [
                "damage",
                -100
            ]
        ]
    }
]