[
    {
        "nid": "Rend",
        "name": "Rend Marked",
        "desc": "100 Crit against marked enemies.",
        "icon_nid": "Skills",
        "icon_index": [
            9,
            6
        ],
        "components": [
            [
                "dynamic_crit_accuracy",
                "150 if 'Marked' in [skill.nid for skill in unit2.skills] else 0"
            ],
            [
                "class_skill",
                null
            ]
        ]
    }
]