[
    {
        "nid": "Retribution",
        "name": "Retribution",
        "desc": "Increases critical rate by 50%\nwhen HP is below 25%.",
        "icon_nid": "Skills",
        "icon_index": [
            4,
            6
        ],
        "components": [
            [
                "crit",
                50
            ],
            [
                "condition",
                "unit.get_hp() / unit.get_max_hp() < 0.25"
            ]
        ]
    }
]