[
    {
        "nid": "Separate",
        "name": "Separate",
        "desc": "Splits Seliche from the host.",
        "icon_nid": "LTSkillIconSheet",
        "icon_index": [
            2,
            36
        ],
        "components": [
            [
                "class_skill",
                null
            ],
            [
                "condition",
                "not 'Dispeller_Child' in [skill.nid for skill in unit.skills]"
            ],
            [
                "ability",
                "Separate"
            ]
        ]
    }
]