[
    {
        "nid": "Shackled",
        "name": "Shackled",
        "desc": "STR/SKL -3, MOV -5.",
        "icon_nid": "LTSkillIconSheet",
        "icon_index": [
            5,
            47
        ],
        "components": [
            [
                "stat_change",
                [
                    [
                        "STR",
                        -3
                    ],
                    [
                        "SKL",
                        -3
                    ],
                    [
                        "MOV",
                        -5
                    ]
                ]
            ],
            [
                "negative",
                null
            ],
            [
                "time",
                2
            ],
            [
                "lost_on_end_chapter",
                null
            ]
        ]
    }
]