[
    {
        "nid": "Silver Dagger Debuff",
        "name": "Steel Dagger Debuff",
        "desc": "STR -3, MAG -3, DEF -3, RES -3",
        "icon_nid": "Ershkigal Silver Dagger",
        "icon_index": [
            0,
            0
        ],
        "components": [
            [
                "negative",
                null
            ],
            [
                "stat_change",
                [
                    [
                        "STR",
                        -3
                    ],
                    [
                        "MAG",
                        -3
                    ],
                    [
                        "DEF",
                        -2
                    ],
                    [
                        "RES",
                        -2
                    ]
                ]
            ],
            [
                "time",
                2
            ]
        ]
    }
]