[
    {
        "nid": "Slippery_mod",
        "name": "Slippery",
        "desc": "+30 avo until end of turn.",
        "icon_nid": "LTSkillIconSheet",
        "icon_index": [
            3,
            6
        ],
        "components": [
            [
                "avoid",
                30
            ],
            [
                "time",
                1
            ]
        ]
    }
]