[
    {
        "nid": "Sol",
        "name": "Sol <red>(12 Mana)</>",
        "desc": "User attacks with +4 mt,\nand heals for half dmg dealt.",
        "icon_nid": "{J-Treecko} {Lex Talionis} All Icons",
        "icon_index": [
            6,
            4
        ],
        "components": [
            [
                "combat_art",
                "Sol_mod"
            ],
            [
                "cost_mana",
                12
            ],
            [
                "class_skill",
                null
            ],
            [
                "condition",
                "not 'Dispeller_Child' in [skill.nid for skill in unit.skills]"
            ]
        ]
    }
]