[
    {
        "nid": "Sol_mod",
        "name": "Sol",
        "desc": "User attacks with +4 mt,\nand heals for half dmg dealt.",
        "icon_nid": "{J-Treecko} {Lex Talionis} All Icons",
        "icon_index": [
            6,
            4
        ],
        "components": [
            [
                "display_skill_icon_in_combat",
                null
            ],
            [
                "lost_on_endstep",
                null
            ],
            [
                "cannot_double",
                null
            ],
            [
                "dynamic_damage",
                "4"
            ],
            [
                "lifelink",
                0.5
            ]
        ]
    }
]