[
    {
        "nid": "Soulswap",
        "name": "Soulswap <red>(4 Mana)</>",
        "desc": "Swap Yarrow's and Thrant's positions.",
        "icon_nid": "Skills",
        "icon_index": [
            12,
            7
        ],
        "components": [
            [
                "ability",
                "Soulswap"
            ],
            [
                "class_skill",
                null
            ],
            [
                "condition",
                "game.get_unit('Yarrow').position and game.get_unit('Thrant').position and not 'Dispeller_Child' in [skill.nid for skill in unit.skills]"
            ],
            [
                "check_mana",
                4
            ]
        ]
    }
]