[
    {
        "nid": "Spacetime Lock_Child",
        "name": "Spacetime Locked",
        "desc": "Unit cannot move or die.",
        "icon_nid": "{J-Treecko} {Lex Talionis} All Icons",
        "icon_index": [
            11,
            2
        ],
        "components": [
            [
                "miracle",
                null
            ],
            [
                "stat_multiplier",
                [
                    [
                        "MOV",
                        0
                    ]
                ]
            ]
        ]
    }
]