[
    {
        "nid": "Steel Dagger Debuff",
        "name": "Steel Dagger Debuff",
        "desc": "STR -2, DEF -2, RES -2",
        "icon_nid": "Ershkigal Steel Dagger",
        "icon_index": [
            0,
            0
        ],
        "components": [
            [
                "negative",
                null
            ],
            [
                "stat_change",
                [
                    [
                        "STR",
                        -2
                    ],
                    [
                        "DEF",
                        -2
                    ],
                    [
                        "RES",
                        -2
                    ]
                ]
            ],
            [
                "time",
                2
            ]
        ]
    }
]