[
    {
        "nid": "Sword Hit +30",
        "name": "Sword Hit +30",
        "desc": "",
        "icon_nid": "Skills",
        "icon_index": [
            5,
            6
        ],
        "components": [
            [
                "class_skill",
                null
            ],
            [
                "hit",
                30
            ],
            [
                "condition",
                "unit.get_weapon() and item_system.weapon_type(unit, unit.get_weapon()) == 'Sword'"
            ]
        ]
    }
]