[
    {
        "nid": "Taskmaster",
        "name": "Taskmaster",
        "desc": "Allies within a two tile range receive 1.2x exp and 2x wexp.",
        "icon_nid": "Skills",
        "icon_index": [
            1,
            8
        ],
        "components": [
            [
                "class_skill",
                null
            ],
            [
                "aura",
                "Taskmaster_Child"
            ],
            [
                "aura_range",
                2
            ],
            [
                "aura_target",
                "ally"
            ]
        ]
    }
]