[
    {
        "nid": "Tether_Parent",
        "name": "Tethered",
        "desc": "This unit is tethered to another.",
        "icon_nid": "Skills",
        "icon_index": [
            8,
            0
        ],
        "components": [
            [
                "lost_on_end_chapter",
                null
            ]
        ]
    }
]