[
    {
        "nid": "Toxic",
        "name": "Toxic",
        "desc": "<red>Passive.</> Inflicts a stacking -1 SPD/SKL/DEF on hit to enemies. Player phase only.",
        "icon_nid": "Skills",
        "icon_index": [
            5,
            4
        ],
        "components": [
            [
                "class_skill",
                null
            ],
            [
                "give_status_after_hit",
                "Poisoned_stack"
            ],
            [
                "combat_condition",
                "unit2.team != 'player' and game.phase.get_current() == 'player'"
            ]
        ]
    }
]