[
    {
        "nid": "Training Regimen_child",
        "name": "Training Regimen",
        "desc": "Hit/Avoid/Crit +5 for each time Lychee\nhas initiated combat this chapter.",
        "icon_nid": "LTSkillIconSheet",
        "icon_index": [
            4,
            38
        ],
        "components": [
            [
                "stack",
                null
            ],
            [
                "hit",
                5
            ],
            [
                "avoid",
                5
            ],
            [
                "crit",
                5
            ],
            [
                "lost_on_end_chapter",
                null
            ]
        ]
    }
]