[
    {
        "nid": "VantagePlus",
        "name": "Vantage+",
        "desc": "Always strikes first.",
        "icon_nid": "Skills",
        "icon_index": [
            1,
            7
        ],
        "components": [
            [
                "vantage",
                null
            ]
        ]
    }
]