[
    {
        "nid": "VI: The Lovers Debuff",
        "name": "V: The Lovers",
        "desc": "A bond, once forged, is hard as steel. The pain of one is the other's to feel.",
        "icon_nid": "processed_ffta2instruments",
        "icon_index": [
            0,
            1
        ],
        "components": [
            [
                "negative",
                null
            ],
            [
                "end_time",
                1
            ]
        ]
    }
]