[
    {
        "nid": "VIII: Justice Damage Calc",
        "name": "VIII: Justice",
        "desc": "One's birth is a roll of dice, but in death all men pay equal price.",
        "icon_nid": "processed_ffta2instruments",
        "icon_index": [
            0,
            13
        ],
        "components": []
    }
]