[
    {
        "nid": "Vorpal Weapon",
        "name": "Vorpal Slash <red>(10 Mana)</>",
        "desc": "Active. Attack at +1 max range using MAG. Magic weapons gain +6 MT. Cannot double at max range.",
        "icon_nid": "LTSkillIconSheet",
        "icon_index": [
            4,
            6
        ],
        "components": [
            [
                "class_skill",
                null
            ],
            [
                "condition",
                "not 'Dispeller_Child' in [skill.nid for skill in unit.skills]"
            ],
            [
                "combat_art",
                "Vorpal Weapon_proc"
            ],
            [
                "combat_art_set_max_range",
                3
            ],
            [
                "combat_art_modify_max_range",
                1
            ],
            [
                "cost_mana",
                10
            ]
        ]
    }
]