[
    {
        "nid": "XIII: Death Poem",
        "name": "XIII: Death",
        "desc": "When one path ends, another begins. Miss you not a change in winds.",
        "icon_nid": "processed_ffta2instruments",
        "icon_index": [
            0,
            13
        ],
        "components": []
    }
]