[
    {
        "nid": "XX: Judgement Damage Calc",
        "name": "XX: Judgement",
        "desc": "The end is come and all must face <red>judgement</r> blind of country, creed, or race.",
        "icon_nid": "processed_ffta2instruments",
        "icon_index": [
            0,
            13
        ],
        "components": [
            [
                "dynamic_damage",
                "unit2.get_stat('RES')"
            ]
        ]
    }
]