[
    {
        "nid": "XXI: The World",
        "name": "XXI: The World <red>(21 Mana)</>",
        "desc": "Bask you in creation's glory, for each man, leaf, and droplet tells a story. (Access all verses.)",
        "icon_nid": "processed_ffta2instruments",
        "icon_index": [
            0,
            1
        ],
        "components": [
            [
                "class_skill",
                null
            ],
            [
                "ability",
                "The World"
            ],
            [
                "condition",
                "not 'Dispeller_Child' in [skill.nid for skill in unit.skills]"
            ]
        ]
    }
]